<?xml version="1.0" encoding="utf-8"?>
<!-- Generator: Adobe Illustrator 16.0.0, SVG Export Plug-In . SVG Version: 6.00 Build 0)  -->
<!DOCTYPE svg PUBLIC "-//W3C//DTD SVG 1.1//EN" "http://www.w3.org/Graphics/SVG/1.1/DTD/svg11.dtd">
<svg version="1.1" id="Layer_1" xmlns="http://www.w3.org/2000/svg" xmlns:xlink="http://www.w3.org/1999/xlink" x="0px" y="0px"
	 width="800px" height="800px" viewBox="0 0 800 800" enable-background="new 0 0 800 800" xml:space="preserve">
<g>
	<circle id="circle_5_" fill="#4B98AC" cx="392.358" cy="415.039" r="373.96"/>
	<g>
		<g>
			<g>
				<path fill="#BA141A" d="M628.537,326.891V326.3c4.006-3.281,6.637-8.553,6.637-14.547c0-5.343-2.16-10.031-5.449-13.325H149.811
					c-3.295,3.294-5.453,7.982-5.453,13.325c0,5.994,2.631,11.266,6.637,14.547v0.591v177.36v0.884
					c-4.006,3.273-6.637,8.547-6.637,14.549c0,5.992,2.631,11.262,6.637,14.541c2.646,2.173,5.885,3.488,9.402,3.488
					c-0.516,0-1.012,0.084-1.518,0.138h461.766c-0.502-0.054-0.996-0.138-1.514-0.138c3.521,0,6.754-1.315,9.406-3.488
					c4.006-3.279,6.637-8.549,6.637-14.541c0-6.002-2.631-11.275-6.637-14.549v-0.884V326.891z"/>
				<path fill="#BA141A" d="M149.848,262.322c-3.316,3.299-5.49,7.999-5.49,13.365c0,5.995,2.631,11.269,6.637,14.546
					c2.646,2.166,5.885,3.488,9.402,3.488c-0.248,0-0.484,0.054-0.734,0.066h460.203c-0.246-0.013-0.482-0.066-0.734-0.066
					c3.521,0,6.754-1.322,9.406-3.488c4.006-3.277,6.637-8.551,6.637-14.546c0-5.366-2.174-10.066-5.49-13.365H149.848z"/>
				<path fill="#BA141A" d="M149.869,614.475c-3.322,3.307-5.512,8.012-5.512,13.389c0,5.997,2.631,11.276,6.637,14.548v0.3v12.22
					v62.994H389.77h238.768v-62.994v-12.22v-0.3c4.006-3.271,6.637-8.551,6.637-14.548c0-5.377-2.189-10.082-5.516-13.389H149.869z"
					/>
				<path fill="#BA141A" d="M149.916,578.367c-3.354,3.297-5.559,8.027-5.559,13.426c0,5.999,2.631,11.275,6.637,14.555
					c2.646,2.174,5.885,3.49,9.402,3.49h458.734c3.521,0,6.754-1.316,9.406-3.49c4.006-3.279,6.637-8.556,6.637-14.555
					c0-5.398-2.203-10.129-5.557-13.426H149.916z"/>
				<path fill="#BA141A" d="M149.748,542.491c-3.254,3.288-5.391,7.948-5.391,13.265c0,5.99,2.631,11.26,6.637,14.537
					c2.521,2.059,5.58,3.322,8.908,3.436h459.723c3.332-0.113,6.393-1.377,8.912-3.436c4.006-3.277,6.637-8.547,6.637-14.537
					c0-5.316-2.135-9.977-5.391-13.265H149.748z"/>
				<path fill="#BA141A" d="M150.994,218.119c2.617,2.143,5.824,3.454,9.307,3.476h458.93c3.482-0.021,6.684-1.333,9.307-3.476
					c4.006-3.285,6.637-8.555,6.637-14.555c0-5.99-2.631-11.262-6.637-14.545v-0.584v-76.947H389.77H150.994v76.947v0.584
					c-4.006,3.283-6.637,8.555-6.637,14.545C144.357,209.564,146.988,214.833,150.994,218.119z"/>
				<path fill="#BA141A" d="M149.885,226.237c-3.334,3.299-5.527,8.019-5.527,13.397c0,5.999,2.631,11.267,6.637,14.547
					c2.633,2.152,5.84,3.457,9.334,3.477c-0.076,0-0.156,0.021-0.232,0.021h459.332c-0.076,0-0.152-0.021-0.227-0.021
					c3.5-0.02,6.705-1.324,9.336-3.477c4.006-3.28,6.637-8.548,6.637-14.547c0-5.379-2.193-10.099-5.527-13.397H149.885z"/>
			</g>
			<g>
				<path fill="#BA141A" d="M628.537,613.316c-2.652-2.165-5.885-3.479-9.406-3.479H160.396c-3.518,0-6.756,1.313-9.402,3.479
					c-0.41,0.336-0.74,0.779-1.125,1.158h479.789C629.277,614.096,628.947,613.652,628.537,613.316z"/>
				<path fill="#BA141A" d="M149.916,578.367h479.701c-0.369-0.36-0.684-0.787-1.08-1.111c-2.631-2.155-5.836-3.465-9.336-3.49
					c0.145,0,0.281-0.032,0.424-0.037H159.902c0.145,0.005,0.281,0.037,0.426,0.037c-3.494,0.025-6.701,1.335-9.334,3.49
					C150.6,577.58,150.283,578.007,149.916,578.367z"/>
				<path fill="#BA141A" d="M628.537,541.203c-2.266-1.861-4.965-3.029-7.893-3.353H158.879c-2.928,0.323-5.631,1.491-7.885,3.353
					c-0.455,0.373-0.828,0.863-1.246,1.288h480.035C629.365,542.066,628.992,541.576,628.537,541.203z"/>
				<path fill="#BA141A" d="M628.537,225.09c-2.652-2.176-5.885-3.483-9.406-3.483c0.033,0,0.062-0.013,0.1-0.013h-458.93
					c0.031,0,0.061,0.013,0.096,0.013c-3.518,0-6.756,1.308-9.402,3.483c-0.406,0.333-0.732,0.771-1.109,1.146h479.762
					C629.266,225.861,628.943,225.423,628.537,225.09z"/>
				<path fill="#BA141A" d="M628.537,261.134c-2.57-2.097-5.695-3.374-9.109-3.455H160.096c-3.402,0.081-6.531,1.358-9.102,3.455
					c-0.416,0.344-0.76,0.799-1.146,1.188h479.836C629.297,261.933,628.955,261.478,628.537,261.134z"/>
				<path fill="#BA141A" d="M628.537,297.205c-2.465-2.016-5.439-3.248-8.672-3.417H159.662c-3.227,0.169-6.213,1.401-8.668,3.417
					c-0.434,0.358-0.781,0.82-1.184,1.224h479.914C629.32,298.025,628.971,297.563,628.537,297.205z"/>
			</g>
		</g>
		<g>
			<path fill="#213763" d="M626.865,717.925H152.652c-4.979,0-9.016,4.557-9.016,10.154c0,5.597,4.037,10.136,9.016,10.136h474.213
				c4.979,0,9.031-4.539,9.031-10.136C635.896,722.481,631.844,717.925,626.865,717.925z"/>
		</g>
		<g>
			<path fill="#213763" d="M647.549,110.617c0,10.355-7.467,18.746-16.686,18.746h-477.01c-9.215,0-16.686-8.391-16.686-18.746l0,0
				c0-10.348,7.471-18.753,16.686-18.753h477.01C640.082,91.864,647.549,100.269,647.549,110.617L647.549,110.617z"/>
		</g>
		<g opacity="0.29">
			<g>
				<path fill="#213763" d="M401.604,677.717c-3.189,0-5.781,1.509-5.781,3.372v18.146c0,1.861,2.592,3.374,5.781,3.374
					c3.191,0,5.775-1.513,5.775-3.374v-18.146C407.379,679.226,404.795,677.717,401.604,677.717z"/>
			</g>
			<g>
				<path fill="#213763" d="M262.168,677.717c-3.189,0-5.779,1.509-5.779,3.372v18.146c0,1.861,2.59,3.374,5.779,3.374
					c3.191,0,5.777-1.513,5.777-3.374v-18.146C267.945,679.226,265.359,677.717,262.168,677.717z"/>
			</g>
			<g>
				<path fill="#213763" d="M332.33,677.717c-3.191,0-5.771,1.509-5.771,3.372v18.146c0,1.861,2.58,3.374,5.771,3.374
					s5.777-1.513,5.777-3.374v-18.146C338.107,679.226,335.521,677.717,332.33,677.717z"/>
			</g>
			<g>
				<path fill="#213763" d="M540.652,677.717c-3.189,0-5.777,1.509-5.777,3.372v18.146c0,1.861,2.588,3.374,5.777,3.374
					c3.193,0,5.779-1.513,5.779-3.374v-18.146C546.432,679.226,543.846,677.717,540.652,677.717z"/>
			</g>
			<g>
				<path fill="#213763" d="M471.385,677.717c-3.189,0-5.783,1.509-5.783,3.372v18.146c0,1.861,2.594,3.374,5.783,3.374
					c3.188,0,5.775-1.513,5.775-3.374v-18.146C477.16,679.226,474.572,677.717,471.385,677.717z"/>
			</g>
		</g>
		<g>
			<g>
				<g>
					<path fill="#FFFFFF" d="M307.861,347.139c-7.867,0-12.611-4.372-12.611-11.736v-69.42c0-7.367,4.623-11.735,12.611-11.735
						h32.455c17.98,0,28.344,7.866,28.344,24.22c0,6.371-2.367,12.237-6.115,16.984l-3.244,4.242l3.746,3.867
						c5.613,5.372,8.742,11.492,8.742,18.607c0,15.731-10.621,24.971-30.969,24.971H307.861z M336.324,270.853h-17.605v21.475
						h21.598l3.129-4.492c1.619-2.251,2.617-4.996,2.617-8.117C346.062,274.599,343.316,270.853,336.324,270.853z M318.719,308.685
						v21.72h18.854c7.113,0,10.861-3.618,10.861-9.114c0-3.124-1.244-5.745-3.494-8.115l-4.119-4.49H318.719z"/>
					<path fill="#FFFFFF" d="M393.018,271.107c-6.994,0-11.115-3.879-11.115-10.114c0-6.121,4.121-9.989,11.115-9.989
						c6.988,0,11.107,3.868,11.107,9.989C404.125,267.228,400.006,271.107,393.018,271.107z M383.277,347.139v-68.672h19.477v68.672
						H383.277z"/>
					<path fill="#FFFFFF" d="M478.045,250.376v83.023c0,6.119-2.5,9.367-8.742,11.24c-8.486,2.499-15.107,3.123-21.975,3.123
						c-20.977,0-33.336-12.609-33.336-34.587c0-22.095,10.363-35.082,30.836-35.082c4.996,0,9.986,1.376,13.49,2.371v-26.589
						C464.809,252.75,471.551,251.626,478.045,250.376z M433.594,313.047c0,12.114,4.369,19.358,14.732,19.358
						c3.123,0,5.121-0.374,9.992-1.375v-35.209c-5.625-1.496-8.242-1.869-10.742-1.994
						C437.59,293.828,433.594,300.443,433.594,313.047z"/>
				</g>
				<g>
					<path fill="#FFFFFF" d="M267.387,234.287v-12.143h18.262v-45.09h-2.165c-2.447,0-7.813,0.659-10.731,2.542l-2.354-12.237
						c4.801-2.354,12.426-3.106,16.568-3.106h5.177c6.118,0,9.507,3.389,9.507,8.942v48.949h14.873v12.143H267.387z"/>
					<path fill="#FFFFFF" d="M335.441,238.053c-0.941,3.012-3.201,4.801-7.154,4.801c-5.554,0-7.531-3.483-6.495-7.625l3.577-15.155
						h15.249L335.441,238.053z"/>
					<path fill="#FFFFFF" d="M394.46,211.79c0,14.872-8.001,23.438-23.345,23.438c-15.531,0-23.91-8.378-23.91-23.156v-25.228
						c0-14.778,8.379-23.345,23.627-23.345c15.532,0,23.628,8.472,23.628,23.251V211.79z M379.211,186.374
						c0-6.495-2.542-10.166-8.284-10.166c-5.836,0-8.284,3.671-8.284,10.166v25.98c0,6.401,2.448,10.261,8.284,10.261
						c5.742,0,8.284-3.672,8.284-10.261V186.374z"/>
					<path fill="#FFFFFF" d="M449.994,211.79c0,14.872-8.001,23.438-23.344,23.438c-15.532,0-23.91-8.378-23.91-23.156v-25.228
						c0-14.778,8.378-23.345,23.627-23.345c15.531,0,23.627,8.472,23.627,23.251V211.79z M434.745,186.374
						c0-6.495-2.542-10.166-8.284-10.166c-5.836,0-8.283,3.671-8.283,10.166v25.98c0,6.401,2.447,10.261,8.283,10.261
						c5.742,0,8.284-3.672,8.284-10.261V186.374z"/>
					<path fill="#FFFFFF" d="M505.529,211.79c0,14.872-8.002,23.438-23.346,23.438c-15.531,0-23.909-8.378-23.909-23.156v-25.228
						c0-14.778,8.378-23.345,23.627-23.345c15.532,0,23.628,8.472,23.628,23.251V211.79z M490.279,186.374
						c0-6.495-2.541-10.166-8.283-10.166c-5.836,0-8.283,3.671-8.283,10.166v25.98c0,6.401,2.447,10.261,8.283,10.261
						c5.742,0,8.283-3.672,8.283-10.261V186.374z"/>
				</g>
			</g>
		</g>
		<g>
			<circle fill="#FFFFFF" cx="483.891" cy="455.79" r="63.389"/>
			<g>
				<g>
					<defs>
						<path id="SVGID_11_" d="M544.85,455.102c0,33.842-27.436,61.278-61.275,61.278s-61.277-27.437-61.277-61.278
							c0-33.84,27.438-61.271,61.277-61.271S544.85,421.262,544.85,455.102z"/>
					</defs>
					<clipPath id="SVGID_2_">
						<use xlink:href="#SVGID_11_"  overflow="visible"/>
					</clipPath>
					<g clip-path="url(#SVGID_2_)">
						<g>
							<g>
								<g>
									<path fill="#FFFFFF" d="M545.219,455.199c0,33.84-27.436,61.279-61.277,61.279c-33.84,0-61.277-27.439-61.277-61.279
										c0-33.842,27.438-61.274,61.277-61.274C517.783,393.925,545.219,421.357,545.219,455.199z"/>
								</g>
							</g>
							<g>
								<path fill="#D1D3D4" d="M473.721,488.831c1.223,0,2.215,1.252,2.215,2.802c0,1.551-0.992,2.803-2.215,2.803
									c-1.232,0-2.223-1.252-2.223-2.803C471.498,490.083,472.488,488.831,473.721,488.831z"/>
								<path fill="#D1D3D4" d="M501.102,483.104c1.186,0,2.156,1.234,2.156,2.747c0,1.512-0.971,2.746-2.156,2.746
									c-1.197,0-2.16-1.234-2.16-2.746C498.941,484.339,499.904,483.104,501.102,483.104z"/>
								<path fill="#FFF200" d="M492.58,476.444c1.383,1.091,2.271,2.782,2.271,4.68c0,3.288-2.664,5.96-5.961,5.96
									c-3.287,0-5.947-2.672-5.947-5.96c0-0.505,0.064-1,0.193-1.475c0.082-0.385,0.215-0.751,0.393-1.095
									c0.945-1.998,2.99-3.39,5.361-3.39c1.084,0,2.102,0.288,2.98,0.802C492.125,476.107,492.357,476.265,492.58,476.444z"/>
								<path fill="#F1F2F2" d="M522.119,470.847c0.057,0,0.074,0,0.074,0h0.084c-0.064,3.028,0.299,6.065,1.98,8.071
									c0.217,0.255,0.449,0.479,0.703,0.665l-0.217,0.3c-4.83,1.241-10.146-0.805-10.379,1.765
									c-0.197,2.177,0.721,4.456,0.729,6.642c0,0.01,0,0.01,0,0.019c0,0.056,0,0.073,0,0.073l-0.271,0.058
									c-0.643-0.178-1.336-0.271-1.922-0.384c-3.148-0.597-5.736-1.512-8.492-3.157v-0.009c-0.029-0.084-0.049-0.166-0.066-0.252
									c-0.709-3.672-0.129-7.417-0.924-11.137c-0.309-1.417-0.889-2.81-1.102-4.23h0.008c4.381-2.336,8.332-5.287,11.5-8.986
									l0.197-0.029c0.223,1.432,0.588,2.823,1.109,4.13C516.459,467.746,518.803,469.653,522.119,470.847z"/>
								<path fill="#61D1FF" d="M522.793,436.209c0.186,3.29,0.342,6.51,0.43,9.727c-0.545-0.814-1.244-1.459-2.094-1.738
									c0.498-2.962,0.84-6.286,1.344-9.294l0.242-0.011C522.746,435.342,522.762,435.783,522.793,436.209z"/>
								<path fill="#F1F2F2" d="M454.879,424.532v-0.007c2.008-3.719,6.848-7.344,9.855-3.027c0.664,0.963,1.084,2.064,1.512,3.14
									c0.168,0.419,0.516,1.754,1.076,1.858c0.568,0.102,0.934-1.037,1.1-1.412c1.234-2.828,2.523-5.66,5.551-6.931
									c7.697-3.239,14.844-0.326,18.646,6.886c1.906,3.595,2.24,7.5,2.398,11.516c0.02,0.496,0.049,0.991,0.066,1.487l0.055,0.064
									c2.918-2.578,6.635-4.25,10.521-4.578c0.83-0.073,2.793,0.317,3.865,0.058c3.242-0.12,11.92,1.772,12.947,1.317
									c-0.504,3.008-0.846,6.332-1.344,9.294c-0.701-0.225-1.494-0.195-2.383,0.197c-3.326,1.467-4.566,5.977-4.902,9.256
									c-0.225,2.148-0.188,4.419,0.178,6.604l-0.197,0.029c-3.168,3.699-7.119,6.65-11.5,8.986h-0.008
									c-2.02,1.066-4.121,2-6.279,2.813c-0.699,0.26-1.41,0.513-2.119,0.745c-0.795,0.272-1.6,0.523-2.412,0.756
									c-4.326,1.262-9.367,1.625-14.461,1.133c-1.521-0.152-3.053-0.375-4.566-0.674c-0.197-0.037-0.383-0.075-0.57-0.111
									c-3.223-0.693-6.379-1.72-9.295-3.085c-2.939-1.38-5.633-3.101-7.902-5.153l0.037-0.104
									c-4.324-1.459-8.107-4.226-10.967-8.625c-1.961-3.016-3.949-8.461-2.904-12.198c0.746-2.681,3.744-5.07,6.547-4.997
									c2.41,0.064,4.812,0.607,7.203,0.885l0.059-0.475c-1.34-5.257-1.824-10.5,0.182-15.628
									C454.867,424.543,454.867,424.543,454.879,424.532z M488.666,434.267c0-4.278-2.848-7.744-6.369-7.744
									c-3.514,0-6.361,3.466-6.361,7.744c0,4.271,2.848,7.735,6.361,7.735C485.818,442.002,488.666,438.537,488.666,434.267z
									 M464.818,433.455c0-3.241-2.066-5.857-4.615-5.857c-2.541,0-4.604,2.616-4.604,5.857c0,3.23,2.062,5.855,4.604,5.855
									C462.752,439.311,464.818,436.686,464.818,433.455z"/>
								<path fill="#1B6FB3" d="M517.309,493.176c0.223,6.911,1.559,13.983,0.549,20.876c-0.521,3.607-0.793,8.521-1.324,12.127
									l-17.889,0.867v-0.093c3.008-1.794,7.125-3.475,9.359-6.278c2.729-3.437,0.945-8.351,0.375-12.219
									c-0.365-2.43-0.488-4.864-0.656-7.305c-0.102-1.588-0.146-3.728-1.447-4.866c-1.41-1.242-3.699-0.757-5.334-0.373
									c-2.895,0.681-5.678,1.812-8.5,2.765c-2.783,0.953-5.635,1.813-8.566,2.177c-2.465,0.315-5.287,0.113-7.764-0.057h-0.01
									c-0.326-1.457-1.09-2.812-2.277-3.597c-1.6-1.056-3.242-0.962-4.652-0.178c0.178-0.765,0.336-1.55,0.447-2.354h0.01
									c0.84,0.182,1.662,0.916,2.445,1.26c0.404,0.17,0.75,0.423,1.143,0.525c0.301,0.077,0.812,0,1.084,0.15
									c0.82-0.197,1.299-0.962,1.867-1.532c0.662-0.665,1.439-1.215,2.064-1.924c0.795-0.907,0.15-1.889-0.439-2.831
									c3.195,0.467,6.436-0.401,9.512-1.215c2.557-0.682,6.584-1.101,8.537-3.055c-0.076,0.449-0.16,0.889-0.225,1.329
									c-0.215,1.342,1.494,1.688,2.41,2.239c1.072,0.663,2.018,1.551,3.213,2.009c0.887-1.308,2.551-2.14,3.682-3.23
									c0.615-0.607,0.457-0.973,0.195-1.777c-0.195-0.586-0.543-1.12-0.709-1.719c2.756,1.646,5.344,2.561,8.492,3.157
									c0.586,0.113,1.279,0.206,1.922,0.384c0.656,0.177,1.262,0.438,1.691,0.913C517.41,490.325,517.271,491.95,517.309,493.176z
									"/>
								<path fill="#414042" d="M509.992,433.389c-0.119,0.094-0.279,0.16-0.467,0.197c-1.072,0.26-3.035-0.131-3.865-0.058
									c-3.887,0.328-7.604,2-10.521,4.578l-0.055-0.064c-0.018-0.496-0.047-0.991-0.066-1.487
									c-0.158-4.016-0.492-7.921-2.398-11.516c-3.803-7.212-10.949-10.125-18.646-6.886c-3.027,1.271-4.316,4.103-5.551,6.931
									c-0.166,0.375-0.531,1.514-1.1,1.412c-0.561-0.104-0.908-1.439-1.076-1.858c-0.428-1.075-0.848-2.177-1.512-3.14
									c-3.008-4.316-7.848-0.691-9.855,3.027c0.066-0.187,0.141-0.375,0.223-0.562c1.068-2.503,2.674-4.651,4.615-6.454
									c2.047-1.889,4.486-3.383,7.092-4.458c1.037-0.43,2.102-0.794,3.174-1.091c3.402-0.936,6.23-1.094,9.709-0.693l0.055-0.056
									c0.039-3.091-0.289-5.529-0.309-8.62c-0.027-2.721-0.158-4.767,0.15-8.287c4.053,3.988,11.34,7.427,16.355,11.912
									c2.682,2.398,5.324,5.119,7.465,8.013c1.961,2.643,3.314,5.735,4.299,8.874c1.008,3.211,1.959,6.904,2.307,10.276
									C510.004,433.389,510.004,433.389,509.992,433.389z M492.051,413.865c0.176-0.793-0.701-2.363-1.076-3.053
									c-1.99-3.636-5.146-6.392-7.885-9.233c-0.551-0.567-1.035-1.548-1.877-1.717c-0.766,1.269-0.449,4.623-0.496,6.102
									c-0.066,2.363,0.059,4.725,0.123,7.079L492.051,413.865z"/>
								<path fill="#085B9E" d="M508.379,508.456c0.57,3.868,2.354,8.782-0.375,12.219c-2.234,2.804-6.352,4.484-9.359,6.278v0.093
									l-18.572,0.907l-0.008-0.122c-1.176,0-4.625-2.026-5.23-2.288c-0.656-0.281-1.199-0.412-1.76-0.878
									c-2.129-1.767,0.432-4.962-1.184-7.51c3.316-2.711,5.072-6.577,3.25-11.399c0.4-0.447,0.709-0.96,0.896-1.578
									c0.307-1.036,0.326-2.24,0.064-3.381h0.01c2.477,0.17,5.299,0.372,7.764,0.057c2.932-0.363,5.783-1.224,8.566-2.177
									c2.822-0.953,5.605-2.084,8.5-2.765c1.635-0.384,3.924-0.869,5.334,0.373c1.301,1.139,1.346,3.278,1.447,4.866
									C507.891,503.592,508.014,506.026,508.379,508.456z"/>
								<path fill="#1B6FB3" d="M504.408,484.889v0.009c0.166,0.599,0.514,1.133,0.709,1.719c0.262,0.805,0.42,1.17-0.195,1.777
									c-1.131,1.091-2.795,1.923-3.682,3.23c-1.195-0.458-2.141-1.346-3.213-2.009c-0.916-0.552-2.625-0.897-2.41-2.239
									c0.064-0.44,0.148-0.88,0.225-1.329c0.803-4.511,1.916-9.565,0.215-13.927c0-0.011-0.01-0.03-0.02-0.037
									c2.158-0.813,4.26-1.747,6.279-2.813c0.213,1.421,0.793,2.813,1.102,4.23c0.795,3.72,0.215,7.465,0.924,11.137
									C504.359,484.723,504.379,484.805,504.408,484.889z M503.258,485.852c0-1.513-0.971-2.747-2.156-2.747
									c-1.197,0-2.16,1.234-2.16,2.747c0,1.512,0.963,2.746,2.16,2.746C502.287,488.598,503.258,487.363,503.258,485.852z"/>
								<path fill="#F1F2F2" d="M496.057,472.12c1.701,4.361,0.588,9.416-0.215,13.927c-1.953,1.954-5.98,2.373-8.537,3.055
									c-3.076,0.813-6.316,1.682-9.512,1.215c-0.205-0.337-0.41-0.665-0.529-0.982c-1.377-3.494-1.824-7.266-3.031-10.814
									c-0.408-1.227-1.127-3.869-2.324-4.588c0.188,0.036,0.373,0.074,0.57,0.111c-0.32,0.393,3.754,3.381,4.213,3.651
									c1.748,1.03,4.354,2.206,6.445,1.955c-0.129,0.475-0.193,0.97-0.193,1.475c0,3.288,2.66,5.96,5.947,5.96
									c3.297,0,5.961-2.672,5.961-5.96c0-1.897-0.889-3.589-2.271-4.68c0.385-0.412,1.309-1.085,1.936-1.599
									c0.588-0.485,1.699-1.82,1.504-2.707L496.057,472.12z"/>
								<path fill="#ED1C24" d="M496.037,472.083c0.01,0.007,0.02,0.026,0.02,0.037l-0.037,0.019
									c0.195,0.887-0.916,2.222-1.504,2.707c-0.627,0.514-1.551,1.187-1.936,1.599c-0.223-0.18-0.455-0.337-0.709-0.478v-0.008
									c-0.102-0.28,0.768-1.599,0.998-1.896c0.32-0.419,0.684-0.85,1.049-1.234C494.627,472.596,495.338,472.343,496.037,472.083z
									"/>
								<path fill="#F1F2F2" d="M493.918,472.828c-0.365,0.385-0.729,0.815-1.049,1.234c-0.23,0.298-1.1,1.616-0.998,1.896v0.008
									c-0.879-0.514-1.896-0.802-2.98-0.802c-2.371,0-4.416,1.392-5.361,3.39c-1.193,0-2.523-0.803-3.492-1.466
									c-0.871-0.599-2.326-1.889-2.992-2.372c5.094,0.492,10.135,0.129,14.461-1.133
									C492.318,473.352,493.123,473.101,493.918,472.828z"/>
								<path fill="#FFE3E3" d="M490.975,410.812c0.375,0.689,1.252,2.26,1.076,3.053l-11.211-0.822
									c-0.064-2.354-0.189-4.716-0.123-7.079c0.047-1.479-0.27-4.833,0.496-6.102c0.842,0.169,1.326,1.149,1.877,1.717
									C485.828,404.421,488.984,407.177,490.975,410.812z"/>
								<path fill="#FFFFFF" d="M482.297,426.522c3.521,0,6.369,3.466,6.369,7.744c0,4.271-2.848,7.735-6.369,7.735
									c-3.514,0-6.361-3.465-6.361-7.735C475.936,429.988,478.783,426.522,482.297,426.522z M488.201,434.876
									c0-3.411-2.018-6.185-4.502-6.185c-2.486,0-4.494,2.773-4.494,6.185c0,3.419,2.008,6.184,4.494,6.184
									C486.184,441.06,488.201,438.295,488.201,434.876z"/>
								<path fill="#231F20" d="M483.699,428.691c2.484,0,4.502,2.773,4.502,6.185c0,3.419-2.018,6.184-4.502,6.184
									c-2.486,0-4.494-2.765-4.494-6.184C479.205,431.465,481.213,428.691,483.699,428.691z M484.754,432.362
									c0-1.281-0.758-2.308-1.691-2.308c-0.943,0-1.701,1.026-1.701,2.308c0,1.279,0.758,2.306,1.701,2.306
									C483.996,434.668,484.754,433.642,484.754,432.362z"/>
								<path fill="#FFFFFF" d="M483.062,430.055c0.934,0,1.691,1.026,1.691,2.308c0,1.279-0.758,2.306-1.691,2.306
									c-0.943,0-1.701-1.026-1.701-2.306C481.361,431.081,482.119,430.055,483.062,430.055z"/>
								<path fill="#ED1C24" d="M483.529,478.555c-0.178,0.344-0.311,0.71-0.393,1.095c-2.092,0.251-4.697-0.925-6.445-1.955
									c-0.459-0.271-4.533-3.259-4.213-3.651c1.514,0.299,3.045,0.521,4.566,0.674c0.666,0.483,2.121,1.773,2.992,2.372
									C481.006,477.752,482.336,478.555,483.529,478.555z"/>
								<path fill="#1B6FB3" d="M480.064,527.831l0.008,0.122l-22.457,1.084l-0.01-0.233c-0.551-0.496-0.02-7.566,0.508-7.903
									l0.016-0.037c2.777,1.093,6.949-0.047,9.727-1.278c1.482-0.655,2.857-1.478,4.035-2.43c1.615,2.548-0.945,5.743,1.184,7.51
									c0.561,0.466,1.104,0.597,1.76,0.878C475.439,525.805,478.889,527.831,480.064,527.831z"/>
								<path fill="#1B6FB3" d="M462.689,472.735c-0.674-0.916-1.066-1.821-0.084-1.869l0.008-0.02
									c2.916,1.365,6.072,2.392,9.295,3.085c1.197,0.719,1.916,3.361,2.324,4.588c1.207,3.549,1.654,7.32,3.031,10.814
									c0.119,0.317,0.324,0.646,0.529,0.982c0.59,0.942,1.234,1.924,0.439,2.831c-0.625,0.709-1.402,1.259-2.064,1.924
									c-0.568,0.57-1.047,1.335-1.867,1.532c-0.271-0.15-0.783-0.073-1.084-0.15c-0.393-0.103-0.738-0.355-1.143-0.525
									c-0.783-0.344-1.605-1.078-2.445-1.26h-0.01c0.412-2.744,0.383-5.641-0.746-8.135c-0.262-0.587-0.598-1.139-0.99-1.645
									l0.037-0.028c-1.85-3.213-1.01-7.136-3.635-10.21C464.068,474.397,463.268,473.558,462.689,472.735z M475.936,491.633
									c0-1.55-0.992-2.802-2.215-2.802c-1.232,0-2.223,1.252-2.223,2.802c0,1.551,0.99,2.803,2.223,2.803
									C474.943,494.436,475.936,493.184,475.936,491.633z"/>
								<path fill="#F1F2F2" d="M471.891,517.155c-1.178,0.952-2.553,1.774-4.035,2.43c-2.777,1.231-6.949,2.371-9.727,1.278
									c-0.336-0.131-0.641-0.289-0.934-0.497c-3.877,0.936-7.781,2.037-11.725,2.704c-5.902,0.977-11.807-0.826-15.234-5.973
									c-2.055-3.09-2.887-6.52-2.887-10.005c0-3.614,0.896-7.296,2.223-10.706c4.055-10.376,15.572-19.57,26.082-22.643
									c2.225-0.654,4.736-0.85,7.035-1.009c0.578,0.822,1.379,1.662,1.596,1.915c2.625,3.074,1.785,6.997,3.635,10.21
									l-0.037,0.028c0.393,0.506,0.729,1.058,0.99,1.645c1.129,2.494,1.158,5.391,0.746,8.135c-0.111,0.805-0.27,1.59-0.447,2.354
									c1.41-0.784,3.053-0.878,4.652,0.178c1.188,0.785,1.951,2.14,2.277,3.597c0.262,1.141,0.242,2.345-0.064,3.381
									c-0.188,0.618-0.496,1.131-0.896,1.578C476.963,510.578,475.207,514.444,471.891,517.155z"/>
								<path fill="#414042" d="M466.715,412.817l0.094,0.234c-2.605,1.075-5.045,2.569-7.092,4.458l-0.131-0.142
									c-0.215-0.998-0.766-1.822-1.176-2.745c-0.965-2.168-1.674-4.428-2.504-6.652c-0.279-0.747-0.42-2.185-1.24-2.548
									c-1.207-0.545-1.16,1.193-1.273,1.904h-0.025c-0.012-1.804-0.188-3.793,0.41-5.474c0.449,0.178,0.812,0.829,1.139,1.175
									c2.645,2.841,6.008,5.428,9.258,7.54C465.182,411.231,465.986,411.865,466.715,412.817z"/>
								<path fill="#FFFFFF" d="M460.203,427.598c2.549,0,4.615,2.616,4.615,5.857c0,3.23-2.066,5.855-4.615,5.855
									c-2.541,0-4.604-2.625-4.604-5.855C455.6,430.214,457.662,427.598,460.203,427.598z M464.482,433.912
									c0-2.576-1.457-4.67-3.262-4.67c-1.803,0-3.26,2.094-3.26,4.67c0,2.588,1.457,4.682,3.26,4.682
									C463.025,438.594,464.482,436.5,464.482,433.912z"/>
								<path fill="#231F20" d="M461.221,429.242c1.805,0,3.262,2.094,3.262,4.67c0,2.588-1.457,4.682-3.262,4.682
									c-1.803,0-3.26-2.094-3.26-4.682C457.961,431.336,459.418,429.242,461.221,429.242z M461.99,432.017
									c0-0.974-0.553-1.747-1.236-1.747c-0.672,0-1.223,0.773-1.223,1.747c0,0.96,0.551,1.747,1.223,1.747
									C461.438,433.764,461.99,432.977,461.99,432.017z"/>
								<path fill="#FFFFFF" d="M460.754,430.27c0.684,0,1.236,0.773,1.236,1.747c0,0.96-0.553,1.747-1.236,1.747
									c-0.672,0-1.223-0.787-1.223-1.747C459.531,431.043,460.082,430.27,460.754,430.27z"/>
								<path fill="#FFE3E3" d="M459.586,417.368l0.131,0.142c-1.941,1.803-3.547,3.951-4.615,6.454
									c-0.082,0.187-0.156,0.375-0.223,0.562c-0.121-0.599-0.559-1.038-0.84-1.581c-2.279-4.426-0.758-10.228-0.672-14.983
									c0-0.203,0-0.419,0-0.634h0.025c0.113-0.711,0.066-2.449,1.273-1.904c0.82,0.363,0.961,1.801,1.24,2.548
									c0.83,2.225,1.539,4.484,2.504,6.652C458.82,415.546,459.371,416.37,459.586,417.368z"/>
								<path fill="none" stroke="#231F20" stroke-width="0.9114" stroke-linecap="round" stroke-miterlimit="10" d="
									M466.787,436.052c-2.344,2.402-4.752,4.362-8.127,4.69c-1.352,0.139-2.689,0.062-4.033-0.088
									c-2.391-0.277-4.793-0.82-7.203-0.885c-2.803-0.073-5.801,2.316-6.547,4.997c-1.045,3.737,0.943,9.183,2.904,12.198
									c2.859,4.399,6.643,7.166,10.967,8.625c3.213,1.093,6.727,1.467,10.371,1.25c4.816-0.279,10.031-1.567,14.449-3.67
									c3.455-1.634,6.652-4.108,9.164-7.127c2.4-2.887,3.691-6.354,4.457-10.062c0.166-0.86,0.326-1.737,0.473-2.604
									c0.012-0.029,0.012-0.057,0.023-0.087"/>
								
									<path fill="none" stroke="#231F20" stroke-width="0.9341" stroke-linecap="round" stroke-linejoin="round" stroke-miterlimit="10" d="
									M521.119,444.226c0-0.011,0-0.018,0.01-0.028c0.498-2.962,0.84-6.286,1.344-9.294c-1.027,0.455-9.705-1.438-12.947-1.317
									c-0.24,0-0.455,0.018-0.623,0.056"/>
								
									<path fill="none" stroke="#231F20" stroke-width="0.9341" stroke-linecap="round" stroke-linejoin="round" stroke-miterlimit="10" d="
									M502.324,469.27c4.381-2.336,8.332-5.287,11.5-8.986"/>
								
									<path fill="none" stroke="#231F20" stroke-width="0.9341" stroke-linecap="round" stroke-linejoin="round" stroke-miterlimit="10" d="
									M454.711,465.693c2.27,2.053,4.963,3.773,7.902,5.153c2.916,1.365,6.072,2.392,9.295,3.085
									c0.188,0.036,0.373,0.074,0.57,0.111c1.514,0.299,3.045,0.521,4.566,0.674c5.094,0.492,10.135,0.129,14.461-1.133
									c0.812-0.232,1.617-0.483,2.412-0.756c0.709-0.232,1.42-0.485,2.119-0.745c2.158-0.813,4.26-1.747,6.279-2.813"/>
								
									<path fill="none" stroke="#231F20" stroke-width="0.9341" stroke-linecap="round" stroke-linejoin="round" stroke-miterlimit="10" d="
									M454.879,424.525c0.066-0.187,0.141-0.375,0.223-0.562c1.068-2.503,2.674-4.651,4.615-6.454
									c2.047-1.889,4.486-3.383,7.092-4.458c1.037-0.43,2.102-0.794,3.174-1.091c3.402-0.936,6.23-1.094,9.709-0.693"/>
								
									<path fill="none" stroke="#231F20" stroke-width="0.9341" stroke-linecap="round" stroke-linejoin="round" stroke-miterlimit="10" d="
									M454.686,440.18c-1.34-5.257-1.824-10.5,0.182-15.628"/>
								
									<path fill="none" stroke="#231F20" stroke-width="0.9341" stroke-linecap="round" stroke-linejoin="round" stroke-miterlimit="10" d="
									M479.746,411.212c0.039-3.091-0.289-5.529-0.309-8.62c-0.027-2.721-0.158-4.767,0.15-8.287
									c4.053,3.988,11.34,7.427,16.355,11.912c2.682,2.398,5.324,5.119,7.465,8.013c1.961,2.643,3.314,5.735,4.299,8.874
									c1.008,3.211,1.959,6.904,2.307,10.276c0.008,0.056,0.008,0.103,0.018,0.159c0,0.056-0.018-0.026-0.039-0.15
									c-0.02-0.129-0.035-0.299-0.035-0.374"/>
								
									<path fill="none" stroke="#231F20" stroke-width="0.9341" stroke-linecap="round" stroke-linejoin="round" stroke-miterlimit="10" d="
									M480.84,413.043c-0.064-2.354-0.189-4.716-0.123-7.079c0.047-1.479-0.27-4.833,0.496-6.102
									c0.842,0.169,1.326,1.149,1.877,1.717c2.738,2.842,5.895,5.598,7.885,9.233c0.375,0.689,1.252,2.26,1.076,3.053
									L480.84,413.043z"/>
								
									<path fill="none" stroke="#231F20" stroke-width="0.9341" stroke-linecap="round" stroke-linejoin="round" stroke-miterlimit="10" d="
									M454.879,424.525c-0.121-0.599-0.559-1.038-0.84-1.581c-2.279-4.426-0.758-10.228-0.672-14.983c0-0.203,0-0.419,0-0.634
									c-0.012-1.804-0.188-3.793,0.41-5.474c0.449,0.178,0.812,0.829,1.139,1.175c2.645,2.841,6.008,5.428,9.258,7.54
									c1.008,0.663,1.812,1.297,2.541,2.249"/>
								
									<path fill="none" stroke="#231F20" stroke-width="0.9341" stroke-linecap="round" stroke-linejoin="round" stroke-miterlimit="10" d="
									M454.916,424.721c-0.008-0.064-0.018-0.13-0.037-0.188"/>
								
									<path fill="none" stroke="#231F20" stroke-width="0.9341" stroke-linecap="round" stroke-linejoin="round" stroke-miterlimit="10" d="
									M453.393,407.327c0.113-0.711,0.066-2.449,1.273-1.904c0.82,0.363,0.961,1.801,1.24,2.548
									c0.83,2.225,1.539,4.484,2.504,6.652c0.41,0.923,0.961,1.747,1.176,2.745"/>
								
									<path fill="none" stroke="#231F20" stroke-width="0.9341" stroke-linecap="round" stroke-linejoin="round" stroke-miterlimit="10" d="
									M454.447,425.43c0.125-0.288,0.264-0.588,0.42-0.878c0-0.009,0-0.009,0.012-0.02v-0.007
									c2.008-3.719,6.848-7.344,9.855-3.027c0.664,0.963,1.084,2.064,1.512,3.14c0.168,0.419,0.516,1.754,1.076,1.858
									c0.568,0.102,0.934-1.037,1.1-1.412c1.234-2.828,2.523-5.66,5.551-6.931c7.697-3.239,14.844-0.326,18.646,6.886
									c1.906,3.595,2.24,7.5,2.398,11.516c0.02,0.496,0.049,0.991,0.066,1.487"/>
								
									<path fill="none" stroke="#231F20" stroke-width="0.9341" stroke-linecap="round" stroke-linejoin="round" stroke-miterlimit="10" d="
									M495.084,438.153c0.02-0.019,0.041-0.028,0.055-0.047c2.918-2.578,6.635-4.25,10.521-4.578
									c0.83-0.073,2.793,0.317,3.865,0.058c0.188-0.037,0.348-0.104,0.467-0.197c0.012,0,0.012,0,0.021-0.009
									c0.008,0,0.008-0.009,0.018-0.009"/>
								<g>
									<path fill="#231F20" d="M495.553,443.869c0.084-0.017,0.081-0.034,0.049-0.075l0.059,0.056
										c-0.252,0.027-0.561,0.03-0.812,0.019c-0.249,0.001-0.454-0.041-0.724-0.036c-0.129,0.002-0.256-0.014-0.383-0.02
										l-0.096-0.007c-0.003,0-0.061-0.005-0.02,0h-0.047l-0.191-0.004l-0.714-0.045l-1.478,0.031
										c-0.24,0.014-0.481,0.02-0.713,0.057c-0.234,0.037-0.461,0.078-0.658,0.27c0.009-0.288,0.259-0.526,0.486-0.683
										c0.24-0.155,0.496-0.27,0.757-0.349c0.519-0.168,1.053-0.225,1.563-0.255c0.225-0.008,0.281,0.023,0.43,0.033l0.38,0.046
										l0.189,0.031l0.048,0.008c0.072,0.009,0.047,0.009,0.074,0.014l0.094,0.022c0.125,0.031,0.25,0.054,0.373,0.094
										c0.239,0.059,0.521,0.18,0.768,0.294c0.244,0.11,0.434,0.214,0.68,0.354l0.045,0.024c0.011,0.007,0.016,0.02,0.014,0.032
										c-0.007,0.035-0.02,0.091-0.071,0.112C495.6,443.905,495.584,443.88,495.553,443.869z"/>
								</g>
								
									<path fill="none" stroke="#231F20" stroke-width="1.0076" stroke-linecap="round" stroke-linejoin="round" stroke-miterlimit="10" d="
									M488.666,434.267c0,4.271-2.848,7.735-6.369,7.735c-3.514,0-6.361-3.465-6.361-7.735c0-4.278,2.848-7.744,6.361-7.744
									C485.818,426.522,488.666,429.988,488.666,434.267z"/>
								
									<path fill="none" stroke="#231F20" stroke-width="0.7566" stroke-linecap="round" stroke-linejoin="round" stroke-miterlimit="10" d="
									M488.201,434.876c0,3.419-2.018,6.184-4.502,6.184c-2.486,0-4.494-2.765-4.494-6.184c0-3.411,2.008-6.185,4.494-6.185
									C486.184,428.691,488.201,431.465,488.201,434.876z"/>
								
									<path fill="none" stroke="#231F20" stroke-width="0.2838" stroke-linecap="round" stroke-linejoin="round" stroke-miterlimit="10" d="
									M484.754,432.362c0,1.279-0.758,2.306-1.691,2.306c-0.943,0-1.701-1.026-1.701-2.306c0-1.281,0.758-2.308,1.701-2.308
									C483.996,430.055,484.754,431.081,484.754,432.362z"/>
								
									<path fill="none" stroke="#231F20" stroke-width="0.7462" stroke-linecap="round" stroke-linejoin="round" stroke-miterlimit="10" d="
									M464.818,433.455c0,3.23-2.066,5.855-4.615,5.855c-2.541,0-4.604-2.625-4.604-5.855c0-3.241,2.062-5.857,4.604-5.857
									C462.752,427.598,464.818,430.214,464.818,433.455z"/>
								
									<path fill="none" stroke="#231F20" stroke-width="0.5603" stroke-linecap="round" stroke-linejoin="round" stroke-miterlimit="10" d="
									M464.482,433.912c0,2.588-1.457,4.682-3.262,4.682c-1.803,0-3.26-2.094-3.26-4.682c0-2.576,1.457-4.67,3.26-4.67
									C463.025,429.242,464.482,431.336,464.482,433.912z"/>
								
									<path fill="none" stroke="#231F20" stroke-width="0.2102" stroke-linecap="round" stroke-linejoin="round" stroke-miterlimit="10" d="
									M461.99,432.017c0,0.96-0.553,1.747-1.236,1.747c-0.672,0-1.223-0.787-1.223-1.747c0-0.974,0.551-1.747,1.223-1.747
									C461.438,430.27,461.99,431.043,461.99,432.017z"/>
								<g>
									<path fill="#231F20" d="M478.973,421.693c0,0,0.07-0.112,0.203-0.298c0.128-0.187,0.338-0.439,0.641-0.719
										c0.171-0.114,0.354-0.27,0.577-0.367c0.231-0.076,0.468-0.193,0.746-0.231c0.233-0.035,0.468-0.09,0.776-0.07
										c0.299-0.01,0.566,0.059,0.849,0.099l0.396,0.131c0.088,0.034,0.082,0.018,0.246,0.094l0.164,0.092
										c0.22,0.126,0.422,0.239,0.627,0.397c0.206,0.187,0.39,0.384,0.557,0.565c0.174,0.177,0.248,0.39,0.354,0.562
										c0.093,0.181,0.196,0.332,0.228,0.498c0.047,0.157,0.078,0.296,0.105,0.408c0.05,0.225,0.068,0.352,0.068,0.352
										s-0.086-0.1-0.237-0.273c-0.068-0.086-0.151-0.189-0.247-0.31c-0.078-0.126-0.229-0.227-0.35-0.358
										c-0.137-0.116-0.256-0.281-0.414-0.386c-0.16-0.107-0.319-0.214-0.469-0.342c-0.178-0.117-0.434-0.197-0.646-0.317
										l-0.166-0.085c0.05,0.023-0.081-0.02-0.112-0.026l-0.327-0.096c-0.217-0.036-0.443-0.106-0.646-0.104
										c-0.19-0.024-0.443-0.026-0.683-0.014c-0.193,0.008-0.394,0.054-0.586,0.069c-0.187,0.041-0.354,0.117-0.525,0.163
										c-0.316,0.157-0.605,0.297-0.806,0.408C479.094,421.641,478.973,421.693,478.973,421.693z"/>
								</g>
								<g>
									<path fill="#231F20" d="M463.09,423.906c0,0-0.063-0.111-0.16-0.31c-0.035-0.107-0.131-0.202-0.21-0.31
										c-0.072-0.108-0.181-0.217-0.306-0.337c-0.109-0.126-0.265-0.231-0.41-0.353c-0.14-0.128-0.334-0.205-0.493-0.329
										c-0.186-0.079-0.367-0.191-0.56-0.243c-0.168-0.086-0.43-0.099-0.514-0.128c-0.222,0.019-0.539-0.014-0.663,0.055
										c-0.16,0.027-0.338,0.091-0.511,0.171c-0.154,0.102-0.33,0.182-0.461,0.311c-0.139,0.122-0.273,0.241-0.379,0.377
										c-0.227,0.255-0.4,0.508-0.514,0.688c-0.121,0.184-0.191,0.288-0.191,0.288s0-0.125,0.016-0.349
										c0.018-0.223,0.07-0.545,0.231-0.908c0.068-0.188,0.179-0.379,0.323-0.568c0.129-0.197,0.328-0.374,0.538-0.537
										c0.229-0.141,0.468-0.3,0.785-0.36c0.331-0.104,0.516-0.066,0.776-0.1c0.398,0.047,0.621,0.101,0.892,0.222
										c0.271,0.088,0.47,0.271,0.688,0.401c0.189,0.171,0.383,0.322,0.52,0.512c0.146,0.179,0.276,0.351,0.359,0.539
										c0.098,0.171,0.168,0.344,0.202,0.516c0.044,0.163,0.075,0.297,0.062,0.405C463.104,423.779,463.09,423.906,463.09,423.906
										z"/>
								</g>
								
									<path fill="none" stroke="#231F20" stroke-width="0.9341" stroke-linecap="round" stroke-linejoin="round" stroke-miterlimit="10" d="
									M444.875,500.273c3.166-0.963,6.51-1.242,9.639-2.26c3.674-1.197,4.299-4.044,4.111-7.576
									c-0.17-3.008-0.318-6.846,3.279-7.837c2.41-0.665,4.568,0.466,5.979,2.288c0.393,0.506,0.729,1.058,0.99,1.645
									c1.129,2.494,1.158,5.391,0.746,8.135c-0.111,0.805-0.27,1.59-0.447,2.354c0,0.009-0.01,0.027-0.01,0.036"/>
								
									<path fill="none" stroke="#231F20" stroke-width="0.9341" stroke-linecap="round" stroke-linejoin="round" stroke-miterlimit="10" d="
									M467.295,498.565c0.551-0.646,1.184-1.177,1.877-1.543c1.41-0.784,3.053-0.878,4.652,0.178
									c1.188,0.785,1.951,2.14,2.277,3.597c0.262,1.141,0.242,2.345-0.064,3.381c-0.188,0.618-0.496,1.131-0.896,1.578
									c-0.447,0.525-1.018,0.953-1.615,1.365"/>
								
									<path fill="none" stroke="#231F20" stroke-width="0.9341" stroke-linecap="round" stroke-linejoin="round" stroke-miterlimit="10" d="
									M475.121,505.702c0.01,0.019,0.02,0.036,0.02,0.054c1.822,4.822,0.066,8.688-3.25,11.399
									c-1.178,0.952-2.553,1.774-4.035,2.43c-2.777,1.231-6.949,2.371-9.727,1.278c-0.336-0.131-0.641-0.289-0.934-0.497
									c-0.008,0-0.008-0.007-0.018-0.007"/>
								
									<path fill="none" stroke="#231F20" stroke-width="0.9341" stroke-linecap="round" stroke-linejoin="round" stroke-miterlimit="10" d="
									M462.699,472.735h-0.01c-2.299,0.159-4.811,0.354-7.035,1.009c-10.51,3.072-22.027,12.267-26.082,22.643
									c-1.326,3.41-2.223,7.092-2.223,10.706c0,3.485,0.832,6.915,2.887,10.005c3.428,5.146,9.332,6.949,15.234,5.973
									c3.943-0.667,7.848-1.769,11.725-2.704c0.064-0.018,0.121-0.026,0.186-0.045"/>
								
									<path fill="none" stroke="#231F20" stroke-width="0.9341" stroke-linecap="round" stroke-linejoin="round" stroke-miterlimit="10" d="
									M462.605,470.866c-0.982,0.048-0.59,0.953,0.084,1.869c0.578,0.822,1.379,1.662,1.596,1.915
									c2.625,3.074,1.785,6.997,3.635,10.21"/>
								
									<path fill="none" stroke="#231F20" stroke-width="0.9341" stroke-linecap="round" stroke-linejoin="round" stroke-miterlimit="10" d="
									M469.629,494.668c0.84,0.182,1.662,0.916,2.445,1.26c0.404,0.17,0.75,0.423,1.143,0.525c0.301,0.077,0.812,0,1.084,0.15
									c0.82-0.197,1.299-0.962,1.867-1.532c0.662-0.665,1.439-1.215,2.064-1.924c0.795-0.907,0.15-1.889-0.439-2.831
									c-0.205-0.337-0.41-0.665-0.529-0.982c-1.377-3.494-1.824-7.266-3.031-10.814c-0.408-1.227-1.127-3.869-2.324-4.588"/>
								
									<path fill="none" stroke="#231F20" stroke-width="0.9341" stroke-linecap="round" stroke-linejoin="round" stroke-miterlimit="10" d="
									M502.316,469.261v0.009h0.008c0.029,0.036,0.057,0.058,0.111,0.064"/>
								
									<path fill="none" stroke="#231F20" stroke-width="0.9341" stroke-linecap="round" stroke-linejoin="round" stroke-miterlimit="10" d="
									M504.408,484.889c-0.029-0.084-0.049-0.166-0.066-0.252c-0.709-3.672-0.129-7.417-0.924-11.137
									c-0.309-1.417-0.889-2.81-1.102-4.23"/>
								
									<path fill="none" stroke="#231F20" stroke-width="0.9341" stroke-linecap="round" stroke-linejoin="round" stroke-miterlimit="10" d="
									M496.02,472.017c0.008,0.018,0.018,0.046,0.018,0.066c0.01,0.007,0.02,0.026,0.02,0.037
									c1.701,4.361,0.588,9.416-0.215,13.927c-0.076,0.449-0.16,0.889-0.225,1.329c-0.215,1.342,1.494,1.688,2.41,2.239
									c1.072,0.663,2.018,1.551,3.213,2.009c0.887-1.308,2.551-2.14,3.682-3.23c0.615-0.607,0.457-0.973,0.195-1.777
									c-0.195-0.586-0.543-1.12-0.709-1.719"/>
								
									<path fill="none" stroke="#231F20" stroke-width="0.9341" stroke-linecap="round" stroke-linejoin="round" stroke-miterlimit="10" d="
									M492.58,476.444c1.383,1.091,2.271,2.782,2.271,4.68c0,3.288-2.664,5.96-5.961,5.96c-3.287,0-5.947-2.672-5.947-5.96
									c0-0.505,0.064-1,0.193-1.475c0.082-0.385,0.215-0.751,0.393-1.095c0.945-1.998,2.99-3.39,5.361-3.39
									c1.084,0,2.102,0.288,2.98,0.802C492.125,476.107,492.357,476.265,492.58,476.444z"/>
								
									<path fill="none" stroke="#231F20" stroke-width="0.9341" stroke-linecap="round" stroke-linejoin="round" stroke-miterlimit="10" d="
									M472.479,474.043c-0.32,0.393,3.754,3.381,4.213,3.651c1.748,1.03,4.354,2.206,6.445,1.955h0.01"/>
								
									<path fill="none" stroke="#231F20" stroke-width="0.9341" stroke-linecap="round" stroke-linejoin="round" stroke-miterlimit="10" d="
									M483.529,478.555c-1.193,0-2.523-0.803-3.492-1.466c-0.871-0.599-2.326-1.889-2.992-2.372
									c-0.008-0.011-0.008-0.018-0.016-0.018"/>
								
									<path fill="none" stroke="#231F20" stroke-width="0.9341" stroke-linecap="round" stroke-linejoin="round" stroke-miterlimit="10" d="
									M491.871,475.959c-0.102-0.28,0.768-1.599,0.998-1.896c0.32-0.419,0.684-0.85,1.049-1.234"/>
								
									<path fill="none" stroke="#231F20" stroke-width="0.9341" stroke-linecap="round" stroke-linejoin="round" stroke-miterlimit="10" d="
									M496.02,472.139c0.195,0.887-0.916,2.222-1.504,2.707c-0.627,0.514-1.551,1.187-1.936,1.599l-0.008,0.009"/>
								<g>
									<path fill="#231F20" d="M490.516,477.431c0,0-0.068-0.011-0.194-0.032c-0.124-0.037-0.31-0.057-0.521-0.051
										c-0.202-0.006-0.497-0.005-0.791,0.01c-0.06,0.003-0.122,0.006-0.185,0.01c-0.084,0.019-0.17,0.038-0.258,0.058
										c-0.188,0.045-0.266,0.088-0.405,0.171c-0.263,0.147-0.446,0.393-0.54,0.702c-0.072,0.308-0.084,0.722,0.15,1.088
										c0.219,0.373,0.661,0.646,1.154,0.703c0.485,0.094,1.017-0.102,1.631,0.097c0.592,0.206,1.045,0.602,1.357,1.152
										c0.174,0.311,0.209,0.651,0.185,1.002c-0.058,0.342-0.197,0.651-0.384,0.901c-0.364,0.497-0.881,0.79-1.343,0.938
										c-0.598,0.175-1.079,0.154-1.519,0.05c-0.221-0.043-0.424-0.104-0.605-0.198c-0.186-0.08-0.357-0.16-0.496-0.278
										c-0.299-0.198-0.512-0.422-0.657-0.629c-0.164-0.187-0.206-0.397-0.269-0.507c-0.047-0.119-0.071-0.183-0.071-0.183
										c-0.009-0.023,0.003-0.05,0.026-0.06c0.018-0.007,0.035-0.002,0.049,0.01l0.009,0.009c0,0,0.048,0.046,0.14,0.132
										c0.1,0.076,0.182,0.233,0.383,0.338c0.096,0.056,0.192,0.123,0.296,0.194c0.109,0.063,0.247,0.104,0.379,0.162
										c0.128,0.067,0.288,0.081,0.443,0.121c0.153,0.049,0.32,0.062,0.495,0.064c0.336,0.046,0.734-0.039,1.005-0.116
										c0.378-0.157,0.728-0.361,0.978-0.649c0.261-0.271,0.337-0.606,0.214-0.948c0.003-0.113-0.238-0.477-0.327-0.563
										c-0.141-0.192-0.298-0.358-0.488-0.472c-0.369-0.242-0.94-0.208-1.475-0.286c-0.533-0.077-1.068-0.276-1.494-0.661
										c-0.412-0.388-0.659-0.994-0.568-1.575c0.1-0.586,0.535-1.045,0.979-1.243c0.205-0.105,0.505-0.166,0.669-0.178
										c0.09-0.004,0.179-0.009,0.264-0.014c0.185,0.007,0.207,0.025,0.312,0.036c0.346,0.057,0.611,0.132,0.857,0.233
										c0.486,0.174,0.637,0.391,0.654,0.378c0.023-0.018,0.057-0.012,0.074,0.012c0.017,0.023,0.012,0.057-0.012,0.074
										c-0.013,0.008-0.027,0.011-0.04,0.009L490.516,477.431z"/>
								</g>
								
									<path fill="none" stroke="#231F20" stroke-width="0.9341" stroke-linecap="round" stroke-linejoin="round" stroke-miterlimit="10" d="
									M477.729,490.307c0.02,0,0.047,0.01,0.064,0.01c3.195,0.467,6.436-0.401,9.512-1.215c2.557-0.682,6.584-1.101,8.537-3.055
									c0.01,0,0.02-0.01,0.027-0.017"/>
								
									<path fill="none" stroke="#231F20" stroke-width="0.9341" stroke-linecap="round" stroke-linejoin="round" stroke-miterlimit="10" d="
									M504.352,484.86c0.02,0.009,0.035,0.018,0.057,0.028v0.009c2.756,1.646,5.344,2.561,8.492,3.157
									c0.586,0.113,1.279,0.206,1.922,0.384c0.656,0.177,1.262,0.438,1.691,0.913c0.896,0.974,0.758,2.599,0.795,3.824
									c0.223,6.911,1.559,13.983,0.549,20.876c-0.521,3.607-0.793,8.521-1.324,12.127"/>
								
									<path fill="none" stroke="#231F20" stroke-width="0.9341" stroke-linecap="round" stroke-linejoin="round" stroke-miterlimit="10" d="
									M476.111,500.797c2.477,0.17,5.299,0.372,7.764,0.057c2.932-0.363,5.783-1.224,8.566-2.177
									c2.822-0.953,5.605-2.084,8.5-2.765c1.635-0.384,3.924-0.869,5.334,0.373c1.301,1.139,1.346,3.278,1.447,4.866
									c0.168,2.44,0.291,4.875,0.656,7.305c0.57,3.868,2.354,8.782-0.375,12.219c-2.234,2.804-6.352,4.484-9.359,6.278"/>
								
									<path fill="none" stroke="#231F20" stroke-width="0.9341" stroke-linecap="round" stroke-linejoin="round" stroke-miterlimit="10" d="
									M471.871,517.118c0.01,0.007,0.02,0.026,0.02,0.037c1.615,2.548-0.945,5.743,1.184,7.51c0.561,0.466,1.104,0.597,1.76,0.878
									c0.605,0.262,4.055,2.288,5.23,2.288"/>
								
									<path fill="none" stroke="#231F20" stroke-width="0.9341" stroke-linecap="round" stroke-linejoin="round" stroke-miterlimit="10" d="
									M522.193,470.847c0,0-0.018,0-0.074,0c-0.01,0-0.01,0-0.02,0"/>
								
									<path fill="none" stroke="#231F20" stroke-width="0.9341" stroke-linecap="round" stroke-linejoin="round" stroke-miterlimit="10" d="
									M515.094,488.381c0,0,0-0.018,0-0.073c0-0.009,0-0.009,0-0.019"/>
								
									<path fill="none" stroke="#231F20" stroke-width="0.9341" stroke-linecap="round" stroke-linejoin="round" stroke-miterlimit="10" d="
									M524.744,479.883c-4.83,1.241-10.146-0.805-10.379,1.765c-0.197,2.177,0.721,4.456,0.729,6.642"/>
								
									<path fill="none" stroke="#231F20" stroke-width="0.9341" stroke-linecap="round" stroke-linejoin="round" stroke-miterlimit="10" d="
									M457.605,528.804c-0.551-0.496-0.02-7.566,0.508-7.903"/>
								
									<path fill="#414042" stroke="#231F20" stroke-width="0.9114" stroke-linecap="round" stroke-linejoin="round" stroke-miterlimit="10" d="
									M447.477,451.963c-3.264-1.674-8.129-4.426-6.33-9.128c1.4-3.653,6.973-4.723,9.869-2.469
									c1.906,1.481,0.986,3.567-0.062,5.284L447.477,451.963z"/>
								<path fill="#F1F2F2" d="M565.508,456.371c0.008,1.363,0.027,2.332-0.283,4.513"/>
								<g>
									
										<path fill="#BCBEC0" stroke="#231F20" stroke-width="0.7874" stroke-linecap="round" stroke-linejoin="round" stroke-miterlimit="10" d="
										M565.117,479.82c0,2.823-2.355,5.113-5.266,5.113h-33.367c-2.908,0-5.27-2.29-5.27-5.113v-67.713
										c0-2.825,2.361-5.115,5.27-5.115h33.367c2.91,0,5.266,2.29,5.266,5.115V479.82z"/>
									
										<path fill="#E6E7E8" stroke="#231F20" stroke-width="0.7874" stroke-linecap="round" stroke-linejoin="round" stroke-miterlimit="10" d="
										M564.943,477.188c0,2.724-2.209,4.93-4.934,4.93h-31.223c-2.721,0-4.93-2.206-4.93-4.93v-65.265
										c0-2.724,2.209-4.931,4.93-4.931h31.223c2.725,0,4.934,2.207,4.934,4.931V477.188z"/>
									<rect x="526.559" y="414.623" fill="#414042" width="35.684" height="55.464"/>
									
										<path fill="none" stroke="#231F20" stroke-width="0.7353" stroke-linecap="round" stroke-linejoin="round" stroke-miterlimit="10" d="
										M548.129,475.957c0,2.055-1.67,3.723-3.73,3.723c-2.057,0-3.727-1.668-3.727-3.723c0-2.061,1.67-3.729,3.727-3.729
										C546.459,472.229,548.129,473.896,548.129,475.957z"/>
									<path fill="#231F20" d="M553.32,411.278c0,0.584-0.473,1.054-1.057,1.054h-15.729c-0.584,0-1.057-0.47-1.057-1.054l0,0
										c0-0.586,0.473-1.058,1.057-1.058h15.729C552.848,410.221,553.32,410.692,553.32,411.278L553.32,411.278z"/>
								</g>
								<path fill="#F1F2F2" d="M570.611,453.425c-1.119,1.177-2.688,1.822-4.436,1.281c-1.41-0.439-2.26-1.515-2.697-2.786
									c0.025-1.998,0.072-3.829,0.24-5.324c0.02-0.186,1.633-3.469,1.662-3.656c0.4-3.584-0.232-7.003-0.232-7.003
									c2.689,1.019,5.1,2.179,6.24,4.99c0.756,1.858,1.193,4.08,1.193,6.239c0,1.232-0.139,2.447-0.447,3.559
									C571.855,451.725,571.322,452.687,570.611,453.425z"/>
								<path fill="#F1F2F2" d="M570.848,453.774c-1.121,1.179-2.689,1.822-4.439,1.279c-0.348-0.107-0.65-0.267-0.932-0.446
									c0.012,0.588,0.029,1.176,0.031,1.764c0.008,1.363,0.367,3.059-0.361,4.124c-0.256,0.59-1.246-0.312-1.775,1.142
									c-0.104,1.114-0.23,2.213-0.418,3.284c0.195,1.483,0.988,2.803,2.615,3.166c1.441,0.326,2.959-0.132,4.158-1.011
									c0.008-0.082,0.008-0.093,0.008-0.009c0.459-0.317,0.859-0.71,1.197-1.14C573.631,462.48,571.998,457.501,570.848,453.774z"
									/>
								<path fill="#F1F2F2" d="M569.734,467.114c-0.008-0.011-0.008-0.019-0.008-0.027v-0.011
									c-1.199,0.879-2.717,1.337-4.158,1.011c-0.133-0.032-0.248-0.081-0.371-0.124v9.246c0.945-0.358,1.824-0.871,2.555-1.584
									C570.238,473.206,570.453,470.347,569.734,467.114z"/>
								
									<path fill="none" stroke="#231F20" stroke-width="0.9341" stroke-linecap="round" stroke-linejoin="round" stroke-miterlimit="10" d="
									M565.383,436.288c2.688,1.018,5.1,2.175,6.238,4.986c0.758,1.86,1.195,4.084,1.195,6.243c0,1.23-0.139,2.445-0.447,3.559
									c-0.279,1-0.812,1.96-1.521,2.698c-1.121,1.179-2.689,1.822-4.439,1.279c-1.41-0.438-2.258-1.513-2.697-2.783
									c-0.338-0.971-0.43-2.055-0.346-3.071c0.084-0.994,0.318-1.915,0.652-2.804c0.607-1.569,1.551-2.979,2.607-4.354"/>
								
									<path fill="none" stroke="#231F20" stroke-width="0.9341" stroke-linecap="round" stroke-linejoin="round" stroke-miterlimit="10" d="
									M570.828,453.719c1.145,3.596,2.766,8.395,0.393,11.84c-3.068,4.447-9.369,2.659-8.166-3.027"/>
								
									<path fill="none" stroke="#231F20" stroke-width="0.9341" stroke-linecap="round" stroke-linejoin="round" stroke-miterlimit="10" d="
									M569.734,467.114c0.918,3.892-0.172,8.362-4.373,10.054"/>
								<path fill="#F1F2F2" d="M520.473,464.006c-0.209-1.109,0.008-2.215,0.611-3.061c0-0.043,0-0.099,0.004-0.139
									c0.232-2.793,0.543-0.155,2.207-4.522l-0.037-0.007c0.879-2.177,1.477-4.456,1.205-6.848
									c-0.129-1.15-0.551-2.457-1.24-3.494c-0.545-0.814-1.244-1.459-2.094-1.738c-0.701-0.225-1.494-0.195-2.383,0.197
									c-3.326,1.467-4.566,5.977-4.902,9.256c-0.225,2.148-0.188,4.419,0.178,6.604c0.223,1.432,0.588,2.823,1.109,4.13
									c1.146,2.909,3.061,4.727,5.703,5.938C520.861,468.207,520.859,466.08,520.473,464.006z"/>
								
									<path fill="none" stroke="#231F20" stroke-width="0.9341" stroke-linecap="round" stroke-linejoin="round" stroke-miterlimit="10" d="
									M521.783,459.479c1.922-3.868,4.143-8.914,1.717-13.084c-2.523-4.343-6.73-1.522-8.326,1.946
									c-3.111,6.768-2.072,18.167,5.234,21.779"/>
							</g>
						</g>
						<g>
							<g>
								<g>
									<path fill="#FFFFFF" d="M483.941,518.788c-35.061,0-63.582-28.527-63.582-63.589c0-35.061,28.521-63.584,63.582-63.584
										c35.062,0,63.588,28.523,63.588,63.584C547.529,490.261,519.004,518.788,483.941,518.788z M483.941,396.232
										c-32.51,0-58.963,26.454-58.963,58.967c0,32.516,26.453,58.968,58.963,58.968c32.518,0,58.971-26.452,58.971-58.968
										C542.912,422.687,516.459,396.232,483.941,396.232z"/>
								</g>
							</g>
						</g>
					</g>
				</g>
				<path fill="#61D1FF" d="M521.93,435.828c0.188,3.287,0.344,6.509,0.43,9.724c-0.541-0.813-1.244-1.459-2.094-1.738
					c0.496-2.962,0.842-6.285,1.346-9.296l0.242-0.007C521.883,434.959,521.902,435.397,521.93,435.828z"/>
				
					<path fill="none" stroke="#231F20" stroke-width="0.9341" stroke-linecap="round" stroke-linejoin="round" stroke-miterlimit="10" d="
					M520.256,443.842c0-0.01,0-0.02,0.01-0.028c0.496-2.962,0.842-6.285,1.346-9.296c-1.029,0.459-9.705-1.437-12.947-1.314
					c-0.242,0-0.459,0.018-0.627,0.057"/>
				
					<path fill="none" stroke="#231F20" stroke-width="0.9341" stroke-linecap="round" stroke-linejoin="round" stroke-miterlimit="10" d="
					M521.33,470.465c0,0-0.02,0-0.074,0c-0.01,0-0.01,0-0.018,0"/>
				
					<path fill="none" stroke="#231F20" stroke-width="0.9341" stroke-linecap="round" stroke-linejoin="round" stroke-miterlimit="10" d="
					M523.881,479.499c-4.828,1.241-10.145-0.805-10.377,1.765c-0.197,2.178,0.717,4.457,0.729,6.643"/>
				<path fill="#F1F2F2" d="M564.645,455.985c0.008,1.365,0.027,2.335-0.281,4.515"/>
				<g>
					
						<path fill="#BCBEC0" stroke="#231F20" stroke-width="0.7874" stroke-linecap="round" stroke-linejoin="round" stroke-miterlimit="10" d="
						M564.254,479.437c0,2.823-2.355,5.113-5.266,5.113h-33.367c-2.908,0-5.268-2.29-5.268-5.113v-67.712
						c0-2.824,2.359-5.116,5.268-5.116h33.367c2.91,0,5.266,2.292,5.266,5.116V479.437z"/>
					
						<path fill="#E6E7E8" stroke="#231F20" stroke-width="0.7874" stroke-linecap="round" stroke-linejoin="round" stroke-miterlimit="10" d="
						M564.08,476.805c0,2.723-2.207,4.927-4.93,4.927h-31.227c-2.723,0-4.928-2.204-4.928-4.927V411.54
						c0-2.724,2.205-4.932,4.928-4.932h31.227c2.723,0,4.93,2.208,4.93,4.932V476.805z"/>
					<rect x="525.693" y="414.24" fill="#414042" width="35.686" height="55.461"/>
					
						<path fill="none" stroke="#231F20" stroke-width="0.7353" stroke-linecap="round" stroke-linejoin="round" stroke-miterlimit="10" d="
						M547.264,475.573c0,2.057-1.668,3.724-3.729,3.724c-2.057,0-3.725-1.667-3.725-3.724c0-2.061,1.668-3.729,3.725-3.729
						C545.596,471.845,547.264,473.513,547.264,475.573z"/>
					<path fill="#231F20" d="M552.461,410.895c0,0.584-0.477,1.056-1.061,1.056h-15.729c-0.584,0-1.055-0.472-1.055-1.056l0,0
						c0-0.584,0.471-1.057,1.055-1.057H551.4C551.984,409.838,552.461,410.311,552.461,410.895L552.461,410.895z"/>
				</g>
				<path fill="#F1F2F2" d="M569.75,453.041c-1.121,1.178-2.689,1.82-4.438,1.279c-1.41-0.437-2.258-1.514-2.701-2.78
					c0.031-2.002,0.074-3.833,0.246-5.329c0.018-0.185,1.633-3.467,1.658-3.653c0.404-3.587-0.229-7.003-0.229-7.003
					c2.688,1.017,5.1,2.176,6.24,4.988c0.754,1.858,1.193,4.084,1.193,6.24c0,1.234-0.139,2.447-0.447,3.56
					C570.992,451.343,570.463,452.303,569.75,453.041z"/>
				<path fill="#F1F2F2" d="M569.984,453.393c-1.121,1.178-2.688,1.82-4.439,1.279c-0.348-0.109-0.648-0.269-0.93-0.446
					c0.01,0.586,0.027,1.174,0.029,1.76c0.008,1.365,0.367,3.062-0.363,4.126c-0.252,0.588-1.244-0.312-1.775,1.144
					c-0.102,1.112-0.23,2.211-0.416,3.28c0.195,1.486,0.99,2.805,2.615,3.168c1.441,0.326,2.961-0.131,4.158-1.01
					c0.01-0.083,0.01-0.094,0.01-0.01c0.459-0.318,0.861-0.707,1.195-1.139C572.77,462.096,571.133,457.119,569.984,453.393z"/>
				<path fill="#F1F2F2" d="M568.873,466.73c-0.01-0.009-0.01-0.016-0.01-0.028v-0.009c-1.197,0.879-2.717,1.336-4.158,1.01
					c-0.133-0.03-0.248-0.078-0.371-0.123v9.246c0.945-0.359,1.824-0.869,2.559-1.583
					C569.375,472.822,569.592,469.963,568.873,466.73z"/>
				
					<path fill="none" stroke="#231F20" stroke-width="0.9341" stroke-linecap="round" stroke-linejoin="round" stroke-miterlimit="10" d="
					M564.52,435.904c2.689,1.018,5.1,2.178,6.24,4.988c0.758,1.86,1.193,4.082,1.193,6.239c0,1.233-0.139,2.448-0.447,3.561
					c-0.279,0.998-0.811,1.96-1.521,2.7c-1.121,1.178-2.688,1.82-4.439,1.279c-1.408-0.439-2.258-1.514-2.699-2.783
					c-0.334-0.973-0.428-2.057-0.344-3.074c0.086-0.99,0.318-1.914,0.65-2.803c0.609-1.569,1.553-2.979,2.609-4.352"/>
				
					<path fill="none" stroke="#231F20" stroke-width="0.9341" stroke-linecap="round" stroke-linejoin="round" stroke-miterlimit="10" d="
					M569.965,453.335c1.143,3.597,2.766,8.394,0.391,11.841c-3.064,4.445-9.369,2.66-8.164-3.028"/>
				
					<path fill="none" stroke="#231F20" stroke-width="0.9341" stroke-linecap="round" stroke-linejoin="round" stroke-miterlimit="10" d="
					M568.873,466.73c0.916,3.893-0.172,8.362-4.375,10.054"/>
				<path fill="#F1F2F2" d="M519.609,463.624c-0.209-1.109,0.01-2.217,0.611-3.061c0.002-0.045,0-0.101,0.004-0.14
					c0.232-2.794,0.543-0.156,2.207-4.521l-0.035-0.01c0.879-2.178,1.477-4.457,1.205-6.847c-0.133-1.152-0.553-2.457-1.242-3.494
					c-0.541-0.813-1.244-1.459-2.094-1.738c-0.699-0.224-1.494-0.197-2.383,0.197c-3.324,1.466-4.566,5.978-4.902,9.257
					c-0.225,2.149-0.188,4.42,0.176,6.604c0.227,1.432,0.59,2.82,1.111,4.129c1.148,2.91,3.061,4.727,5.705,5.938
					C520,467.824,519.996,465.698,519.609,463.624z"/>
				
					<path fill="none" stroke="#231F20" stroke-width="0.9341" stroke-linecap="round" stroke-linejoin="round" stroke-miterlimit="10" d="
					M520.92,459.096c1.924-3.868,4.143-8.916,1.719-13.084c-2.527-4.343-6.732-1.522-8.328,1.948
					c-3.109,6.768-2.072,18.165,5.232,21.779"/>
				
					<path fill="none" stroke="#231F20" stroke-width="0.9341" stroke-linecap="round" stroke-linejoin="round" stroke-miterlimit="10" d="
					M562.111,462.004c1.291,0.125,2.303-1.093,1.99-2.561"/>
			</g>
		</g>
		<g>
			<g>
				<g>
					<path fill="#60281B" d="M245.342,427.771h-6.438c-0.67,0-1.207,0.595-1.207,1.326v1.967c0-0.734,0.537-1.332,1.207-1.332h6.438
						c0.666,0,1.211,0.598,1.211,1.332v-1.967C246.553,428.366,246.008,427.771,245.342,427.771z"/>
				</g>
			</g>
			<g>
				<g>
					<g>
						<path fill="#471C16" d="M222.27,446.947c0,0.685-0.504,1.236-1.123,1.236h-5.988c-0.617,0-1.123-0.552-1.123-1.236v-5.669
							c0-0.683,0.506-1.234,1.123-1.234h5.988c0.619,0,1.123,0.552,1.123,1.234V446.947z"/>
					</g>
				</g>
				<g opacity="0.5">
					<g>
						<path fill="#60281B" d="M221.146,440.044h-5.988c-0.617,0-1.123,0.552-1.123,1.234v1.825c0-0.684,0.506-1.239,1.123-1.239
							h5.988c0.619,0,1.123,0.556,1.123,1.239v-1.825C222.27,440.596,221.766,440.044,221.146,440.044z"/>
					</g>
				</g>
				<g>
					<g>
						<path fill="#471C16" d="M269.305,450.049c-0.199,0.66-0.844,1.036-1.438,0.852l-5.723-1.756
							c-0.594-0.184-0.906-0.857-0.709-1.513l1.666-5.422c0.201-0.644,0.844-1.026,1.438-0.848l5.723,1.76
							c0.592,0.183,0.908,0.858,0.707,1.513L269.305,450.049z"/>
					</g>
				</g>
				<g>
					<g>
						<path fill="#471C16" d="M270.262,443.122l-5.723-1.76c-0.594-0.179-1.236,0.204-1.438,0.848l-0.537,1.751
							c0.205-0.656,0.844-1.039,1.436-0.855l5.725,1.76c0.592,0.183,0.912,0.856,0.709,1.516l0.535-1.746
							C271.17,443.98,270.854,443.305,270.262,443.122z"/>
					</g>
				</g>
				<g>
					<g>
						<path fill="#471C16" d="M254.002,439.972c0.078,0.728-0.393,1.373-1.059,1.442l-6.383,0.676
							c-0.662,0.07-1.26-0.462-1.338-1.189l-0.637-6.048c-0.08-0.726,0.396-1.372,1.057-1.446l6.387-0.675
							c0.66-0.068,1.256,0.466,1.336,1.191L254.002,439.972z"/>
					</g>
				</g>
				<g>
					<g>
						<path fill="#471C16" d="M252.029,432.731l-6.387,0.675c-0.66,0.074-1.137,0.721-1.057,1.446l0.201,1.944
							c-0.074-0.728,0.4-1.373,1.059-1.446l6.389-0.673c0.66-0.068,1.258,0.464,1.338,1.193l-0.207-1.948
							C253.285,433.197,252.689,432.663,252.029,432.731z"/>
					</g>
				</g>
				<g>
					<g>
						<path fill="#471C16" d="M219.725,450.375c0.145,0.67-0.23,1.315-0.84,1.446l-5.852,1.261
							c-0.607,0.133-1.213-0.305-1.355-0.969l-1.193-5.546c-0.145-0.665,0.232-1.315,0.838-1.44l5.852-1.264
							c0.6-0.131,1.213,0.305,1.359,0.974L219.725,450.375z"/>
					</g>
				</g>
				<g>
					<g>
						<path fill="#471C16" d="M217.174,443.863l-5.852,1.264c-0.605,0.125-0.982,0.775-0.838,1.44l0.383,1.786
							c-0.145-0.67,0.23-1.312,0.84-1.445l5.85-1.26c0.607-0.133,1.215,0.305,1.359,0.968l-0.383-1.779
							C218.387,444.168,217.773,443.732,217.174,443.863z"/>
					</g>
				</g>
				<g>
					<g>
						<path fill="#471C16" d="M234.629,438.087c0,0.688-0.504,1.24-1.125,1.24h-5.992c-0.621,0-1.121-0.552-1.121-1.24v-5.671
							c0-0.683,0.5-1.238,1.121-1.238h5.992c0.621,0,1.125,0.556,1.125,1.238V438.087z"/>
					</g>
				</g>
				<g>
					<g>
						<path fill="#471C16" d="M233.504,431.178h-5.992c-0.621,0-1.121,0.556-1.121,1.238v1.829c0-0.687,0.5-1.239,1.121-1.239h5.992
							c0.621,0,1.125,0.553,1.125,1.239v-1.829C234.629,431.733,234.125,431.178,233.504,431.178z"/>
					</g>
				</g>
				<g>
					<g>
						<path fill="#471C16" d="M260.645,452.341c0,0.799-0.59,1.451-1.32,1.451h-7.047c-0.729,0-1.324-0.652-1.324-1.451v-6.673
							c0-0.807,0.596-1.453,1.324-1.453h7.047c0.73,0,1.32,0.646,1.32,1.453V452.341z"/>
					</g>
				</g>
				<g>
					<g>
						<path fill="#872A18" d="M259.324,444.215h-7.047c-0.729,0-1.324,0.646-1.324,1.453v2.143c0-0.803,0.596-1.453,1.324-1.453
							h7.047c0.73,0,1.32,0.65,1.32,1.453v-2.143C260.645,444.861,260.055,444.215,259.324,444.215z"/>
					</g>
				</g>
				<g>
					<g>
						<path fill="#60281B" d="M249.848,443.695c0,0.805-0.592,1.455-1.32,1.455h-7.045c-0.732,0-1.32-0.65-1.32-1.455v-6.673
							c0-0.803,0.588-1.455,1.32-1.455h7.045c0.729,0,1.32,0.652,1.32,1.455V443.695z"/>
					</g>
				</g>
				<g>
					<g>
						<path fill="#60281B" d="M248.527,435.567h-7.045c-0.732,0-1.32,0.652-1.32,1.455v2.152c0-0.807,0.588-1.457,1.32-1.457h7.045
							c0.729,0,1.32,0.65,1.32,1.457v-2.152C249.848,436.22,249.256,435.567,248.527,435.567z"/>
					</g>
				</g>
				<g>
					<g>
						<path fill="#60281B" d="M245.945,435.2c0,0.735-0.541,1.33-1.207,1.33h-6.439c-0.668,0-1.207-0.595-1.207-1.33v-6.103
							c0-0.731,0.539-1.326,1.207-1.326h6.439c0.666,0,1.207,0.595,1.207,1.326V435.2z"/>
					</g>
				</g>
				<g>
					<g>
						<path fill="#60281B" d="M229.996,444.483c0,0.802-0.596,1.457-1.322,1.457h-7.045c-0.73,0-1.322-0.655-1.322-1.457v-6.673
							c0-0.804,0.592-1.449,1.322-1.449h7.045c0.727,0,1.322,0.646,1.322,1.449V444.483z"/>
					</g>
				</g>
				<g>
					<g>
						<path fill="#60281B" d="M228.674,436.361h-7.045c-0.73,0-1.322,0.646-1.322,1.449v2.152c0-0.808,0.592-1.46,1.322-1.46h7.045
							c0.727,0,1.322,0.652,1.322,1.46v-2.152C229.996,437.007,229.4,436.361,228.674,436.361z"/>
					</g>
				</g>
				<g>
					<g>
						<path fill="#471C16" d="M240.947,444.556c0,0.803-0.596,1.456-1.324,1.456h-7.043c-0.732,0-1.322-0.653-1.322-1.456v-6.671
							c0-0.801,0.59-1.457,1.322-1.457h7.043c0.729,0,1.324,0.656,1.324,1.457V444.556z"/>
					</g>
				</g>
				<g>
					<g>
						<path fill="#471C16" d="M239.623,436.428h-7.043c-0.732,0-1.322,0.656-1.322,1.457v2.146c0-0.803,0.59-1.453,1.322-1.453
							h7.043c0.729,0,1.324,0.65,1.324,1.453v-2.146C240.947,437.084,240.352,436.428,239.623,436.428z"/>
					</g>
				</g>
				<g>
					<g>
						<path fill="#60281B" d="M265.545,442.916c0.125,0.797-0.359,1.528-1.082,1.64l-6.961,1.08
							c-0.721,0.107-1.406-0.446-1.531-1.239l-1.018-6.591c-0.121-0.799,0.363-1.532,1.084-1.64l6.963-1.08
							c0.723-0.109,1.404,0.446,1.525,1.238L265.545,442.916z"/>
					</g>
				</g>
				<g>
					<g>
						<path fill="#60281B" d="M263,435.086l-6.963,1.08c-0.721,0.107-1.205,0.841-1.084,1.64l0.334,2.118
							c-0.125-0.791,0.359-1.527,1.076-1.638l6.965-1.075c0.721-0.113,1.404,0.436,1.529,1.236l-0.332-2.123
							C264.404,435.532,263.723,434.977,263,435.086z"/>
					</g>
				</g>
				<g>
					<g>
						<path fill="#60281B" d="M259.654,448.641c-0.158,0.777-0.867,1.254-1.578,1.07l-6.885-1.822c-0.709-0.192-1.16-0.977-1-1.758
							l1.322-6.479c0.16-0.781,0.865-1.26,1.576-1.068l6.881,1.819c0.713,0.191,1.164,0.975,1.004,1.752L259.654,448.641z"/>
					</g>
				</g>
				<g>
					<g>
						<path fill="#60281B" d="M259.971,440.402l-6.881-1.819c-0.711-0.191-1.416,0.287-1.576,1.068l-0.428,2.085
							c0.16-0.779,0.865-1.259,1.578-1.071l6.887,1.824c0.709,0.19,1.16,0.975,1,1.753l0.424-2.088
							C261.135,441.377,260.684,440.594,259.971,440.402z"/>
					</g>
				</g>
				<g>
					<g>
						<g>
							<path fill="#60281B" d="M236.102,440.34c-1.854,0-3.359-1.508-3.359-3.36c0-1.851,1.506-3.361,3.359-3.361
								s3.361,1.511,3.361,3.361C239.463,438.832,237.955,440.34,236.102,440.34z"/>
						</g>
					</g>
					<g>
						<g>
							<path fill="#F2B172" d="M236.102,434.785c1.211,0,2.197,0.983,2.197,2.194c0,1.21-0.986,2.195-2.197,2.195
								s-2.195-0.985-2.195-2.195C233.906,435.769,234.891,434.785,236.102,434.785L236.102,434.785z M236.102,432.453
								c-2.502,0-4.525,2.027-4.525,4.526c0,2.5,2.023,4.528,4.525,4.528c2.498,0,4.529-2.028,4.529-4.528
								C240.631,434.48,238.6,432.453,236.102,432.453L236.102,432.453z"/>
						</g>
					</g>
				</g>
				<g>
					<g>
						<path fill="#471C16" d="M253.414,452.231c0.111,0.79-0.385,1.536-1.104,1.657l-6.961,1.187
							c-0.723,0.125-1.396-0.418-1.51-1.213l-0.928-6.591c-0.111-0.793,0.381-1.537,1.107-1.662l6.961-1.188
							c0.719-0.122,1.398,0.421,1.51,1.215L253.414,452.231z"/>
					</g>
				</g>
				<g>
					<g>
						<path fill="#471C16" d="M250.98,444.421l-6.961,1.188c-0.727,0.125-1.219,0.869-1.107,1.662l0.303,2.123
							c-0.113-0.797,0.383-1.541,1.1-1.66l6.965-1.188c0.719-0.125,1.391,0.419,1.506,1.215l-0.295-2.125
							C252.379,444.842,251.699,444.299,250.98,444.421z"/>
					</g>
				</g>
				<g>
					<g>
						<path fill="#60281B" d="M233.605,450.379c0,0.805-0.592,1.455-1.32,1.455h-7.045c-0.73,0-1.318-0.65-1.318-1.455v-6.671
							c0-0.803,0.588-1.453,1.318-1.453h7.045c0.729,0,1.32,0.65,1.32,1.453V450.379z"/>
					</g>
				</g>
				<g>
					<g>
						<path fill="#60281B" d="M232.285,442.255h-7.045c-0.73,0-1.318,0.65-1.318,1.453v2.145c0-0.799,0.588-1.453,1.318-1.453h7.045
							c0.729,0,1.32,0.654,1.32,1.453v-2.145C233.605,442.905,233.014,442.255,232.285,442.255z"/>
					</g>
				</g>
				<g>
					<g>
						<path fill="#471C16" d="M243.885,449.906c0,0.804-0.592,1.456-1.32,1.456h-7.045c-0.73,0-1.322-0.652-1.322-1.456v-6.672
							c0-0.804,0.592-1.455,1.322-1.455h7.045c0.729,0,1.32,0.651,1.32,1.455V449.906z"/>
					</g>
				</g>
				<g>
					<g>
						<path fill="#471C16" d="M242.564,441.779h-7.045c-0.73,0-1.322,0.651-1.322,1.455v2.144c0-0.801,0.592-1.451,1.322-1.451
							h7.045c0.729,0,1.32,0.65,1.32,1.451v-2.144C243.885,442.431,243.293,441.779,242.564,441.779z"/>
					</g>
				</g>
				<g>
					<g>
						<g>
							<path fill="#60281B" d="M231.342,451.008c-1.852,0-3.357-1.507-3.357-3.361c0-1.852,1.506-3.358,3.357-3.358
								c1.854,0,3.367,1.507,3.367,3.358C234.709,449.501,233.195,451.008,231.342,451.008z"/>
						</g>
					</g>
					<g>
						<g>
							<path fill="#F2B172" d="M231.342,445.457c1.211,0,2.199,0.983,2.199,2.189c0,1.211-0.988,2.196-2.199,2.196
								s-2.193-0.985-2.193-2.196C229.148,446.44,230.131,445.457,231.342,445.457L231.342,445.457z M231.342,443.127
								c-2.498,0-4.523,2.021-4.523,4.52s2.025,4.527,4.523,4.527s4.531-2.029,4.531-4.527S233.84,443.127,231.342,443.127
								L231.342,443.127z"/>
						</g>
					</g>
				</g>
				<g>
					<g>
						<g>
							<path fill="#60281B" d="M218.131,450.259c-1.854,0-3.361-1.507-3.361-3.361c0-1.85,1.508-3.358,3.361-3.358
								c1.852,0,3.359,1.509,3.359,3.358C221.49,448.752,219.982,450.259,218.131,450.259z"/>
						</g>
					</g>
					<g>
						<g>
							<path fill="#F2B172" d="M218.131,444.704c1.211,0,2.195,0.987,2.195,2.193c0,1.215-0.984,2.196-2.195,2.196
								c-1.209,0-2.195-0.981-2.195-2.196C215.936,445.691,216.922,444.704,218.131,444.704L218.131,444.704z M218.131,442.373
								c-2.498,0-4.525,2.026-4.525,4.524c0,2.501,2.027,4.527,4.525,4.527s4.527-2.026,4.527-4.527
								C222.658,444.399,220.629,442.373,218.131,442.373L218.131,442.373z"/>
						</g>
					</g>
				</g>
				<g>
					<g>
						<g>
							<path fill="#60281B" d="M245.441,447.202c-1.855,0-3.361-1.507-3.361-3.363c0-1.851,1.506-3.36,3.361-3.36
								c1.854,0,3.359,1.51,3.359,3.36C248.801,445.695,247.295,447.202,245.441,447.202z"/>
						</g>
					</g>
					<g>
						<g>
							<path fill="#F2B172" d="M245.441,441.647c1.209,0,2.195,0.983,2.195,2.191c0,1.215-0.986,2.198-2.195,2.198
								s-2.199-0.983-2.199-2.198C243.242,442.631,244.232,441.647,245.441,441.647L245.441,441.647z M245.441,439.312
								c-2.5,0-4.529,2.028-4.529,4.526c0,2.497,2.029,4.529,4.529,4.529s4.525-2.032,4.525-4.529
								C249.967,441.341,247.941,439.312,245.441,439.312L245.441,439.312z"/>
						</g>
					</g>
				</g>
				<g>
					<g>
						<g>
							<path fill="#60281B" d="M261.779,451.174c-1.852,0-3.357-1.506-3.357-3.363c0-1.854,1.506-3.361,3.357-3.361
								c1.855,0,3.361,1.508,3.361,3.361C265.141,449.668,263.635,451.174,261.779,451.174z"/>
						</g>
					</g>
					<g>
						<g>
							<path fill="#F2B172" d="M261.779,445.616c1.213,0,2.193,0.985,2.193,2.194c0,1.212-0.98,2.201-2.193,2.201
								c-1.209,0-2.193-0.989-2.193-2.201C259.586,446.602,260.57,445.616,261.779,445.616L261.779,445.616z M261.779,443.285
								c-2.498,0-4.523,2.028-4.523,4.525c0,2.502,2.025,4.53,4.523,4.53c2.502,0,4.527-2.028,4.527-4.53
								C266.307,445.313,264.281,443.285,261.779,443.285L261.779,443.285z"/>
						</g>
					</g>
				</g>
			</g>
			<g>
				<g>
					<path fill="#FFFFFF" d="M296.318,481.499c-0.02-0.195-0.039-0.399-0.07-0.611l-3.27-18.783
						c-0.916-7.7-6.475-14.458-14.457-14.458h-36.549h-1.889h-36.545c-7.986,0-13.543,6.758-14.459,14.458l-3.27,18.783
						c-0.426,3.361,0.082,5.071,1.377,5.915h22.377h1.309h60.314h2.037h21.65C296.086,486.011,296.609,484.461,296.318,481.499z"/>
				</g>
			</g>
			<g>
				<path fill="#8B0304" d="M211.803,468.947c2.527,0.535,3.928,1.726,3.928,4.137c0,3.097-2.412,4.582-5.299,4.582
					c-1.727,0-3.154-0.238-4.908-0.803l-1.281-0.416l0.566-2.768l1.279,0.445c1.396,0.477,2.914,0.895,4.316,0.895
					c1.158,0,2.199-0.537,2.199-1.786c0-0.923-0.504-1.431-1.697-1.695l-2.646-0.566c-2.529-0.537-3.928-1.786-3.928-4.167
					c0-3.095,2.35-4.523,5.297-4.523c1.723,0,3.125,0.27,4.85,0.805l1.279,0.418l-0.566,2.795l-1.277-0.479
					c-1.43-0.502-2.828-0.891-4.256-0.891c-1.221,0-2.174,0.536-2.174,1.787c0,0.922,0.477,1.428,1.697,1.694L211.803,468.947z"/>
				<path fill="#8B0304" d="M217.842,477.46v-15.119h3.334v15.119H217.842z"/>
				<path fill="#8B0304" d="M225.551,477.46c-1.191,0-1.906-0.688-1.906-1.756v-11.575c0-1.104,0.686-1.76,1.875-1.76h5.207
					c2.799,0,4.436,1.253,4.436,3.871c0,1.041-0.357,1.963-0.953,2.707l-0.623,0.833l0.771,0.772
					c0.863,0.865,1.338,1.816,1.338,2.947c0,2.503-1.693,3.988-4.908,3.988L225.551,477.46L225.551,477.46z M230.221,464.723h-3.334
					v3.988h4.107l0.596-0.834c0.297-0.417,0.477-0.922,0.477-1.518C232.066,465.406,231.559,464.723,230.221,464.723z
					 M226.887,471.062v4.048h3.572c1.34,0,2.023-0.687,2.023-1.697c0-0.566-0.238-1.043-0.656-1.52l-0.801-0.831H226.887z"/>
				<path fill="#8B0304" d="M239.686,477.46c-1.191,0-1.906-0.688-1.906-1.756v-11.548c0-1.099,0.715-1.787,1.906-1.787h8.719v2.471
					h-7.322v3.721h6.4v2.411h-6.4v4.02h7.354v2.469H239.686z"/>
				<path fill="#8B0304" d="M254.207,474.991h7.736v2.469h-10.205c-1.072,0-1.578-0.688-1.578-1.609
					c0-0.535,0.207-0.979,0.535-1.399l7.232-9.611h-7.439v-2.499h9.879c1.102,0,1.576,0.685,1.576,1.638
					c0,0.506-0.178,0.951-0.535,1.397L254.207,474.991z"/>
				<path fill="#8B0304" d="M273.877,477.46l-0.924-2.771h-5.623l-0.922,2.771h-3.334l4.82-13.722
					c0.357-1.009,1.102-1.546,2.352-1.546c1.191,0,1.994,0.537,2.32,1.518l4.674,13.75H273.877z M270.215,465.555l-2.23,6.725h4.344
					L270.215,465.555z"/>
			</g>
		</g>
		<g>
			<g>
				<g>
					<path fill="#FFFFFF" d="M587.637,554.228c0,1.511-1.219,2.728-2.727,2.728H482.277c-1.51,0-2.734-1.217-2.734-2.728l0,0
						c0-1.509,1.225-2.73,2.734-2.73H584.91C586.418,551.497,587.637,552.719,587.637,554.228L587.637,554.228z"/>
				</g>
				<g>
					<path fill="#FFFFFF" d="M587.637,566.502c0,1.505-1.219,2.725-2.727,2.725H482.277c-1.51,0-2.734-1.22-2.734-2.725l0,0
						c0-1.508,1.225-2.73,2.734-2.73H584.91C586.418,563.771,587.637,564.994,587.637,566.502L587.637,566.502z"/>
				</g>
				<g>
					<path fill="#FFFFFF" d="M587.637,578.771c0,1.513-1.219,2.728-2.727,2.728H482.277c-1.51,0-2.734-1.215-2.734-2.728l0,0
						c0-1.507,1.225-2.725,2.734-2.725H584.91C586.418,576.047,587.637,577.265,587.637,578.771L587.637,578.771z"/>
				</g>
			</g>
			<g>
				<path fill="#FFFFFF" d="M196.389,575.468c-5.053,0-8.098-2.808-8.098-7.538v-44.586c0-4.729,2.965-7.535,8.098-7.535h20.85
					c11.547,0,18.203,5.053,18.203,15.556c0,4.089-1.523,7.857-3.93,10.905l-2.086,2.727l2.404,2.485
					c3.611,3.449,5.615,7.377,5.615,11.95c0,10.102-6.816,16.036-19.885,16.036H196.389z M214.672,526.473h-11.309v13.793h13.875
					l2.004-2.887c1.043-1.443,1.686-3.209,1.686-5.212C220.928,528.879,219.162,526.473,214.672,526.473z M203.363,550.77v13.953
					h12.111c4.568,0,6.975-2.328,6.975-5.854c0-2.003-0.801-3.688-2.244-5.212l-2.645-2.887H203.363z"/>
				<path fill="#FFFFFF" d="M251.076,526.634c-4.49,0-7.137-2.487-7.137-6.495c0-3.93,2.646-6.414,7.137-6.414
					c4.492,0,7.139,2.484,7.139,6.414C258.215,524.146,255.568,526.634,251.076,526.634z M244.82,575.468v-44.104h12.512v44.104
					H244.82z"/>
				<path fill="#FFFFFF" d="M305.684,513.322v53.324c0,3.93-1.605,6.014-5.615,7.216c-5.451,1.605-9.703,2.005-14.111,2.005
					c-13.473,0-21.41-8.099-21.41-22.211c0-14.193,6.656-22.532,19.807-22.532c3.207,0,6.414,0.882,8.658,1.523v-17.079
					C297.184,514.846,301.514,514.125,305.684,513.322z M277.135,553.575c0,7.778,2.809,12.431,9.465,12.431
					c2.002,0,3.287-0.24,6.412-0.884v-22.61c-3.607-0.963-5.291-1.203-6.895-1.283C279.701,541.229,277.135,545.479,277.135,553.575
					z"/>
				<path fill="#FFFFFF" d="M213.791,626.195h-10.428v20.688h-15.072v-52.041c0-4.73,2.965-7.617,8.098-7.617h18.205
					c12.107,0,19.963,7.458,19.963,19.483C234.557,618.818,226.459,626.195,213.791,626.195z M211.303,598.371h-7.939v16.678h9.062
					c5.053,0,8.18-3.047,8.18-8.34C220.605,600.535,216.756,598.371,211.303,598.371z"/>
				<path fill="#FFFFFF" d="M278.34,647.926l-4.01-2.085c-2.164-1.124-4.248-1.043-6.896-0.48l-1.844,0.399
					c-3.525,0.803-7.855,1.604-11.145,1.604c-9.863,0-15.795-4.809-15.795-12.988c0-11.309,9.459-13.955,20.607-13.955h6.895v-2.323
					c0-4.251-2.727-5.694-6.895-5.694c-3.369,0-8.42,0.803-12.912,2.246l-4.648,1.523l-1.523-9.783l4.248-1.283
					c5.773-1.763,10.746-2.806,16.199-2.806c10.422,0,17.641,4.089,17.641,15.233v19.488l4.73,2.887L278.34,647.926z
					 M266.311,628.763h-8.176c-4.332,0-7.059,1.44-7.059,5.13c0,3.129,2.246,4.652,5.854,4.652c1.684,0,3.93-0.402,6.416-1.043
					l2.965-0.723V628.763z"/>
				<path fill="#FFFFFF" d="M309.854,636.94c2.805,0,6.414-0.882,9.863-2.005l3.527-1.043l1.525,10.264l-3.689,1.123
					c-4.412,1.364-8.66,2.165-12.67,2.165c-12.51,0-21.09-7.458-21.09-22.612c0-14.834,8.58-22.613,21.09-22.613
					c4.01,0,8.258,0.803,12.67,2.167l3.689,1.122l-1.525,10.263l-3.527-1.041c-3.449-1.044-7.059-1.926-9.863-1.926
					c-6.256,0-9.541,3.849-9.541,12.028S303.598,636.94,309.854,636.94z"/>
				<path fill="#FFFFFF" d="M358.688,646.884l-8.182-18.686l-2.967,3.449c-2.244,2.564-3.768,4.331-3.768,8.821v6.415h-12.59v-59.9
					l12.59-2.245v35.123l13.951-17.081h15.158l-12.43,14.834l12.748,29.27H358.688z"/>
			</g>
			<g>
				<path fill="#FFFFFF" d="M436.25,554.14c-6.824,0-12.359,5.533-12.359,12.358s5.535,12.359,12.359,12.359
					c6.826,0,12.361-5.534,12.361-12.359S443.076,554.14,436.25,554.14z"/>
				<g>
					<g>
						<path fill="#8B0304" d="M431.223,560.583h5.992c2.217,0,3.689,1.118,3.689,3.269c0,0.998-0.473,1.894-1.303,2.402
							c1.135,0.457,1.678,1.253,1.678,2.623c0,2.234-1.709,3.539-3.777,3.539h-6.279V560.583z M436.555,565.272
							c0.797,0,1.322-0.339,1.322-1.236c0-0.98-0.508-1.22-1.373-1.22h-2.287v2.456H436.555z M436.742,570.18
							c0.965,0,1.504-0.286,1.504-1.303c0-0.998-0.539-1.389-1.572-1.389h-2.457v2.691H436.742z"/>
					</g>
				</g>
			</g>
			<g>
				<g>
					<g>
						<path fill="#FFFFFF" d="M587.547,616.056c0,1.509-1.215,2.726-2.725,2.726H482.184c-1.506,0-2.725-1.217-2.725-2.726l0,0
							c0-1.507,1.219-2.726,2.725-2.726h102.639C586.332,613.33,587.547,614.549,587.547,616.056L587.547,616.056z"/>
					</g>
					<g>
						<path fill="#FFFFFF" d="M587.547,628.331c0,1.509-1.215,2.728-2.725,2.728H482.184c-1.506,0-2.725-1.219-2.725-2.728l0,0
							c0-1.507,1.219-2.729,2.725-2.729h102.639C586.332,625.603,587.547,626.824,587.547,628.331L587.547,628.331z"/>
					</g>
					<g>
						<path fill="#FFFFFF" d="M587.547,640.602c0,1.509-1.215,2.729-2.725,2.729H482.184c-1.506,0-2.725-1.22-2.725-2.729l0,0
							c0-1.506,1.219-2.726,2.725-2.726h102.639C586.332,637.876,587.547,639.096,587.547,640.602L587.547,640.602z"/>
					</g>
				</g>
				<g>
					<path fill="#FFFFFF" d="M436.25,615.973c-6.824,0-12.359,5.531-12.359,12.356c0,6.823,5.535,12.358,12.359,12.358
						c6.826,0,12.361-5.535,12.361-12.358C448.611,621.504,443.076,615.973,436.25,615.973z"/>
					<g>
						<path fill="#AA2233" d="M429.631,628.34c0-4.689,2.551-7.504,6.619-7.504c4.07,0,6.621,2.814,6.621,7.504
							c0,4.688-2.611,7.484-6.621,7.484C432.242,635.824,429.631,633.027,429.631,628.34z M439.15,628.381
							c0-2.486-0.986-4.111-2.9-4.111c-1.91,0-2.896,1.625-2.896,4.111c0,2.506,1.049,4.028,2.896,4.028
							C438.1,632.409,439.15,630.892,439.15,628.381z"/>
					</g>
				</g>
			</g>
			<g>
				<path fill="#FFFFFF" d="M343.096,541.042c5.486-2.179,1.662-13.464-0.809-17.731c-2.48-4.267-6.795-2.378-6.795-2.378
					c-3.195,1.279-8.156,8.482-5.979,14.033C331.688,540.527,337.604,543.225,343.096,541.042z"/>
				<path fill="#FFFFFF" d="M352.822,530.662c6.666,2.32,8.961-9.486,9.682-12.426c0.734-2.948,1.77-8.535-4.285-8.667
					c0,0-8.58-0.757-10.008,5.933C346.793,522.186,346.164,528.329,352.822,530.662z"/>
				<path fill="#FFFFFF" d="M385.15,538.299c0,0-2.207-4.166-6.793-2.376c-4.592,1.801-14.627,8.235-11.686,13.365
					c2.934,5.122,9.24,6.708,14.402,3.716C386.24,550.018,386.85,541.289,385.15,538.299z"/>
				<path fill="#FFFFFF" d="M378.584,526.127c3.055-6.115-4.125-10.876-4.125-10.876c-4.818-3.673-7.486,1.349-8.752,4.098
					c-1.27,2.758-6.828,13.424-0.172,15.745C372.189,537.428,375.529,532.242,378.584,526.127z"/>
				<path fill="#FFFFFF" d="M361.002,548.365c0.602-3.689-1.914-6.474-5.021-7.545c-3.109-1.103-6.803-0.486-8.623,2.768
					c-1.686,3.012-4.477,4.743-7.691,5.761c-6.551,2.062-10.197,9.534-4.967,14.827c1.828,1.833,4.002,3.269,5.869,5.037
					c1.307,1.226,2.875,2.076,4.547,2.67c1.686,0.582,3.434,0.887,5.217,0.741c2.57-0.213,5.162,0.023,7.729-0.277
					c7.385-0.871,9.195-9.001,5.357-14.688C361.541,554.863,360.445,551.768,361.002,548.365z"/>
			</g>
		</g>
	</g>
</g>
</svg>
