<?xml version="1.0" encoding="utf-8"?>
<!-- Generator: Adobe Illustrator 16.0.0, SVG Export Plug-In . SVG Version: 6.00 Build 0)  -->
<!DOCTYPE svg PUBLIC "-//W3C//DTD SVG 1.1//EN" "http://www.w3.org/Graphics/SVG/1.1/DTD/svg11.dtd">
<svg version="1.1" id="illustration" xmlns="http://www.w3.org/2000/svg" xmlns:xlink="http://www.w3.org/1999/xlink" x="0px"
	 y="0px" width="1200px" height="1200px" viewBox="0 0 1200 1200" enable-background="new 0 0 1200 1200" xml:space="preserve">
<g>
	<path fill="#5D5D5D" d="M1106.391,624.964H947.954c-12.607,0-22.923-10.315-22.923-22.923v-4.062
		c0-12.607,10.315-22.923,22.923-22.923h35.694c13.642,0,24.802-11.161,24.802-24.802v-0.305c0-13.641-11.16-24.802-24.802-24.802
		l-101.666-0.02c-12.607,0-22.923-10.315-22.923-22.923v-4.062c0-12.608,10.315-22.923,22.923-22.923h155.972
		c13.641,0,24.802-11.161,24.802-24.802v-0.305c0-13.641-11.161-24.802-24.802-24.802H926.513
		c-12.607,0-22.923-10.315-22.923-22.923v-4.062c0-12.607,10.315-22.923,22.923-22.923h25.763c13.641,0,24.802-11.161,24.802-24.802
		v-0.305c0-13.641-11.161-24.802-24.802-24.802H836.158h-24.165c-12.608,0-22.923-10.315-22.923-22.923v-4.062
		c0-12.607,10.314-22.923,22.923-22.923h17.963c13.641,0,24.802-11.161,24.802-24.802v-0.305c0-13.641-11.161-24.802-24.802-24.802
		H435.652c-13.641,0-24.802,11.161-24.802,24.802v0.305c0,13.641,11.161,24.802,24.802,24.802h27.618
		c12.607,0,22.923,10.315,22.923,22.923v4.062c0,12.607-10.315,22.923-22.923,22.923H300.667h-51.005
		c-13.641,0-24.802,11.161-24.802,24.802v0.305c0,13.641,11.161,24.802,24.802,24.802h14.28c12.608,0,22.923,10.315,22.923,22.923
		v4.062c0,12.608-10.315,22.923-22.923,22.923h-96.302c-13.641,0-24.802,11.161-24.802,24.802v0.305
		c0,13.641,11.161,24.802,24.802,24.802h12.856c12.608,0,22.923,10.315,22.923,22.923v4.062c0,12.608-10.315,22.923-22.923,22.923
		l-57.95,0.02c-13.641,0-24.802,11.161-24.802,24.802v0.305c0,13.641,11.161,24.802,24.802,24.802h73.003
		c12.608,0,22.923,10.315,22.923,22.923v4.062c0,12.607-10.315,22.923-22.923,22.923h-17.763c-13.641,0-24.802,11.161-24.802,24.802
		v0.305c0,13.642,11.161,24.802,24.802,24.802h66.174c12.607,0,22.923,10.315,22.923,22.923v4.062
		c0,12.607-10.315,22.923-22.923,22.923H93.609c-13.641,0-24.801,11.161-24.801,24.802v0.305c0,13.642,11.161,24.802,24.801,24.802
		h101.939c12.608,0,22.923,10.315,22.923,22.923v4.062c0,12.608-10.315,22.923-22.923,22.923H184.92
		c-13.641,0-24.802,11.161-24.802,24.802v0.305c0,13.642,11.161,24.803,24.802,24.803h127.75c12.607,0,22.923,10.314,22.923,22.923
		v4.062c0,12.608-10.315,22.924-22.923,22.924h-8.874c-13.641,0-24.802,11.16-24.802,24.802v0.305
		c0,13.641,11.161,24.802,24.802,24.802h314.429c13.641,0,24.802-11.161,24.802-24.802v-0.305c0-13.642-11.161-24.802-24.802-24.802
		h-21.274c-12.608,0-22.923-10.315-22.923-22.924v-4.062c0-12.608,10.315-22.923,22.923-22.923h386.698
		c13.642,0,24.802-11.161,24.802-24.803v-0.305c0-13.641-11.16-24.802-24.802-24.802h-119.14c-12.607,0-22.923-10.314-22.923-22.923
		v-4.062c0-12.607,10.315-22.923,22.923-22.923h76.169c13.642,0,24.802-11.16,24.802-24.802v-0.305
		c0-13.641-11.16-24.802-24.802-24.802h-45.239c-12.607,0-22.923-10.315-22.923-22.923v-4.062c0-12.607,10.315-22.923,22.923-22.923
		h210.952c13.641,0,24.802-11.16,24.802-24.802v-0.305C1131.192,636.125,1120.031,624.964,1106.391,624.964z"/>
	<path fill="#F6FF00" d="M859.365,551.241H826.77c-5.522,0-10-4.477-10-10s4.478-10,10-10h32.596c5.522,0,10,4.477,10,10
		S864.888,551.241,859.365,551.241z"/>
	<path fill="#F6FF00" d="M822.015,711.33h-61.216c-5.522,0-10-4.478-10-10s4.478-10,10-10h61.216c5.522,0,10,4.478,10,10
		S827.537,711.33,822.015,711.33z"/>
	<path fill="#F6FF00" d="M705.624,335.495H658.6c-5.522,0-10-4.477-10-10s4.478-10,10-10h47.024c5.522,0,10,4.477,10,10
		S711.146,335.495,705.624,335.495z"/>
	<path fill="#ED7600" d="M566.543,675.219h-16.329c-5.523,0-10-4.478-10-10s4.477-10,10-10h16.329c5.523,0,10,4.478,10,10
		S572.066,675.219,566.543,675.219z"/>
	<path fill="#F6FF00" d="M509.191,940.33h-32.595c-5.523,0-10-4.478-10-10s4.477-10,10-10h32.595c5.523,0,10,4.478,10,10
		S514.714,940.33,509.191,940.33z"/>
	<path fill="#ED7600" d="M961.236,862.145h-28.384c-5.522,0-10-4.478-10-10s4.478-10,10-10h28.384c5.522,0,10,4.478,10,10
		S966.759,862.145,961.236,862.145z"/>
	<circle fill="#ED7600" cx="372.323" cy="893.998" r="8.754"/>
	<g>
		<path fill="#FFCE00" d="M540.553,775.985H505.5c-6.756,0-12.284-5.527-12.284-12.284v-2.177c0-6.757,5.528-12.284,12.284-12.284
			h13.871c7.31,0,13.292-5.981,13.292-13.291v-0.164c0-7.31-5.981-13.291-13.292-13.291h-160.49
			c-7.311,0-13.292,5.981-13.292,13.291v0.164c0,7.31,5.981,13.291,13.292,13.291h20.266c6.756,0,12.284,5.527,12.284,12.284v2.177
			c0,6.757-5.528,12.284-12.284,12.284h-49.832c-7.31,0-13.291,5.981-13.291,13.292v0.163c0,7.31,5.981,13.291,13.291,13.291h13.796
			c6.756,0,12.284,5.528,12.284,12.284v2.178c0,6.756-5.528,12.284-12.284,12.284h-40.604c-7.31,0-13.291,5.98-13.291,13.291v0.163
			c0,7.311,5.981,13.291,13.291,13.291h73.775h50.338h60.861c7.31,0,13.291-5.98,13.291-13.291v-0.163
			c0-7.311-5.981-13.291-13.291-13.291h-8.789c-6.756,0-12.284-5.528-12.284-12.284v-2.178c0-6.756,5.528-12.284,12.284-12.284
			h61.861c7.31,0,13.291-5.981,13.291-13.291v-0.163C553.844,781.967,547.863,775.985,540.553,775.985z"/>
		<path fill="#FFCE00" d="M829.956,225.678h-21.214c0.724,1.562,1.138,3.292,1.138,5.118v2.177c0,6.756-5.527,12.284-12.284,12.284
			h-61.86c-7.311,0-13.292,5.981-13.292,13.291v0.164c0,7.31,5.981,13.291,13.292,13.291h35.053c6.756,0,12.284,5.528,12.284,12.285
			v2.177c0,6.756-5.528,12.285-12.284,12.285h-13.871c-7.311,0-13.291,5.981-13.291,13.291v0.164c0,7.31,5.98,13.291,13.291,13.291
			h55.076c-12.608,0-22.924-10.315-22.924-22.923v-4.062c0-12.607,10.315-22.923,22.924-22.923h17.963
			c13.641,0,24.802-11.161,24.802-24.802v-0.305C854.758,236.839,843.597,225.678,829.956,225.678z"/>
		<path fill="#FFCE00" d="M624.138,425.311h-30.898c-5.956,0-10.828-4.873-10.828-10.828v-1.919c0-5.956,4.873-10.828,10.828-10.828
			h12.228c6.443,0,11.715-5.272,11.715-11.716v-0.144c0-6.444-5.271-11.716-11.715-11.716H413.451
			c-6.444,0-11.716,5.272-11.716,11.716v0.144c0,6.443,5.272,11.716,11.716,11.716h39.792c5.956,0,10.829,4.873,10.829,10.828v1.919
			c0,5.956-4.873,10.828-10.829,10.828h-11.908c-6.444,0-11.716,5.272-11.716,11.716v0.144c0,6.444,5.272,11.716,11.716,11.716
			h28.923c5.956,0,10.829,4.873,10.829,10.828v1.919c0,5.956-4.873,10.829-10.829,10.829h-9.848
			c-6.444,0-11.716,5.272-11.716,11.716v0.144c0,6.443,5.272,11.715,11.716,11.715h14.308h32.157h102.639
			c6.443,0,11.716-5.272,11.716-11.715v-0.144c0-6.444-5.272-11.716-11.716-11.716h-8.58c-5.956,0-10.828-4.873-10.828-10.829
			v-1.919c0-5.956,4.873-10.828,10.828-10.828h23.204c6.443,0,11.716-5.272,11.716-11.716v-0.144
			C635.854,430.583,630.581,425.311,624.138,425.311z"/>
		<path fill="#FFCE00" d="M291.959,572.451c0-7.765-6.353-14.118-14.118-14.118h-37.233c-7.176,0-13.048-5.872-13.048-13.048v-2.312
			c0-7.176,5.872-13.048,13.048-13.048h14.734c4.187,0,7.953-1.857,10.543-4.777H122.545c-13.641,0-24.802,11.161-24.802,24.802
			v0.305c0,13.641,11.161,24.802,24.802,24.802h73.003c12.608,0,22.923,10.315,22.923,22.923v4.062
			c0,12.607-10.315,22.923-22.923,22.923h-17.763c-11.5,0-21.237,7.934-24.01,18.597h106.444c7.765,0,14.118-6.353,14.118-14.117
			v-0.174c0-7.765-6.353-14.118-14.118-14.118H249.88c-7.177,0-13.048-5.871-13.048-13.048v-2.312
			c0-7.177,5.872-13.048,13.048-13.048h27.961c7.765,0,14.118-6.353,14.118-14.118V572.451z"/>
		<path fill="#FFCE00" d="M269.46,516.182v-0.173c0-7.765-6.353-14.118-14.118-14.118h-51.924v0.314
			c0,12.608-10.315,22.923-22.923,22.923h85.747C268.25,522.688,269.46,519.569,269.46,516.182z"/>
		<circle fill="#FFCE00" cx="1017.205" cy="446.925" r="8.754"/>
		<circle fill="#FFCE00" cx="262.313" cy="349.362" r="8.754"/>
	</g>
	<circle fill="#F6FF00" cx="338.633" cy="418.214" r="8.754"/>
	<circle fill="#F6FF00" cx="640.711" cy="838.771" r="8.987"/>
	<circle fill="#F6FF00" cx="124.194" cy="751.473" r="9.268"/>
	<circle fill="#ED7600" cx="864.509" cy="742.661" r="9.067"/>
	<circle fill="#ED7600" cx="329.879" cy="566.164" r="9.067"/>
	<g>
		<path fill="#FDFFDE" d="M865.24,634.88h-35.053c-6.757,0-12.284-5.527-12.284-12.284v-2.177c0-6.757,5.527-12.284,12.284-12.284
			h13.871c7.31,0,13.291-5.981,13.291-13.292v-0.164c0-7.31-5.981-13.291-13.291-13.291h-160.49
			c-7.311,0-13.291,5.981-13.291,13.291v0.164c0,7.31,5.98,13.292,13.291,13.292h5.639c6.757,0,12.284,5.527,12.284,12.284v2.177
			c0,6.757-5.527,12.284-12.284,12.284h-35.204c-7.311,0-13.292,5.981-13.292,13.291v0.164c0,7.31,5.981,13.291,13.292,13.291
			h100.039h24.073h87.125c7.311,0,13.291-5.981,13.291-13.291v-0.164C878.531,640.861,872.551,634.88,865.24,634.88z"/>
		<path fill="#FDFFDE" d="M608.325,536.818h-32.596c-5.523,0-10,4.477-10,10s4.477,10,10,10h32.596c5.522,0,10-4.477,10-10
			S613.848,536.818,608.325,536.818z"/>
		<path fill="#FDFFDE" d="M261.992,835.697h-68.661c-5.523,0-10,4.478-10,10s4.477,10,10,10h68.661c5.523,0,10-4.478,10-10
			S267.515,835.697,261.992,835.697z"/>
		<path fill="#FDFFDE" d="M671.323,460.674c0,5.523,4.478,10,10,10h24.182c5.522,0,10-4.477,10-10s-4.478-10-10-10h-24.182
			C675.801,450.674,671.323,455.151,671.323,460.674z"/>
		<path fill="#FDFFDE" d="M491.652,764.688H467.47c-5.523,0-10,4.478-10,10s4.477,10,10,10h24.182c5.523,0,10-4.478,10-10
			S497.175,764.688,491.652,764.688z"/>
		<path fill="#FDFFDE" d="M1094.323,637.399h-17c-5.522,0-10,4.478-10,10s4.478,10,10,10h17c5.522,0,10-4.478,10-10
			S1099.846,637.399,1094.323,637.399z"/>
		<path fill="#FDFFDE" d="M332.736,360.449h24.182c5.523,0,10-4.477,10-10s-4.477-10-10-10h-24.182c-5.523,0-10,4.477-10,10
			S327.213,360.449,332.736,360.449z"/>
		<path fill="#FDFFDE" d="M907.529,340.449h-18.206c-5.522,0-10,4.477-10,10s4.478,10,10,10h18.206c5.522,0,10-4.477,10-10
			S913.052,340.449,907.529,340.449z"/>
		<path fill="#FDFFDE" d="M433.97,621.177H333.93c-5.523,0-10,4.478-10,10s4.477,10,10,10h100.04c5.523,0,10-4.478,10-10
			S439.493,621.177,433.97,621.177z"/>
		<path fill="#FDFFDE" d="M269.46,446.395h-60.78c-5.523,0-10,4.477-10,10s4.477,10,10,10h60.78c5.523,0,10-4.477,10-10
			S274.983,446.395,269.46,446.395z"/>
		<path fill="#FDFFDE" d="M608.83,252.706h-80.836c-5.523,0-10,4.477-10,10s4.477,10,10,10h80.836c5.522,0,10-4.477,10-10
			S614.353,252.706,608.83,252.706z"/>
		<path fill="#FDFFDE" d="M724.072,775.28h-37.135c-5.522,0-10,4.478-10,10s4.478,10,10,10h37.135c5.522,0,10-4.478,10-10
			S729.595,775.28,724.072,775.28z"/>
		<circle fill="#FDFFDE" cx="409.278" cy="937.116" r="12.252"/>
		<circle fill="#FDFFDE" cx="678.12" cy="252.026" r="12.063"/>
	</g>
	<g>
		
			<rect x="765.29" y="369.13" transform="matrix(-0.8528 -0.5222 0.5222 -0.8528 1319.3088 1168.3298)" fill="#0AA524" width="118.014" height="58.233"/>
		<path fill="#0EC631" d="M869.127,409.546c-0.427-2.41-0.295-4.675,0.263-6.384l-21.143-12.946l-27.686-16.953l-21.144-12.946
			c-1.268,1.273-3.225,2.422-5.564,3.138c-2.067,0.632-4.059,0.8-5.719,0.598l-11.317,18.484c0.934,1.388,1.691,3.234,2.068,5.363
			c0.339,1.911,0.311,3.72,0.013,5.246l21.447,13.133l27.687,16.953l21.447,13.133c1.222-0.961,2.823-1.807,4.68-2.374
			c2.066-0.633,4.056-0.797,5.715-0.596l11.318-18.484C870.259,413.524,869.502,411.674,869.127,409.546z"/>
		
			<ellipse transform="matrix(0.5222 -0.8528 0.8528 0.5222 54.2155 893.2625)" fill="#0AA524" cx="824.297" cy="398.247" rx="12.322" ry="12.135"/>
	</g>
	<g>
		
			<rect x="292.258" y="460.701" transform="matrix(-0.9203 0.3912 -0.3912 -0.9203 857.9586 801.0237)" fill="#0AA524" width="110.257" height="54.406"/>
		<path fill="#0EC631" d="M380.298,459.93c-2.064-0.983-3.716-2.312-4.714-3.663l-21.315,9.061l-27.914,11.866l-21.316,9.061
			c0.281,1.655,0.093,3.767-0.632,5.935c-0.64,1.916-1.593,3.521-2.646,4.674l7.921,18.636c1.562,0.042,3.378,0.467,5.201,1.335
			c1.638,0.779,2.999,1.782,3.998,2.836l21.623-9.192l27.914-11.865l21.624-9.192c-0.069-1.45,0.157-3.127,0.732-4.847
			c0.639-1.915,1.594-3.518,2.647-4.671l-7.922-18.636C383.938,461.227,382.121,460.799,380.298,459.93z"/>
		
			<ellipse transform="matrix(-0.3912 -0.9203 0.9203 -0.3912 34.2692 998.4762)" fill="#0AA524" cx="347.387" cy="487.903" rx="11.512" ry="11.337"/>
	</g>
	<g>
		
			<rect x="236.831" y="717.958" transform="matrix(0.72 -0.6939 0.6939 0.72 -435.357 411.2205)" fill="#0AA524" width="110.257" height="54.405"/>
		<path fill="#0EC631" d="M271.201,783.04c2.279,0.181,4.297,0.833,5.711,1.738l16.677-16.072l21.839-21.048l16.678-16.073
			c-0.854-1.445-1.432-3.484-1.529-5.769c-0.085-2.019,0.231-3.857,0.805-5.312l-14.052-14.58c-1.474,0.519-3.322,0.77-5.335,0.609
			c-1.808-0.143-3.437-0.594-4.747-1.223l-16.917,16.305l-21.839,21.048l-16.918,16.305c0.582,1.33,0.969,2.978,1.046,4.789
			c0.086,2.018-0.233,3.855-0.805,5.309l14.052,14.58C267.338,783.128,269.188,782.879,271.201,783.04z"/>
		
			<ellipse transform="matrix(0.6939 0.72 -0.72 0.6939 625.9152 17.8521)" fill="#0AA524" cx="291.959" cy="745.162" rx="11.512" ry="11.337"/>
	</g>
	<g>
		
			<rect x="756.826" y="783.811" transform="matrix(0.3836 -0.9235 0.9235 0.3836 -250.2946 1235.9724)" fill="#0AA524" width="87.866" height="43.357"/>
		<path fill="#0EC631" d="M797.624,839.769c1.723-0.592,3.405-0.757,4.726-0.544l7.081-17.046l9.273-22.321l7.081-17.047
			c-1.084-0.785-2.154-2.092-2.951-3.73c-0.703-1.447-1.057-2.893-1.1-4.137l-14.902-6.19c-0.912,0.847-2.184,1.618-3.705,2.141
			c-1.367,0.47-2.701,0.658-3.857,0.615l-7.184,17.291l-9.272,22.322l-7.184,17.292c0.849,0.787,1.654,1.868,2.286,3.168
			c0.704,1.446,1.055,2.891,1.099,4.135l14.902,6.19C794.829,841.061,796.102,840.29,797.624,839.769z"/>
		
			<ellipse transform="matrix(0.9235 0.3836 -0.3836 0.9235 370.286 -245.5673)" fill="#0AA524" cx="800.758" cy="805.49" rx="9.174" ry="9.035"/>
	</g>
	<g>
		
			<rect x="511.366" y="323.361" transform="matrix(-0.5174 -0.8557 0.8557 -0.5174 556.9641 1012.8096)" fill="#0AA524" width="105.383" height="52.001"/>
		<path fill="#0EC631" d="M594.974,376.72c0.651-2.086,1.685-3.829,2.828-4.955l-11.455-18.943l-15-24.807l-11.456-18.944
			c-1.528,0.49-3.551,0.598-5.701,0.205c-1.899-0.347-3.547-1.031-4.78-1.873l-16.562,10.015c0.172,1.483,0.015,3.259-0.56,5.102
			c-0.516,1.655-1.28,3.078-2.143,4.166l11.62,19.217l15,24.807l11.62,19.218c1.363-0.261,2.98-0.274,4.685,0.038
			c1.898,0.346,3.543,1.033,4.777,1.873l16.562-10.015C594.239,380.34,594.398,378.562,594.974,376.72z"/>
		
			<ellipse transform="matrix(0.8557 -0.5175 0.5175 0.8557 -99.3915 342.2813)" fill="#0AA524" cx="564.057" cy="349.362" rx="11.003" ry="10.836"/>
	</g>
</g>
<path fill="#F9BE95" d="M596.951,874.506h67.354l44.737-164.826l-264.183-71.705l-91.293,336.348h264.659
	c13.641,0,24.802-11.161,24.802-24.802v-0.305c0-13.642-11.161-24.802-24.802-24.802h-21.274c-12.608,0-22.923-10.315-22.923-22.924
	v-4.062C574.028,884.82,584.343,874.506,596.951,874.506z"/>
<path fill="#F9BE95" d="M740.411,550.026c-13.852,12.22-35.058,11.027-47.124-2.651c-12.067-13.678-10.607-34.868,3.244-47.087
	l57.294-50.546c13.851-12.22,35.057-11.027,47.124,2.651s10.607,34.868-3.244,47.087L740.411,550.026z"/>
<path fill="#FFFFFF" d="M736.436,843.545c0,4.618-3.777,8.396-8.396,8.396H444.256c-4.618,0-8.396-3.778-8.396-8.396V358.526
	c0-4.618,3.778-8.396,8.396-8.396H728.04c4.618,0,8.396,3.778,8.396,8.396V843.545z"/>
<path fill="#E6E6E6" d="M728.04,350.13H586.224v501.811H728.04c4.618,0,8.396-3.778,8.396-8.396V358.526
	C736.436,353.909,732.658,350.13,728.04,350.13z"/>
<rect x="454.978" y="406.076" fill="#0EC631" width="262.341" height="389.92"/>
<path fill="#5D5D5D" d="M649.957,378.05c0,4.618-3.778,8.396-8.396,8.396H530.734c-4.618,0-8.396-3.778-8.396-8.396v-1.679
	c0-4.618,3.778-8.396,8.396-8.396h110.827c4.617,0,8.396,3.778,8.396,8.396V378.05z"/>
<rect x="571.875" y="810.496" fill="#5D5D5D" width="28.546" height="28.547"/>
<path fill="#F9BE95" d="M435.86,797.902c0,18.472-15.113,33.584-33.584,33.584h-2.519c-18.471,0-33.584-15.112-33.584-33.584
	V635.541c0-18.471,15.113-33.584,33.584-33.584h2.519c18.471,0,33.584,15.113,33.584,33.584V797.902z"/>
<path fill="#F9BE95" d="M435.86,697.669c0,21.241-15.68,38.621-34.844,38.621c-19.164,0-34.843-17.38-34.843-38.621V553.794
	c0-21.242,12.116-26.161,26.923-10.931l15.84,16.292c14.808,15.229,26.923,45.069,26.923,66.312V697.669z"/>
<rect x="395.328" y="620.747" fill="#F9BE95" width="40.532" height="210.739"/>
<path fill="#F4D2BA" d="M371.218,600.3c9.231,0.278,15.878-10.354,14.771-19.523l-5.209-23.824
	c-0.874-7.24-6.104-13.423-12.583-15.711c-1.301,3.182-2.025,7.379-2.025,12.553v46.354L371.218,600.3z"/>
<g>
	<path fill="#FFFFFF" d="M563.536,635.907h-22.278l-6.679-30.388c-0.318-1.271-0.819-3.8-1.502-7.585
		c-0.684-3.784-1.185-6.948-1.503-9.493c-0.255,2.068-0.667,4.636-1.24,7.704c-0.572,3.07-1.137,5.892-1.693,8.468
		c-0.557,2.576-2.871,13.008-6.941,31.294h-22.278l-17.269-69.743h18.175l7.585,34.967c1.718,7.729,2.894,13.882,3.53,18.462
		c0.413-3.244,1.152-7.648,2.218-13.214c1.065-5.565,2.059-10.177,2.981-13.835l6.154-26.38h17.459l5.963,26.38
		c1.017,4.23,2.051,9.112,3.101,14.646s1.749,9.668,2.099,12.403c0.413-3.53,1.542-9.652,3.387-18.366l7.728-35.062h18.175
		L563.536,635.907z"/>
	<path fill="#FFFFFF" d="M589.725,635.907v-69.743h18.938v69.743H589.725z"/>
	<path fill="#FFFFFF" d="M690.143,635.907h-24.711l-25.474-49.136h-0.43c0.604,7.729,0.906,13.628,0.906,17.699v31.437h-16.696
		v-69.743h24.615l25.379,48.467h0.286c-0.446-7.027-0.668-12.673-0.668-16.935v-31.532h16.792V635.907z"/>
</g>
<g>
	<g opacity="0.1">
		<path d="M681.318,622.805l3.066,6.906c6.559,14.771,24.01,21.492,38.782,14.934l13.269-5.892v-72.572l-40.185,17.842
			C681.479,590.581,674.76,608.033,681.318,622.805z"/>
		<path d="M696.251,740.32c-14.771,6.559-21.491,24.01-14.933,38.782l3.066,6.906c6.559,14.771,24.01,21.491,38.782,14.933
			l13.269-5.891v-72.557c-0.175,0.074-0.351,0.141-0.524,0.218L696.251,740.32z"/>
		<path d="M659.16,704.788l2.528,7.12c5.409,15.23,22.295,23.267,37.525,17.858l37.222-13.219v-70.387l-59.418,21.102
			C661.787,672.671,653.751,689.558,659.16,704.788z"/>
	</g>
	<g>
		<path fill="#F9BE95" d="M731.16,634.569c-14.771,6.559-32.224-0.162-38.782-14.934l-3.066-6.906
			c-6.559-14.771,0.161-32.224,14.933-38.782l46.238-20.529c14.772-6.559,32.224,0.162,38.782,14.933l3.066,6.906
			c6.559,14.772-0.161,32.224-14.933,38.783L731.16,634.569z"/>
		<path fill="#F4D2BA" d="M732.606,626.236c-11.486,5.1-25.178-0.396-30.425-12.214l-1.807-4.07
			c-5.247-11.817-0.142-25.659,11.345-30.759c11.486-5.1,25.177,0.396,30.424,12.214l1.808,4.07
			C749.197,607.295,744.093,621.137,732.606,626.236z"/>
	</g>
	<g>
		<path fill="#F9BE95" d="M707.207,719.691c-15.23,5.408-32.116-2.628-37.525-17.857l-2.528-7.121
			c-5.409-15.23,2.627-32.117,17.857-37.525l68.06-24.17c15.23-5.408,32.117,2.627,37.525,17.857l2.529,7.121
			c5.408,15.23-2.627,32.117-17.857,37.525L707.207,719.691z"/>
		<path fill="#F4D2BA" d="M710.374,711.456c-11.486,5.1-25.177-0.396-30.424-12.214l-1.808-4.07
			c-5.246-11.818-0.142-25.659,11.345-30.759s25.178,0.396,30.424,12.214l1.808,4.07
			C726.966,692.515,721.86,706.355,710.374,711.456z"/>
	</g>
	<g>
		<path fill="#F9BE95" d="M731.16,790.867c-14.771,6.558-32.224-0.162-38.782-14.934l-3.066-6.906
			c-6.559-14.771,0.161-32.224,14.933-38.782l39.66-17.608c14.771-6.559,32.224,0.161,38.782,14.933l3.066,6.906
			c6.559,14.772-0.161,32.225-14.934,38.782L731.16,790.867z"/>
		<path fill="#F4D2BA" d="M731.207,783.922c-11.486,5.1-25.178-0.396-30.424-12.214l-1.808-4.07
			c-5.247-11.817-0.142-25.659,11.345-30.759s25.177,0.396,30.424,12.214l1.808,4.07
			C747.798,764.98,742.693,778.822,731.207,783.922z"/>
	</g>
</g>
</svg>
