<?xml version="1.0" encoding="utf-8"?>
<!-- Generator: Adobe Illustrator 16.0.0, SVG Export Plug-In . SVG Version: 6.00 Build 0)  -->
<!DOCTYPE svg PUBLIC "-//W3C//DTD SVG 1.1 Basic//EN" "http://www.w3.org/Graphics/SVG/1.1/DTD/svg11-basic.dtd">
<svg version="1.1" baseProfile="basic" id="Layer_1"
	 xmlns="http://www.w3.org/2000/svg" xmlns:xlink="http://www.w3.org/1999/xlink" x="0px" y="0px" width="250px" height="94px"
	 viewBox="0 0 250 94" xml:space="preserve">
<style type="text/css">
<![CDATA[
	.st0{fill:none;stroke:#231F20;stroke-width:0.39;stroke-linecap:round;stroke-linejoin:round;stroke-miterlimit:10;}
	.st1{fill:#EC2227;}
	.st2{fill:#BDBEC0;}
	.st3{fill:#231F20;}
	.st4{fill:#F1F2F2;}
	.st5{fill:#F2F2F2;}
	.st6{fill:#F8ED34;}
	.st7{fill:#939598;}
	.st8{fill:none;stroke:#231F20;stroke-width:0.8374;stroke-linecap:round;stroke-linejoin:round;stroke-miterlimit:10;}
	.st9{fill:#FDE2E2;}
	.st10{fill:#FFFFFF;}
	.st11{fill:none;stroke:#231F20;stroke-width:0.1378;stroke-linecap:round;stroke-linejoin:round;stroke-miterlimit:10;}
	.st12{fill:none;stroke:#231F20;stroke-width:0.5618;stroke-linecap:round;stroke-linejoin:round;stroke-miterlimit:10;}
	.st13{fill:#726659;}
	.st14{fill:#A8AAAD;}
	.st15{fill:#414042;}
]]>
</style>
<g>
	<path class="st4" d="M27.5,57.8c8.5,1.8,13.2,5.8,13.2,13.9c0,10.4-8.1,15.4-17.8,15.4c-5.8,0-10.6-0.8-16.5-2.7l-4.3-1.4L4,73.7
		l4.3,1.5c4.7,1.6,9.8,3,14.5,3c3.9,0,7.4-1.8,7.4-6c0-3.1-1.7-4.8-5.7-5.7l-8.9-1.9c-8.5-1.8-13.2-6-13.2-14
		c0-10.4,7.9-15.2,17.8-15.2c5.8,0,10.5,0.9,16.3,2.7l4.3,1.4l-1.9,9.4l-4.3-1.6c-4.8-1.7-9.5-3-14.3-3c-4.1,0-7.3,1.8-7.3,6
		c0,3.1,1.6,4.8,5.7,5.7L27.5,57.8z"/>
	<path class="st4" d="M47.8,86.4V35.6H59v50.8H47.8z"/>
	<path class="st4" d="M73.7,86.4c-4,0-6.4-2.3-6.4-5.9V41.6c0-3.7,2.3-5.9,6.3-5.9h17.5c9.4,0,14.9,4.2,14.9,13
		c0,3.5-1.2,6.6-3.2,9.1l-2.1,2.8l2.6,2.6c2.9,2.9,4.5,6.1,4.5,9.9c0,8.4-5.7,13.4-16.5,13.4H73.7z M89.4,43.6H78.2V57h13.8l2-2.8
		c1-1.4,1.6-3.1,1.6-5.1C95.6,45.9,93.9,43.6,89.4,43.6z M78.2,64.9v13.6h12c4.5,0,6.8-2.3,6.8-5.7c0-1.9-0.8-3.5-2.2-5.1l-2.7-2.8
		H78.2z"/>
	<path class="st4" d="M121.2,86.4c-4,0-6.4-2.3-6.4-5.9V41.7c0-3.7,2.4-6,6.4-6h29.3V44h-24.6v12.5h21.5v8.1h-21.5v13.5h24.7v8.3
		H121.2z"/>
	<path class="st4" d="M170,78.1H196v8.3h-34.3c-3.6,0-5.3-2.3-5.3-5.4c0-1.8,0.7-3.3,1.8-4.7L182.5,44h-25v-8.4h33.2
		c3.7,0,5.3,2.3,5.3,5.5c0,1.7-0.6,3.2-1.8,4.7L170,78.1z"/>
	<path class="st4" d="M236.1,86.4l-3.1-9.3h-18.9l-3.1,9.3h-11.2L216,40.3c1.2-3.4,3.7-5.2,7.9-5.2c4,0,6.7,1.8,7.8,5.1l15.7,46.2
		H236.1z M223.8,46.4L216.3,69h14.6L223.8,46.4z"/>
</g>
<path class="st6" d="M229.7,70.6c1.5,0.8,2.5,2.4,2.5,4.2c0,1.8-1,3.4-2.4,4.2c-0.7,0.4-1.4,0.6-2.2,0.6c-0.7,0-1.4-0.2-1.9-0.5
	c-1.6-0.8-2.7-2.4-2.7-4.4c0-0.9,0.3-1.8,0.7-2.6c0.1-0.2,0.3-0.4,0.5-0.7c0.8-1,2.1-1.6,3.4-1.6c0.7,0,1.3,0.2,1.9,0.4
	C229.5,70.5,229.6,70.6,229.7,70.6z"/>
<path class="st1" d="M217.1,69.2c0.3-0.1,0.7-0.2,1-0.3c1.6,0.9,4.6,1.3,5.9,2.8c-0.2,0.2-0.3,0.4-0.5,0.7c-2.3-1.2-5.3-2-7.7-2.7
	l0-0.2C216.3,69.3,216.7,69.3,217.1,69.2z"/>
<path class="st1" d="M229.7,70.6c-0.1-0.1-0.2-0.1-0.3-0.1l0-0.1c1.1-2.1,1.9-5.3,3.5-7h0l3.3-2c-0.6,1-1.6,2.2-2.3,3.2
	C232.6,66.4,231.2,69.1,229.7,70.6z"/>
<path class="st5" d="M223.2,69.2l9.8-5.8c-1.6,1.7-2.4,4.9-3.5,7l0,0.1c-0.6-0.3-1.2-0.4-1.9-0.4c-1.4,0-2.6,0.6-3.4,1.6
	c-1.3-1.5-4.3-2-5.9-2.8c0.6-0.2,1.2-0.5,1.6-0.7l0-0.1L223.2,69.2z"/>
<polygon class="st7" points="238.8,60 236.3,61.5 232.9,63.4 232.9,63.4 223.2,69.2 222.2,64.8 243.6,53.3 243.9,57 "/>
<polygon class="st14" points="209.9,59.5 209.9,59.6 222.2,64.8 223.2,69.2 219.9,68.1 210.4,64.9 210.3,64.7 209.8,59.7 "/>
<path class="st2" d="M215.6,60.4c0.8,1.7,3,1.8,4,0.3C220.4,58.8,214.6,58.3,215.6,60.4z M210,59.5l5.9-2.8v0c0.8,0.2,1.4,0.3,2,0.4
	c0.1,0,0.2,0,0.2,0l0,0.2c1,1.1,3.8,2.6,5.2,2.7c1.8,0.2,4.1-1.4,5.6-2.3c1.8-1,4.1-1.6,5.7-2.9c1.8-1.4-0.4-2.4-1.9-3l0,0
	c0.6-0.7,1.1-1.5,1.5-2.3l0.1,0l9.1,3.2l0.1,0.6l-21.4,11.5L210,59.5L210,59.5z"/>
<path class="st13" d="M215.6,60.4c-1-2,4.8-1.6,4,0.3C218.5,62.2,216.4,62.1,215.6,60.4z"/>
<path class="st13" d="M223.3,60.1c-1.5-0.1-4.2-1.6-5.2-2.7l0-0.2c4.1,0.5,8.6-0.4,12-2.8c0.9-0.6,1.9-1.5,2.7-2.5l0,0
	c1.5,0.6,3.7,1.6,1.9,3c-1.6,1.2-3.9,1.9-5.7,2.9C227.3,58.6,225.1,60.2,223.3,60.1z"/>
<path class="st15" d="M226.2,38.5c0.3,1.9-1.4,5.6-1.8,6.8c-2-0.9-4.1-1.1-6.1-1.5c-1.3-0.3-3.2-0.5-2.2-2.4c1.2-2,5.2-3.9,7.9-4.2
	c0.4,0.1,0.9,0.1,1.3,0C225.8,37.5,226.1,37.9,226.2,38.5z"/>
<path class="st3" d="M207.4,40.2c0-1.8,1.3-3.3,3-3.4c1.3,0.1,2.5,0.9,3.3,2.1c0.2,0.4,0.3,0.9,0.3,1.3c0,1.9-1.5,3.4-3.3,3.4
	C208.9,43.6,207.4,42.1,207.4,40.2z M209.1,37.8c-0.6,0-1,0.6-1,1.4c0,0.8,0.5,1.4,1,1.4c0.6,0,1-0.6,1-1.4
	C210.1,38.4,209.7,37.8,209.1,37.8z"/>
<path class="st3" d="M223.1,31c1.6-0.8,3.5-0.1,4.4,1.4c0.9,1.6,0.4,3.7-1.2,4.6c-0.3,0.2-0.7,0.3-1,0.4c-0.1,0-0.2,0-0.2,0
	c-0.3,0-0.7,0-1,0c-0.9-0.2-1.7-0.8-2.2-1.7c-0.3-0.4-0.4-0.9-0.4-1.4C221.4,32.9,222,31.7,223.1,31C223.1,31,223.1,31,223.1,31z
	 M226.2,33.6c0.5-0.3,0.6-1,0.2-1.7c-0.4-0.7-1.1-1-1.6-0.7c-0.5,0.3-0.6,1-0.2,1.7C225,33.6,225.7,33.9,226.2,33.6z"/>
<path class="st10" d="M226.4,31.9c0.4,0.7,0.3,1.4-0.2,1.7c-0.5,0.3-1.2,0-1.6-0.7c-0.4-0.7-0.3-1.4,0.2-1.7
	C225.4,30.9,226.1,31.2,226.4,31.9z"/>
<path class="st10" d="M209.1,37.8c0.6,0,1,0.6,1,1.4c0,0.8-0.5,1.4-1,1.4c-0.6,0-1-0.6-1-1.4C208.1,38.4,208.6,37.8,209.1,37.8z"/>
<path class="st10" d="M205.9,42.1c0-3,1.9-5.3,4.4-5.3c0.1,0,0.1,0,0.2,0c-1.7,0.1-3,1.6-3,3.4c0,1.9,1.5,3.4,3.3,3.4
	c1.8,0,3.3-1.5,3.3-3.4c0-0.5-0.1-0.9-0.3-1.3c0.6,0.9,0.9,2,0.9,3.3c0,0.7-0.1,1.3-0.3,1.9c-0.9,0.8-1.8,1.9-2.3,3
	c-0.5,0.3-1.1,0.4-1.7,0.4C207.9,47.4,205.9,45.1,205.9,42.1z"/>
<path class="st10" d="M229.7,33.4c1.1,1.9,1,4.1,0.1,5.6l0,0.1c-1-0.4-2.2-0.5-3.6-0.5c-0.1-0.6-0.4-1-0.9-1.2
	c0.3-0.1,0.7-0.2,1-0.4c1.6-0.9,2.1-2.9,1.2-4.6c-0.9-1.6-2.8-2.2-4.4-1.4c0.1,0,0.1-0.1,0.2-0.1C225.4,29.7,228.3,30.8,229.7,33.4z
	"/>
<path class="st15" d="M234.9,32.8c-1.5-2.8-2.2-6.2-5.1-8c-1.9-1.2-4.4-1.7-6.7-1.2l-0.2-1.5c-0.5-0.6-1.5-0.9-2.4-0.7l-0.1-0.5
	c-0.4,0.1-0.7,0.2-1.1,0.3c2.8-3.9,4.7-9.5,5-14.1c0.1,0.2,0.3,0.4,0.3,0.5c0-0.3,0.2-0.7,0.3-0.9c0.8,0.8,1.6,1.7,2.4,2.7l-0.1,0.1
	c-1.5-0.7-3.8,10.4-4,11.6c3.6,0.1,7.3,0.9,10.3,3l0.1,0c0.3,1.5,0.7,2.9,1.4,4.2c0.8,1.6,1.9,2.9,2.6,4.6l0,0.2
	c-0.1,0-0.3,0-0.4-0.1l0,0.2C236,33,235.5,34,234.9,32.8z"/>
<path class="st15" d="M201.9,28.8c-0.8,0.8-1.4,1.6-1.8,2.6l-1.1-0.2c0.1-0.3,0.1-0.4,0.2-0.4c-2.7-1.8-6-2.1-8.6-3.9
	c-0.9-0.6-1.4-1.6-2.4-2c-0.6,0.9,0,3,0.1,4.1c0.2,1.6,0.5,3,0.9,4.5c0.2,0.6,0.4,1.2,0.6,1.8l-1.1,0.4c-0.8-2-1.5-4.1-2.1-6.2
	c-0.1-0.2-0.9-5-0.7-4.9c0.2,0.1,0.3,0.2,0.4,0.3l0.3,0c-0.4-0.5-0.3-2.1-0.4-2.8c2.4,1,4.5,2.5,7.1,3.5c2.7,1,6.1,1.2,8.4,3.1
	L201.9,28.8z"/>
<path class="st15" d="M200.6,31.6c-0.2,0.5-0.4,1.1-0.4,1.7l1.4,1c-0.5,0.9-0.8,2-0.9,3.2c-0.3,3.5,1.3,6.2,3.3,8.8
	c-0.9,0.3-1.9,0.5-2.8,1c-1.1,0.7-1.8,1.7-2.7,2.6l-0.2,0c0.2-0.6,0.3-1.3,0.3-1.8l-0.1,0c-0.6-0.6-1.3-1.3-2-1.9
	c-3.3-2.8-5.7-5.4-7.3-9.5c-0.1-0.3-0.3-0.7-0.4-1l1.1-0.4c1.1,2.7,3.2,5.9,6.1,5.9c0.4-0.7,2.5-8.2,3.2-10l1.1,0.2L200.6,31.6z"/>
<path class="st15" d="M200.1,31.4c0.4-1,1-1.8,1.8-2.6c2.3-2.3,5.7-3.9,8.4-5.1c3-1.3,5.9-1.7,8.9-2.4c0.4-0.1,0.7-0.2,1.1-0.3
	l0.1,0.5c1-0.2,1.9,0.1,2.4,0.7l0.2,1.5c-0.9,0.2-1.8,0.5-2.6,0.9c-1.7,1-2.8,2.4-3,4.4c0,0.3,0.1,3.7,0.3,3.7
	c-1.3,0.3-2.3,1-3.1,2.1c-3.4-4.8-10.5-5.2-13.1-0.4l-1.4-1c0-0.6,0.2-1.2,0.4-1.7L200.1,31.4z"/>
<path class="st5" d="M229.8,39c1-1.5,1-3.7-0.1-5.6c-1.4-2.6-4.3-3.7-6.4-2.5c-0.1,0-0.2,0.1-0.2,0.1c0,0,0,0,0,0c0,0-0.1,0-0.1,0.1
	c-1.2,0.6-1.8,1.9-1.6,3.2c0,0.5,0.2,1,0.4,1.4c0.5,0.9,1.3,1.5,2.2,1.7c-2.7,0.3-6.7,2.2-7.9,4.2c-1.1,1.8,0.8,2.1,2.2,2.4
	c2,0.4,4.1,0.6,6.1,1.5c0.4-1.2,2.1-4.9,1.8-6.8C227.5,38.5,228.7,38.7,229.8,39L229.8,39z M210.3,47.4c0.6,0,1.2-0.2,1.7-0.4
	c1.1-0.6,1.9-1.6,2.3-3c0.2-0.6,0.3-1.3,0.3-1.9c0-1.2-0.3-2.3-0.9-3.3c-0.5-1.2-1.7-2.1-3-2.1c-0.1,0-0.2,0-0.3,0
	c-0.1,0-0.1,0-0.2,0c-2.4,0-4.4,2.4-4.4,5.3C205.9,45.1,207.9,47.4,210.3,47.4z M215.9,56.7l-5.9,2.8l0,0.1l-0.1,0l-0.1,0.2l0.5,5
	l0.1,0.3l9.4,3.1l0,0.1c-0.4,0.2-1.1,0.4-1.6,0.7c-0.4,0.1-0.8,0.3-1,0.3c-0.4,0.1-0.8,0.2-1.3,0.2c-1.8,0.3-3.8,0.4-5.7,0.3
	c-1.9-0.1-3.8-0.4-5.5-0.8c-4.7-1.2-8.1-4-11.7-7.1c0.6-0.2,1.2-0.6,1.8-0.9c-0.4-0.2-1-0.5-1.5-0.7c1.2-1.9,2.4-3.4,3.2-5.6
	c0.4-1.3,1.3-3,1.7-4.7l0.2,0c0.9-0.9,1.6-2,2.7-2.6c0.9-0.5,1.9-0.7,2.8-1c-2-2.6-3.6-5.3-3.3-8.8c0.1-1.3,0.4-2.3,0.9-3.2
	c2.6-4.8,9.7-4.4,13.1,0.4c0.8-1.1,1.9-1.7,3.1-2.1c-0.2,0-0.4-3.3-0.3-3.7c0.2-2,1.3-3.4,3-4.4c0.8-0.5,1.7-0.8,2.6-0.9
	c2.3-0.4,4.8,0,6.7,1.2c2.9,1.8,3.6,5.1,5.1,8c0.6,1.2,1.1,0.2,2.2,0.3l0-0.2c0.1,0,0.3,0.1,0.4,0.1c3.1,0.5,5.3,0.4,8.5-0.5
	c-0.1,0.2-0.2,0.6-0.3,0.8c0.4-0.1,1-0.1,1.4-0.3c0.5-0.2,0.7,7.2,0.6,7.7c-0.5,4-1,9.5-3.8,12.5l-0.2,0.1l-0.1-0.6l-9.1-3.2l-0.1,0
	c-0.4,0.8-0.9,1.6-1.5,2.3c-0.8,1-1.8,1.9-2.7,2.5c-3.4,2.4-7.9,3.3-12,2.8c-0.1,0-0.2,0-0.2,0C217.3,57,216.6,56.9,215.9,56.7
	L215.9,56.7z"/>
<path class="st9" d="M188.1,24.9c1,0.4,1.5,1.4,2.4,2c2.7,1.7,6,2.1,8.6,3.9c0,0-0.1,0.1-0.2,0.4c-0.6,1.8-2.8,9.3-3.2,10
	c-2.9-0.1-5-3.2-6.1-5.9c-0.3-0.6-0.5-1.3-0.6-1.8c-0.5-1.5-0.7-2.9-0.9-4.5C188,27.9,187.5,25.8,188.1,24.9z"/>
<path class="st9" d="M233.5,24l-0.1,0c-3-2.1-6.7-2.9-10.3-3c0.2-1.2,2.6-12.3,4-11.6l0.1-0.1c1.7,2.2,3.2,4.6,4.3,7.1
	C232.6,18.8,232.9,21.5,233.5,24z"/>
<path class="st8" d="M186.6,25.4c-0.1-0.1-0.2-0.3-0.4-0.4c-0.1-0.1-0.3-0.2-0.4-0.3c-0.2-0.1,0.7,4.6,0.7,4.9
	c0.6,2.1,1.3,4.2,2.1,6.2c0.1,0.3,0.3,0.7,0.4,1c1.6,4,4,6.7,7.3,9.5c0.7,0.6,1.4,1.3,2,1.9"/>
<path class="st8" d="M201.6,28.7c-2.3-1.9-5.6-2.1-8.4-3.1c-2.6-1-4.7-2.5-7.1-3.5c0.1,0.7,0,2.3,0.4,2.8c0.1,0.1,0.1,0.1,0.2,0.1"
	/>
<path class="st8" d="M200.1,31.4c0.4-1,1-1.8,1.8-2.6c2.3-2.3,5.7-3.9,8.4-5.1c3-1.3,5.9-1.7,8.9-2.4c0.4-0.1,0.7-0.2,1.1-0.3
	c0.2,0,0.3-0.1,0.5-0.1"/>
<path class="st8" d="M219.2,21.4C219.2,21.3,219.2,21.3,219.2,21.4c2.8-4,4.8-9.6,5-14.2c0.1,0.2,0.3,0.4,0.3,0.5
	c0-0.3,0.2-0.7,0.3-0.9c0.8,0.8,1.6,1.7,2.4,2.7c1.7,2.2,3.2,4.6,4.3,7.1c1.1,2.4,1.4,5,2,7.6c0.3,1.5,0.7,2.9,1.4,4.2
	c0.8,1.6,1.9,2.9,2.6,4.6"/>
<path class="st8" d="M236.5,32.9c0.2,0,0.4,0.1,0.6,0.1c0.1,0,0.3,0.1,0.4,0.1c3.1,0.5,5.3,0.4,8.5-0.5c-0.1,0.2-0.2,0.6-0.3,0.8
	c0.4-0.1,1-0.1,1.4-0.3c0.5-0.2,0.7,7.2,0.6,7.7c-0.5,4-1,9.5-3.8,12.5"/>
<path class="st8" d="M198.4,47.7c0,0.1,0,0.2,0,0.4c0,0.6-0.1,1.2-0.3,1.8c-0.4,1.6-1.2,3.3-1.7,4.7c-0.8,2.2-2,3.7-3.2,5.6
	c0.5,0.2,1.1,0.5,1.5,0.7c-0.6,0.3-1.2,0.7-1.8,0.9c3.5,3.1,7,5.8,11.7,7.1c1.7,0.5,3.6,0.7,5.5,0.8c1.9,0.1,3.9,0,5.7-0.3
	c0.4-0.1,0.8-0.2,1.3-0.2c0.3-0.1,0.7-0.2,1-0.3c0.6-0.2,1.2-0.5,1.6-0.7"/>
<line class="st8" x1="209.8" y1="59.7" x2="210.3" y2="64.7"/>
<polyline class="st8" points="210.4,64.9 219.9,68.1 223.2,69.2 "/>
<polyline class="st8" points="232.9,63.4 236.3,61.5 238.8,60 243.9,57 "/>
<line class="st8" x1="223.2" y1="69.2" x2="232.9" y2="63.4"/>
<polyline class="st8" points="243.9,57 243.6,53.3 243.5,52.7 "/>
<line class="st8" x1="243.5" y1="52.7" x2="234.4" y2="49.5"/>
<line class="st8" x1="210" y1="59.5" x2="215.9" y2="56.7"/>
<path class="st12" d="M218,57.3c1,1.1,3.8,2.6,5.2,2.7c1.8,0.2,4.1-1.4,5.6-2.3c1.8-1,4.1-1.6,5.7-2.9c1.8-1.4-0.4-2.4-1.9-3"/>
<path class="st12" d="M219.5,60.7c0.8-1.9-4.9-2.3-4-0.3C216.4,62.1,218.5,62.2,219.5,60.7z"/>
<path class="st8" d="M209,52.5c0.5,2.2,4.1,3.5,6.8,4.2c0.8,0.2,1.4,0.3,2,0.4c0.1,0,0.2,0,0.2,0c4.1,0.5,8.6-0.4,12-2.8
	c0.9-0.6,1.9-1.5,2.7-2.5c0.6-0.7,1.1-1.5,1.5-2.3c1-2.1,1.2-4.3-0.2-6.3"/>
<path class="st8" d="M210.1,51.7c-0.9,0.3-1.8,1.3-2.2,2.1"/>
<path class="st8" d="M226.2,38.5c0.3,1.9-1.4,5.6-1.8,6.8c-2-0.9-4.1-1.1-6.1-1.5c-1.3-0.3-3.2-0.5-2.2-2.4c1.2-2,5.2-3.9,7.9-4.2
	c0.4,0,0.7,0,1,0c0.1,0,0.2,0,0.2,0C225.8,37.5,226.1,37.9,226.2,38.5z"/>
<path class="st8" d="M211.5,49.8c-0.2-0.8,0-1.8,0.6-2.8c0.6-1.1,1.4-2.2,2.3-3c0.5-0.4,0.9-0.8,1.3-1"/>
<path class="st8" d="M226.2,38.5C226.2,38.5,226.2,38.5,226.2,38.5c1.4,0,2.6,0.1,3.6,0.5c0.7,0.3,1.4,0.7,1.9,1.3"/>
<path class="st3" d="M211.7,47.4c0,0-0.1,0-0.4,0c-0.3,0-0.6,0.1-1,0.3c-0.8,0.3-1.8,0.8-2.8,1.5c-1,0.6-1.9,1.3-2.5,1.9
	c-0.3,0.3-0.5,0.6-0.7,0.8c-0.1,0.2-0.2,0.3-0.2,0.3s0-0.1,0.1-0.4c0.1-0.2,0.3-0.6,0.5-0.9c0.3-0.4,0.6-0.8,1-1.1
	c0.4-0.4,0.9-0.7,1.4-1.1c0.5-0.3,1-0.6,1.5-0.8c0.5-0.2,1-0.4,1.5-0.5c0.4-0.1,0.8-0.1,1.1-0.1C211.6,47.4,211.7,47.4,211.7,47.4z"
	/>
<path class="st3" d="M230.8,39.6c0,0,0.1-0.1,0.2-0.3c0-0.1,0.2-0.2,0.3-0.3c0.1-0.1,0.3-0.2,0.4-0.4c0.3-0.2,0.8-0.5,1.2-0.6
	c0.5-0.2,1-0.3,1.5-0.3c0.5,0,1.1-0.1,1.6,0c0.5,0,1,0.1,1.4,0.2c0.4,0.1,0.7,0.3,0.9,0.4c0.2,0.1,0.3,0.2,0.3,0.2s-0.1,0-0.3-0.1
	c-0.2-0.1-0.5-0.1-0.9-0.1c-0.8-0.1-1.8-0.1-2.8,0c-1,0.1-2,0.3-2.7,0.7c-0.2,0.1-0.3,0.2-0.4,0.3c-0.1,0.1-0.2,0.2-0.3,0.3
	C230.9,39.5,230.8,39.6,230.8,39.6z"/>
<path class="st12" d="M213.7,38.8c0.6,0.9,0.9,2,0.9,3.3c0,0.7-0.1,1.3-0.3,1.9c-0.4,1.3-1.3,2.4-2.3,3c-0.5,0.3-1.1,0.4-1.7,0.4
	c-2.4,0-4.4-2.4-4.4-5.3c0-3,1.9-5.3,4.4-5.3c0.1,0,0.1,0,0.2,0C211.8,36.8,213,37.6,213.7,38.8z"/>
<path class="st0" d="M213.7,38.8c0.2,0.4,0.3,0.9,0.3,1.3c0,1.9-1.5,3.4-3.3,3.4c-1.8,0-3.3-1.5-3.3-3.4c0-1.8,1.3-3.3,3-3.4
	c0.1,0,0.2,0,0.3,0C212.1,36.8,213.2,37.6,213.7,38.8z"/>
<path class="st11" d="M210.1,39.2c0,0.8-0.5,1.4-1,1.4c-0.6,0-1-0.6-1-1.4c0-0.8,0.5-1.4,1-1.4C209.7,37.8,210.1,38.4,210.1,39.2z"
	/>
<path class="st12" d="M223.1,31c-1,0.7-1.7,1.9-1.8,3.2c-0.1,1.1,0.2,2.3,0.8,3.4"/>
<path class="st12" d="M229.8,39c1-1.5,1-3.7-0.1-5.6c-1.4-2.6-4.3-3.7-6.4-2.5c-0.1,0-0.2,0.1-0.2,0.1"/>
<path class="st0" d="M223.1,31c0,0-0.1,0-0.1,0.1c-1.2,0.6-1.8,1.9-1.6,3.2c0,0.5,0.2,1,0.4,1.4c0.5,0.9,1.3,1.5,2.2,1.7
	c0.4,0.1,0.9,0.1,1.3,0c0.3-0.1,0.7-0.2,1-0.4c1.6-0.9,2.1-2.9,1.2-4.6C226.6,30.8,224.6,30.2,223.1,31"/>
<path class="st12" d="M223.1,31C223.1,31,223.1,31,223.1,31"/>
<path class="st11" d="M224.6,32.9c0.4,0.7,1.1,1,1.6,0.7c0.5-0.3,0.6-1,0.2-1.7c-0.4-0.7-1.1-1-1.6-0.7
	C224.4,31.5,224.3,32.2,224.6,32.9z"/>
<path class="st8" d="M204.3,29.2c-1.7,0-3.1,1-3.8,2.4c-0.2,0.5-0.4,1.1-0.4,1.7"/>
<path class="st8" d="M218.1,23.7c0.4-1.3,1.4-1.9,2.3-2.2c1-0.2,1.9,0.1,2.4,0.7"/>
<path class="st8" d="M229.7,70.6c1.5,0.8,2.5,2.4,2.5,4.2c0,1.8-1,3.4-2.4,4.2c-0.7,0.4-1.4,0.6-2.2,0.6c-0.7,0-1.4-0.2-1.9-0.5
	c-1.6-0.8-2.7-2.4-2.7-4.4c0-0.9,0.3-1.8,0.7-2.6c0.1-0.2,0.3-0.4,0.5-0.7c0.8-1,2.1-1.6,3.4-1.6c0.7,0,1.3,0.2,1.9,0.4
	C229.5,70.5,229.6,70.6,229.7,70.6z"/>
<path class="st8" d="M229.7,72.8c-0.9-0.3-3.3-1.4-3.5,0.5c-0.2,1.4,1.4,0.8,2.2,1.3c2.4,1.6-0.5,3.9-2,1.8"/>
<path class="st8" d="M229.5,70.4c1.1-2.1,1.9-5.3,3.5-7h0c0,0,0.1-0.1,0.1-0.1"/>
<path class="st8" d="M229.7,70.6c1.5-1.5,2.9-4.2,4.2-5.9c0.7-1,1.7-2.3,2.3-3.2c0,0,0-0.1,0-0.1"/>
<path class="st8" d="M223.7,72.3C223.7,72.3,223.6,72.3,223.7,72.3c-2.4-1.2-5.3-2-7.7-2.7"/>
<path class="st8" d="M224.2,71.7C224.1,71.7,224.1,71.7,224.2,71.7c-1.4-1.6-4.3-2-6-2.8c0,0,0,0,0,0"/>
</svg>
