<?xml version="1.0" encoding="utf-8"?>
<!-- Generator: Adobe Illustrator 16.0.0, SVG Export Plug-In . SVG Version: 6.00 Build 0)  -->
<!DOCTYPE svg PUBLIC "-//W3C//DTD SVG 1.1//EN" "http://www.w3.org/Graphics/SVG/1.1/DTD/svg11.dtd">
<svg version="1.1" id="Layer_1" xmlns="http://www.w3.org/2000/svg" xmlns:xlink="http://www.w3.org/1999/xlink" x="0px" y="0px"
	 width="221px" height="297px" viewBox="0 0 221 297" enable-background="new 0 0 221 297" xml:space="preserve">
<g>
	<g>
		<g>
			<path fill="#23A02A" d="M162.175,232.968c-0.05,0.459-0.108,0.915-0.173,1.377c-2.538,18.2-17.846,31.771-35.976,33.032
				c-0.916,0.064-1.838,0.1-2.766,0.1H98.624c-19.315,0-36.076-14.009-38.745-33.132c-0.063-0.462-0.12-0.918-0.168-1.377
				l3.297-36.39c-1.169-11.206,2.447-22.387,9.966-30.777l37.963-28.21l4.711,3.496l33.261,24.714
				c7.518,8.391,11.135,19.571,9.966,30.777L162.175,232.968z"/>
			<path fill="#038B1B" d="M96.841,143.57c-3.101-1.307-5.979-3.139-8.488-5.559c-2.704-2.605-4.245-7.03-2.127-10.132
				c2.117-3.103,8.377-1.935,8.12,1.81c5.538-1.684,3.727-11.76,9.09-13.939c3.599-1.458,7.673,3.589,5.483,6.799
				c0.904-4.113,6.16-6.584,9.903-4.654c3.742,1.93,4.781,7.643,1.955,10.765c3.164-1.054,6.493-2.121,9.776-1.532
				c3.284,0.589,6.417,3.455,6.069,6.772c-0.275,2.603-2.485,4.55-4.698,5.952C122.015,146.135,107.999,148.27,96.841,143.57z"/>
			<path fill="#038B1B" d="M162.175,232.968c-0.05,0.459-0.108,0.915-0.173,1.377c-2.538,18.2-17.846,31.771-35.976,33.032
				c-0.185-1.749,0.567-3.773,2.531-6.113c14.896-17.733,4.966-53.91,5.32-73.061c0.355-19.153-22.94-42.088-22.94-42.088
				l4.711-5.028l33.261,24.714c7.518,8.391,11.135,19.571,9.966,30.777L162.175,232.968z"/>
			<path fill="#FFA506" d="M112.642,147.489c-5.876,0-11.552-1.213-11.91-1.289c-0.674-0.147-1.104-0.814-0.957-1.487
				c0.147-0.676,0.813-1.104,1.489-0.958c0.126,0.026,12.733,2.712,19.142,0.065c0.637-0.265,1.37,0.039,1.633,0.68
				c0.264,0.637-0.04,1.369-0.679,1.632C118.899,147.151,115.742,147.489,112.642,147.489z"/>
		</g>
		<g>
			<path fill="#F1F2F2" d="M109.049,225.251H85.282v-5.146l10.947-11.509c2.698-3.072,4.047-5.513,4.047-7.322
				c0-1.465-0.32-2.58-0.959-3.345c-0.64-0.764-1.567-1.146-2.784-1.146c-1.201,0-2.175,0.512-2.924,1.532
				c-0.749,1.021-1.123,2.297-1.123,3.825h-7.906c0-2.09,0.522-4.02,1.567-5.79c1.045-1.77,2.495-3.153,4.351-4.152
				c1.856-0.997,3.93-1.497,6.222-1.497c3.681,0,6.515,0.851,8.503,2.55c1.988,1.7,2.982,4.141,2.982,7.322
				c0,1.341-0.25,2.647-0.749,3.918c-0.5,1.271-1.275,2.604-2.328,4c-1.053,1.396-2.749,3.264-5.088,5.603l-4.397,5.076h13.404
				V225.251z"/>
			<path fill="#F1F2F2" d="M113.493,208.614l2.082-17.423h19.907v6.129h-13.498l-0.772,6.767c0.562-0.329,1.298-0.619,2.211-0.87
				c0.912-0.25,1.805-0.376,2.678-0.376c3.384,0,5.984,1.003,7.801,3.006c1.816,2.005,2.725,4.815,2.725,8.434
				c0,2.184-0.487,4.16-1.462,5.93c-0.975,1.771-2.343,3.131-4.105,4.082s-3.844,1.427-6.246,1.427c-2.137,0-4.141-0.44-6.012-1.32
				c-1.872-0.88-3.337-2.088-4.398-3.623s-1.583-3.269-1.567-5.2h7.906c0.078,1.245,0.476,2.233,1.193,2.965
				s1.661,1.097,2.831,1.097c2.651,0,3.977-1.961,3.977-5.883c0-3.626-1.623-5.438-4.866-5.438c-1.84,0-3.213,0.591-4.117,1.773
				L113.493,208.614z"/>
		</g>
	</g>
	<g>
		<path fill="#FFA506" d="M174.053,178.576l-1.389,2.565c-0.646,1.197-1.854,2.01-3.454,2.442c-1.544,0.418-3.456,0.481-5.583,0.199
			c-1.422-0.188-2.943-0.53-4.513-1.027c-1.556-0.487-3.164-1.127-4.778-1.914c-0.479-0.231-0.958-0.479-1.438-0.738
			c-0.547-0.295-1.082-0.601-1.6-0.916c-1.491-0.902-2.861-1.873-4.084-2.883c-1.193-0.981-2.249-1.998-3.144-3.018
			c-1.492-1.7-2.539-3.417-3.042-5.004c-0.487-1.545-0.46-2.968,0.177-4.146l1.387-2.567c0.61-1.126,1.713-1.91,3.175-2.358
			c0.256-0.078,0.522-0.148,0.799-0.205l5.016,2.712c2.921,0.56,6.166,1.719,9.386,3.459c3.223,1.742,5.966,3.82,8.035,5.957
			l5.018,2.713c0.092,0.232,0.172,0.463,0.24,0.691C174.714,176.041,174.674,177.425,174.053,178.576z"/>
		<path fill="#F7C437" d="M165.016,181.215l-1.389,2.568c-1.422-0.188-2.943-0.53-4.513-1.027l1.388-2.566L165.016,181.215z"/>
		<path fill="#F7C437" d="M155.726,178.275l-1.389,2.566c-0.479-0.231-0.958-0.479-1.438-0.738c-0.547-0.295-1.082-0.601-1.6-0.916
			l1.388-2.566L155.726,178.275z"/>
		<path fill="#F7C437" d="M148.602,173.737l-1.387,2.567c-1.193-0.981-2.249-1.998-3.144-3.018l2.113-3.913L148.602,173.737z"/>
		<path fill="#F7C437" d="M142.416,165.716l-1.388,2.567c-0.487-1.545-0.46-2.968,0.177-4.146l1.387-2.567L142.416,165.716z"/>
		<path fill="#F7C437" d="M174.053,178.576l-1.389,2.565c-0.646,1.197-1.854,2.01-3.454,2.442l1.388-2.567L174.053,178.576z"/>
		<path fill="#F7C437" d="M174.053,178.576c-0.648,1.198-1.854,2.006-3.454,2.44c-1.544,0.415-3.455,0.48-5.583,0.198
			c-1.424-0.19-2.942-0.533-4.514-1.025c-1.556-0.491-3.161-1.13-4.777-1.914c-0.479-0.234-0.957-0.481-1.438-0.74
			c-0.546-0.296-1.081-0.599-1.6-0.914c-1.492-0.903-2.86-1.875-4.085-2.884c-1.194-0.982-2.25-1.998-3.143-3.021h-0.001
			c-1.491-1.7-2.538-3.415-3.041-5.001l0,0c-0.488-1.544-0.459-2.97,0.176-4.146c0.61-1.126,1.713-1.91,3.175-2.358
			c0.256-0.078,0.522-0.148,0.799-0.205c1.302-0.272,2.831-0.318,4.506-0.141c1.393,0.146,2.889,0.446,4.44,0.899
			c1.685,0.491,3.439,1.16,5.2,2.006c0.548,0.263,1.096,0.542,1.644,0.84c0.479,0.258,0.948,0.523,1.405,0.798
			c1.596,0.949,3.052,1.979,4.345,3.052c1.208,0.998,2.275,2.033,3.173,3.074c1.264,1.459,2.198,2.926,2.74,4.312
			c0.092,0.232,0.172,0.463,0.24,0.691C174.714,176.041,174.674,177.425,174.053,178.576z"/>
		<g>
			<path fill="#FFFFFF" d="M157.239,168.271c-1.16-0.604-2.035-0.528-2.299-0.023c-0.108,0.21,0.024,0.645,0.572,0.929
				c1.614,0.841,2.725-2.211,6.408-0.291c2.445,1.271,2.775,2.781,2.329,3.641c-0.044,0.085-0.106,0.165-0.163,0.236l1.004,0.521
				l-0.241,0.463l-1.239-0.645c-0.45,0.213-1.06,0.235-1.589,0.179l1.166,0.71l-0.657,1.261l-3.951-2.056l0.7-1.343
				c1.317,0.685,1.851,0.194,2.04-0.091c0.131-0.254,0.194-0.679-0.465-1.022c-1.223-0.638-2.146,2.402-6.144,0.322
				c-2.32-1.209-2.845-2.766-2.476-3.473c0.056-0.107,0.128-0.208,0.216-0.301l-1.16-0.601l0.241-0.462l1.395,0.726
				c0.408-0.173,0.95-0.221,1.691-0.036l-1.279-0.758l0.646-1.24l3.934,2.048L157.239,168.271z"/>
		</g>
	</g>
	<g>
		<path fill="#FFA506" d="M172.585,138.845l0.771,2.817c0.36,1.312,0.048,2.732-0.81,4.149c-0.829,1.368-2.166,2.736-3.899,4.002
			c-1.158,0.849-2.493,1.649-3.97,2.377c-1.464,0.722-3.066,1.37-4.774,1.918c-0.508,0.163-1.025,0.315-1.551,0.46
			c-0.601,0.165-1.197,0.312-1.79,0.443c-1.702,0.378-3.363,0.623-4.944,0.739c-1.542,0.116-3.006,0.109-4.36-0.011
			c-2.252-0.197-4.194-0.713-5.655-1.513c-1.421-0.778-2.383-1.826-2.738-3.119l-0.771-2.815c-0.338-1.234-0.083-2.564,0.663-3.898
			c0.132-0.233,0.277-0.468,0.437-0.7l5.502-1.506c2.497-1.612,5.642-3.019,9.173-3.985c3.532-0.967,6.954-1.361,9.925-1.247
			l5.5-1.508c0.227,0.107,0.445,0.218,0.652,0.335C171.312,136.557,172.24,137.584,172.585,138.845z"/>
		<path fill="#F7C437" d="M167.878,146.999l0.77,2.814c-1.158,0.849-2.493,1.649-3.97,2.377l-0.772-2.815L167.878,146.999z"/>
		<path fill="#F7C437" d="M159.13,151.293l0.773,2.815c-0.508,0.163-1.025,0.315-1.551,0.46c-0.601,0.165-1.197,0.312-1.79,0.443
			l-0.771-2.816L159.13,151.293z"/>
		<path fill="#F7C437" d="M150.846,152.936l0.772,2.815c-1.542,0.116-3.006,0.109-4.36-0.011l-1.175-4.286L150.846,152.936z"/>
		<path fill="#F7C437" d="M140.833,151.413l0.771,2.814c-1.421-0.778-2.383-1.826-2.738-3.119l-0.771-2.815L140.833,151.413z"/>
		<path fill="#F7C437" d="M172.585,138.845l0.771,2.817c0.36,1.312,0.048,2.732-0.81,4.149l-0.77-2.816L172.585,138.845z"/>
		<path fill="#F7C437" d="M172.585,138.845c0.36,1.313,0.047,2.733-0.808,4.15c-0.83,1.367-2.167,2.736-3.899,4.004
			c-1.158,0.846-2.493,1.647-3.973,2.376c-1.462,0.721-3.064,1.369-4.775,1.918c-0.507,0.161-1.024,0.315-1.549,0.459
			c-0.601,0.164-1.199,0.312-1.79,0.443c-1.703,0.38-3.363,0.622-4.945,0.74c-1.542,0.117-3.007,0.109-4.359-0.01h-0.001
			c-2.252-0.198-4.194-0.714-5.653-1.513h-0.001c-1.419-0.78-2.384-1.828-2.738-3.12c-0.338-1.234-0.083-2.564,0.663-3.898
			c0.132-0.233,0.277-0.468,0.437-0.7c0.754-1.097,1.827-2.187,3.161-3.217c1.107-0.854,2.395-1.672,3.83-2.417
			c1.559-0.81,3.29-1.536,5.147-2.144c0.576-0.188,1.166-0.366,1.766-0.53c0.527-0.146,1.048-0.274,1.567-0.393
			c1.81-0.415,3.575-0.678,5.251-0.797c1.563-0.114,3.048-0.103,4.417,0.029c1.922,0.183,3.612,0.595,4.961,1.222
			c0.227,0.107,0.445,0.218,0.652,0.335C171.312,136.557,172.24,137.584,172.585,138.845z"/>
		<g>
			<path fill="#FFFFFF" d="M153.311,143.016c-1.255,0.364-1.836,1.025-1.678,1.571c0.066,0.227,0.462,0.451,1.057,0.276
				c1.747-0.507,0.442-3.48,4.429-4.64c2.648-0.771,3.93,0.094,4.201,1.022c0.027,0.093,0.038,0.192,0.045,0.283l1.087-0.315
				l0.145,0.499l-1.343,0.391c-0.175,0.466-0.602,0.903-1.022,1.229l1.333-0.295l0.396,1.366l-4.275,1.243l-0.422-1.451
				c1.426-0.415,1.472-1.14,1.411-1.479c-0.08-0.273-0.329-0.623-1.042-0.416c-1.324,0.384,0.108,3.219-4.22,4.478
				c-2.51,0.73-3.964-0.032-4.188-0.797c-0.035-0.119-0.051-0.239-0.051-0.367l-1.256,0.366l-0.145-0.499l1.511-0.44
				c0.175-0.406,0.535-0.816,1.197-1.194l-1.448,0.336l-0.391-1.343l4.261-1.238L153.311,143.016z"/>
		</g>
	</g>
</g>
</svg>
