<?xml version="1.0" encoding="utf-8"?>
<!-- Generator: Adobe Illustrator 16.0.0, SVG Export Plug-In . SVG Version: 6.00 Build 0)  -->
<!DOCTYPE svg PUBLIC "-//W3C//DTD SVG 1.1//EN" "http://www.w3.org/Graphics/SVG/1.1/DTD/svg11.dtd">
<svg version="1.1" id="Layer_1" xmlns="http://www.w3.org/2000/svg" xmlns:xlink="http://www.w3.org/1999/xlink" x="0px" y="0px"
	 width="200px" height="200px" viewBox="0 0 200 200" enable-background="new 0 0 200 200" xml:space="preserve">
<g>
	<circle id="circle_7_" fill="#FDB913" cx="97.834" cy="100.383" r="87.133"/>
	<g>
		<g>
			<g>
				<path fill="#158CAF" d="M44.7,37.061h-1.8v130.516h105.749V37.061h-1.576c-1.248,0-2.261-0.706-2.282-1.584H46.98
					C46.959,36.355,45.947,37.061,44.7,37.061z"/>
			</g>
			<g>
				<path fill="#213763" d="M42.9,179.149c0,0.891,0.721,1.613,1.611,1.613h102.526c0.892,0,1.611-0.723,1.611-1.613v-11.572H42.9
					V179.149z"/>
			</g>
			<g>
				<path fill="#213763" d="M147.073,33.837h1.576v-12.22c0-0.891-0.72-1.612-1.611-1.612H44.511c-0.89,0-1.611,0.721-1.611,1.612
					v12.22h1.8c1.261,0,2.284,0.722,2.284,1.612c0,0.01-0.003,0.02-0.003,0.027h97.81c0-0.007-0.001-0.018-0.001-0.027
					C144.79,34.56,145.809,33.837,147.073,33.837z"/>
			</g>
		</g>
		<g>
			<g>
				<path fill="#8B0304" d="M97.757,171.326c-0.728,0-1.318,0.346-1.318,0.77v4.148c0,0.426,0.59,0.77,1.318,0.77
					s1.324-0.344,1.324-0.77v-4.148C99.081,171.672,98.485,171.326,97.757,171.326z"/>
			</g>
			<g>
				<path fill="#8B0304" d="M65.896,171.326c-0.729,0-1.322,0.346-1.322,0.77v4.148c0,0.426,0.593,0.77,1.322,0.77
					c0.724,0,1.319-0.344,1.319-0.77v-4.148C67.216,171.672,66.621,171.326,65.896,171.326z"/>
			</g>
			<g>
				<path fill="#8B0304" d="M81.929,171.326c-0.729,0-1.317,0.346-1.317,0.77v4.148c0,0.426,0.588,0.77,1.317,0.77
					c0.729,0,1.321-0.344,1.321-0.77v-4.148C83.25,171.672,82.659,171.326,81.929,171.326z"/>
			</g>
			<g>
				<path fill="#8B0304" d="M129.532,171.326c-0.728,0-1.32,0.346-1.32,0.77v4.148c0,0.426,0.593,0.77,1.32,0.77
					c0.73,0,1.32-0.344,1.32-0.77v-4.148C130.852,171.672,130.262,171.326,129.532,171.326z"/>
			</g>
			<g>
				<path fill="#8B0304" d="M113.702,171.326c-0.728,0-1.32,0.346-1.32,0.77v4.148c0,0.426,0.593,0.77,1.32,0.77
					c0.731,0,1.321-0.344,1.321-0.77v-4.148C115.023,171.672,114.433,171.326,113.702,171.326z"/>
			</g>
		</g>
		<g>
			<g>
				<path fill="#8B0304" d="M100.73,24.784c-0.758,0-1.372,0.357-1.372,0.801v4.312c0,0.442,0.614,0.801,1.372,0.801
					s1.374-0.358,1.374-0.801v-4.312C102.104,25.141,101.488,24.784,100.73,24.784z"/>
			</g>
			<g>
				<path fill="#8B0304" d="M67.594,24.784c-0.758,0-1.373,0.357-1.373,0.801v4.312c0,0.442,0.615,0.801,1.373,0.801
					c0.759,0,1.374-0.358,1.374-0.801v-4.312C68.967,25.141,68.353,24.784,67.594,24.784z"/>
			</g>
			<g>
				<path fill="#8B0304" d="M84.269,24.784c-0.759,0-1.373,0.357-1.373,0.801v4.312c0,0.442,0.614,0.801,1.373,0.801
					c0.757,0,1.374-0.358,1.374-0.801v-4.312C85.643,25.141,85.026,24.784,84.269,24.784z"/>
			</g>
			<g>
				<path fill="#8B0304" d="M133.776,24.784c-0.759,0-1.373,0.357-1.373,0.801v4.312c0,0.442,0.614,0.801,1.373,0.801
					c0.758,0,1.372-0.358,1.372-0.801v-4.312C135.148,25.141,134.534,24.784,133.776,24.784z"/>
			</g>
			<g>
				<path fill="#8B0304" d="M117.314,24.784c-0.758,0-1.374,0.357-1.374,0.801v4.312c0,0.442,0.616,0.801,1.374,0.801
					c0.757,0,1.372-0.358,1.372-0.801v-4.312C118.686,25.141,118.071,24.784,117.314,24.784z"/>
			</g>
		</g>
		<g>
			<g>
				<circle fill="#FFFFFF" cx="118.669" cy="119.229" r="14.36"/>
				<g>
					<g>
						<defs>
							<circle id="SVGID_3_" cx="118.598" cy="119.073" r="13.881"/>
						</defs>
						<clipPath id="SVGID_2_">
							<use xlink:href="#SVGID_3_"  overflow="visible"/>
						</clipPath>
						<g clip-path="url(#SVGID_2_)">
							<g>
								<g>
									<g>
										<circle fill="#FFCA28" cx="118.681" cy="119.098" r="13.882"/>
									</g>
								</g>
								<g>
									<ellipse fill="#D1D3D4" cx="116.366" cy="127.35" rx="0.502" ry="0.634"/>
									<ellipse fill="#D1D3D4" cx="122.569" cy="126.04" rx="0.488" ry="0.623"/>
									<path fill="#FFF200" d="M120.637,123.908c0.314,0.248,0.515,0.632,0.515,1.062c0,0.744-0.604,1.349-1.35,1.349
										c-0.744,0-1.347-0.604-1.347-1.349c0-0.115,0.014-0.227,0.043-0.334c0.02-0.087,0.048-0.171,0.09-0.248
										c0.213-0.452,0.677-0.768,1.214-0.768c0.246,0,0.476,0.065,0.676,0.181C120.535,123.83,120.587,123.868,120.637,123.908z"
										/>
									<path fill="#F1F2F2" d="M127.33,122.642c0.012,0,0.017,0,0.017,0h0.019c-0.014,0.686,0.068,1.374,0.45,1.827
										c0.048,0.06,0.102,0.107,0.158,0.151l-0.049,0.069c-1.095,0.28-2.298-0.185-2.351,0.397
										c-0.046,0.493,0.163,1.009,0.165,1.506c0,0.002,0,0.002,0,0.004c0,0.012,0,0.016,0,0.016l-0.062,0.013
										c-0.147-0.038-0.304-0.061-0.436-0.086c-0.714-0.133-1.3-0.342-1.924-0.714v-0.002c-0.007-0.018-0.013-0.04-0.017-0.058
										c-0.159-0.831-0.028-1.681-0.207-2.521c-0.071-0.324-0.202-0.639-0.251-0.961h0.002c0.993-0.529,1.888-1.197,2.604-2.034
										l0.045-0.008c0.051,0.324,0.134,0.64,0.252,0.935C126.047,121.938,126.578,122.369,127.33,122.642z"/>
									<path fill="#61D1FF" d="M127.482,114.796c0.042,0.744,0.077,1.474,0.099,2.201c-0.125-0.185-0.284-0.33-0.476-0.392
										c0.112-0.672,0.189-1.426,0.304-2.105l0.057-0.002C127.472,114.597,127.475,114.698,127.482,114.796z"/>
									<path fill="#F1F2F2" d="M112.097,112.151v-0.002c0.456-0.846,1.553-1.665,2.233-0.687c0.15,0.217,0.244,0.468,0.342,0.71
										c0.038,0.094,0.117,0.397,0.244,0.422c0.129,0.023,0.212-0.237,0.249-0.32c0.278-0.641,0.572-1.283,1.257-1.569
										c1.744-0.733,3.362-0.073,4.225,1.56c0.43,0.813,0.507,1.7,0.544,2.608c0.005,0.111,0.011,0.226,0.015,0.337l0.012,0.014
										c0.661-0.583,1.504-0.961,2.383-1.034c0.188-0.02,0.633,0.071,0.877,0.012c0.733-0.029,2.699,0.399,2.932,0.299
										c-0.114,0.68-0.191,1.434-0.304,2.105c-0.159-0.052-0.338-0.046-0.54,0.042c-0.753,0.334-1.035,1.354-1.11,2.098
										c-0.05,0.489-0.043,1.001,0.04,1.496l-0.045,0.008c-0.717,0.837-1.611,1.505-2.604,2.034h-0.002
										c-0.458,0.243-0.934,0.453-1.422,0.637c-0.159,0.06-0.319,0.117-0.48,0.171c-0.18,0.06-0.362,0.117-0.546,0.171
										c-0.98,0.286-2.122,0.368-3.275,0.255c-0.346-0.032-0.693-0.084-1.036-0.151c-0.044-0.008-0.085-0.018-0.128-0.026
										c-0.731-0.154-1.445-0.388-2.106-0.697c-0.666-0.312-1.275-0.704-1.79-1.168l0.009-0.023
										c-0.979-0.33-1.837-0.959-2.484-1.953c-0.444-0.684-0.895-1.917-0.659-2.765c0.17-0.606,0.85-1.147,1.484-1.131
										c0.545,0.016,1.091,0.137,1.631,0.2l0.013-0.107c-0.302-1.19-0.412-2.378,0.042-3.539
										C112.094,112.153,112.094,112.153,112.097,112.151z M119.75,114.354c0-0.969-0.645-1.754-1.441-1.754
										s-1.441,0.785-1.441,1.754s0.645,1.752,1.441,1.752S119.75,115.323,119.75,114.354z M114.348,114.17
										c0-0.732-0.467-1.325-1.045-1.325c-0.575,0-1.043,0.593-1.043,1.325c0,0.731,0.468,1.328,1.043,1.328
										C113.881,115.498,114.348,114.901,114.348,114.17z"/>
									<path fill="#1B6FB3" d="M126.24,127.7c0.051,1.563,0.354,3.168,0.125,4.728c-0.119,0.817-0.181,1.931-0.301,2.748
										l-4.053,0.195v-0.021c0.682-0.405,1.615-0.787,2.12-1.422c0.619-0.777,0.214-1.893,0.086-2.766
										c-0.084-0.553-0.11-1.104-0.149-1.657c-0.022-0.359-0.032-0.845-0.328-1.102c-0.319-0.282-0.837-0.171-1.208-0.085
										c-0.654,0.154-1.285,0.409-1.925,0.626c-0.632,0.217-1.276,0.412-1.94,0.493c-0.559,0.071-1.197,0.026-1.76-0.012h-0.001
										c-0.074-0.332-0.248-0.639-0.517-0.815c-0.361-0.238-0.734-0.219-1.055-0.04c0.041-0.175,0.077-0.352,0.103-0.535h0.002
										c0.19,0.042,0.377,0.209,0.554,0.287c0.091,0.037,0.171,0.095,0.259,0.119c0.066,0.018,0.185,0,0.245,0.033
										c0.187-0.045,0.294-0.219,0.424-0.348c0.149-0.151,0.325-0.274,0.468-0.434c0.179-0.207,0.034-0.43-0.1-0.645
										c0.723,0.107,1.458-0.089,2.154-0.274c0.579-0.152,1.492-0.248,1.934-0.691c-0.017,0.104-0.036,0.2-0.051,0.3
										c-0.048,0.305,0.338,0.384,0.546,0.509c0.244,0.149,0.457,0.353,0.729,0.456c0.2-0.299,0.577-0.485,0.834-0.734
										c0.14-0.135,0.104-0.221,0.045-0.401c-0.045-0.133-0.124-0.253-0.161-0.388c0.624,0.372,1.21,0.581,1.924,0.714
										c0.132,0.025,0.288,0.048,0.436,0.086c0.147,0.041,0.286,0.101,0.382,0.208C126.262,127.054,126.231,127.422,126.24,127.7z
										"/>
									<path fill="#414042" d="M124.583,114.155c-0.026,0.022-0.062,0.038-0.105,0.046c-0.244,0.06-0.688-0.031-0.877-0.012
										c-0.879,0.073-1.722,0.451-2.383,1.034l-0.012-0.014c-0.004-0.111-0.01-0.226-0.015-0.337
										c-0.037-0.908-0.114-1.795-0.544-2.608c-0.862-1.633-2.48-2.293-4.225-1.56c-0.685,0.286-0.979,0.929-1.257,1.569
										c-0.037,0.083-0.12,0.344-0.249,0.32c-0.127-0.024-0.206-0.328-0.244-0.422c-0.098-0.242-0.191-0.493-0.342-0.71
										c-0.681-0.979-1.777-0.159-2.233,0.687c0.015-0.044,0.032-0.086,0.051-0.13c0.241-0.566,0.606-1.052,1.046-1.46
										c0.464-0.429,1.016-0.768,1.606-1.012c0.233-0.098,0.476-0.179,0.718-0.247c0.771-0.21,1.413-0.246,2.199-0.156
										l0.014-0.013c0.008-0.702-0.066-1.253-0.069-1.952c-0.006-0.615-0.036-1.08,0.034-1.878
										c0.918,0.903,2.569,1.683,3.703,2.699c0.609,0.543,1.207,1.159,1.691,1.815c0.446,0.599,0.752,1.299,0.975,2.009
										c0.228,0.728,0.443,1.564,0.521,2.328C124.584,114.155,124.584,114.155,124.583,114.155z M120.518,109.732
										c0.04-0.179-0.16-0.534-0.244-0.689c-0.45-0.825-1.166-1.45-1.786-2.093c-0.124-0.129-0.234-0.352-0.425-0.39
										c-0.174,0.287-0.102,1.048-0.112,1.383c-0.016,0.534,0.013,1.069,0.028,1.603L120.518,109.732z"/>
									<path fill="#085B9E" d="M124.217,131.163c0.128,0.873,0.533,1.988-0.086,2.766c-0.505,0.635-1.438,1.017-2.12,1.422v0.021
										l-4.206,0.206l-0.001-0.027c-0.268,0-1.048-0.459-1.188-0.517c-0.148-0.064-0.271-0.094-0.396-0.201
										c-0.482-0.399,0.096-1.124-0.269-1.7c0.75-0.613,1.148-1.49,0.735-2.584c0.092-0.101,0.161-0.217,0.203-0.355
										c0.069-0.234,0.073-0.509,0.016-0.766h0.001c0.562,0.038,1.201,0.083,1.76,0.012c0.664-0.081,1.309-0.276,1.94-0.493
										c0.64-0.217,1.271-0.472,1.925-0.626c0.371-0.086,0.889-0.197,1.208,0.085c0.296,0.257,0.306,0.742,0.328,1.102
										C124.107,130.059,124.133,130.61,124.217,131.163z"/>
									<path fill="#1B6FB3" d="M123.318,125.823v0.002c0.037,0.135,0.116,0.255,0.161,0.388c0.059,0.181,0.095,0.267-0.045,0.401
										c-0.257,0.249-0.634,0.436-0.834,0.734c-0.271-0.104-0.484-0.307-0.729-0.456c-0.208-0.125-0.594-0.204-0.546-0.509
										c0.015-0.1,0.034-0.196,0.051-0.3c0.182-1.021,0.435-2.166,0.049-3.156c0,0-0.001-0.006-0.004-0.008
										c0.488-0.184,0.964-0.394,1.422-0.637c0.049,0.322,0.18,0.637,0.251,0.961c0.179,0.841,0.048,1.69,0.207,2.521
										C123.305,125.783,123.311,125.806,123.318,125.823z M123.057,126.04c0-0.344-0.22-0.623-0.488-0.623
										c-0.271,0-0.49,0.279-0.49,0.623c0,0.342,0.219,0.622,0.49,0.622C122.837,126.662,123.057,126.382,123.057,126.04z"/>
									<path fill="#F1F2F2" d="M121.425,122.928c0.386,0.99,0.133,2.136-0.049,3.156c-0.441,0.443-1.354,0.539-1.934,0.691
										c-0.696,0.186-1.432,0.382-2.154,0.274c-0.047-0.075-0.093-0.148-0.121-0.221c-0.311-0.791-0.411-1.646-0.686-2.45
										c-0.093-0.278-0.256-0.877-0.526-1.04c0.043,0.009,0.084,0.019,0.128,0.026c-0.071,0.088,0.852,0.766,0.955,0.827
										c0.396,0.232,0.987,0.501,1.46,0.443c-0.029,0.107-0.043,0.219-0.043,0.334c0,0.744,0.603,1.349,1.347,1.349
										c0.746,0,1.35-0.604,1.35-1.349c0-0.43-0.2-0.813-0.515-1.062c0.088-0.094,0.298-0.245,0.438-0.36
										c0.135-0.111,0.388-0.413,0.344-0.614L121.425,122.928z"/>
									<path fill="#ED1C24" d="M121.421,122.92c0.003,0.002,0.004,0.008,0.004,0.008l-0.007,0.006
										c0.044,0.201-0.209,0.503-0.344,0.614c-0.14,0.115-0.35,0.267-0.438,0.36c-0.05-0.04-0.103-0.078-0.159-0.107v-0.002
										c-0.023-0.063,0.173-0.362,0.227-0.43c0.07-0.096,0.153-0.191,0.236-0.278C121.102,123.037,121.262,122.979,121.421,122.92
										z"/>
									<path fill="#F1F2F2" d="M120.941,123.091c-0.083,0.087-0.166,0.183-0.236,0.278c-0.054,0.067-0.25,0.366-0.227,0.43v0.002
										c-0.2-0.115-0.43-0.181-0.676-0.181c-0.537,0-1.001,0.315-1.214,0.768c-0.271,0-0.572-0.184-0.793-0.332
										c-0.196-0.136-0.525-0.428-0.676-0.539c1.153,0.113,2.295,0.031,3.275-0.255
										C120.579,123.208,120.761,123.15,120.941,123.091z"/>
									<path fill="#FFE3E3" d="M120.274,109.043c0.084,0.155,0.284,0.511,0.244,0.689l-2.539-0.187
										c-0.016-0.533-0.044-1.068-0.028-1.603c0.011-0.335-0.062-1.096,0.112-1.383c0.19,0.038,0.301,0.261,0.425,0.39
										C119.108,107.593,119.824,108.218,120.274,109.043z"/>
									<path fill="#FFFFFF" d="M118.309,112.601c0.797,0,1.441,0.785,1.441,1.754s-0.645,1.752-1.441,1.752
										s-1.441-0.783-1.441-1.752S117.512,112.601,118.309,112.601z M119.646,114.493c0-0.775-0.458-1.401-1.02-1.401
										c-0.563,0-1.019,0.626-1.019,1.401c0,0.774,0.455,1.4,1.019,1.4C119.188,115.894,119.646,115.268,119.646,114.493z"/>
									<path fill="#231F20" d="M118.626,113.092c0.562,0,1.02,0.626,1.02,1.401c0,0.774-0.458,1.4-1.02,1.4
										c-0.563,0-1.019-0.626-1.019-1.4C117.608,113.718,118.063,113.092,118.626,113.092z M118.865,113.923
										c0-0.29-0.172-0.523-0.383-0.523c-0.214,0-0.386,0.233-0.386,0.523s0.172,0.523,0.386,0.523
										C118.693,114.446,118.865,114.213,118.865,113.923z"/>
									<ellipse fill="#FFFFFF" cx="118.482" cy="113.923" rx="0.383" ry="0.523"/>
									<path fill="#ED1C24" d="M118.588,124.388c-0.042,0.077-0.07,0.161-0.09,0.248c-0.473,0.058-1.063-0.211-1.46-0.443
										c-0.104-0.062-1.026-0.739-0.955-0.827c0.343,0.067,0.69,0.119,1.036,0.151c0.15,0.111,0.479,0.403,0.676,0.539
										C118.016,124.204,118.317,124.388,118.588,124.388z"/>
									<path fill="#1B6FB3" d="M117.804,135.55l0.001,0.027l-5.088,0.245l-0.002-0.052c-0.125-0.113-0.005-1.714,0.115-1.792
										l0.004-0.008c0.629,0.249,1.574-0.01,2.202-0.288c0.336-0.149,0.646-0.334,0.915-0.551c0.364,0.576-0.214,1.301,0.269,1.7
										c0.126,0.107,0.248,0.137,0.396,0.201C116.756,135.091,117.537,135.55,117.804,135.55z"/>
									<path fill="#1B6FB3" d="M113.866,123.068c-0.151-0.206-0.24-0.411-0.018-0.421l0.001-0.006
										c0.661,0.31,1.375,0.543,2.106,0.697c0.271,0.163,0.434,0.762,0.526,1.04c0.274,0.804,0.375,1.659,0.686,2.45
										c0.028,0.072,0.074,0.146,0.121,0.221c0.134,0.215,0.278,0.438,0.1,0.645c-0.143,0.159-0.318,0.282-0.468,0.434
										c-0.13,0.129-0.237,0.303-0.424,0.348c-0.061-0.033-0.179-0.016-0.245-0.033c-0.088-0.024-0.168-0.082-0.259-0.119
										c-0.177-0.078-0.363-0.245-0.554-0.287h-0.002c0.093-0.62,0.086-1.276-0.17-1.841c-0.06-0.134-0.135-0.259-0.225-0.372
										l0.009-0.006c-0.418-0.73-0.229-1.619-0.823-2.315C114.179,123.444,113.999,123.256,113.866,123.068z M116.868,127.351
										c0-0.353-0.225-0.635-0.502-0.635c-0.279,0-0.504,0.282-0.504,0.635c0,0.35,0.225,0.634,0.504,0.634
										C116.643,127.984,116.868,127.7,116.868,127.351z"/>
									<path fill="#F1F2F2" d="M115.952,133.132c-0.269,0.217-0.579,0.401-0.915,0.551c-0.628,0.278-1.573,0.537-2.202,0.288
										c-0.076-0.029-0.146-0.063-0.212-0.113c-0.878,0.213-1.763,0.461-2.656,0.612c-1.336,0.223-2.675-0.185-3.451-1.351
										c-0.466-0.701-0.654-1.478-0.654-2.269c0-0.817,0.205-1.65,0.504-2.424c0.919-2.351,3.528-4.434,5.908-5.129
										c0.505-0.149,1.073-0.191,1.593-0.229c0.133,0.188,0.313,0.376,0.362,0.434c0.595,0.696,0.405,1.585,0.823,2.315
										l-0.009,0.006c0.09,0.113,0.165,0.238,0.225,0.372c0.256,0.564,0.263,1.221,0.17,1.841
										c-0.025,0.184-0.062,0.36-0.103,0.535c0.32-0.179,0.693-0.198,1.055,0.04c0.269,0.177,0.442,0.483,0.517,0.815
										c0.058,0.257,0.054,0.531-0.016,0.766c-0.042,0.139-0.111,0.255-0.203,0.355
										C117.1,131.642,116.702,132.519,115.952,133.132z"/>
									<path fill="#414042" d="M114.779,109.496l0.021,0.052c-0.591,0.244-1.143,0.583-1.606,1.012l-0.029-0.033
										c-0.05-0.227-0.174-0.412-0.267-0.62c-0.219-0.494-0.38-1.005-0.567-1.508c-0.064-0.169-0.096-0.497-0.282-0.579
										c-0.272-0.121-0.263,0.272-0.287,0.432h-0.007c-0.002-0.407-0.042-0.856,0.094-1.238c0.102,0.039,0.184,0.188,0.258,0.266
										c0.6,0.645,1.361,1.228,2.097,1.709C114.431,109.136,114.614,109.281,114.779,109.496z"/>
									<path fill="#FFFFFF" d="M113.303,112.845c0.578,0,1.045,0.593,1.045,1.325c0,0.731-0.467,1.328-1.045,1.328
										c-0.575,0-1.043-0.597-1.043-1.328C112.26,113.438,112.728,112.845,113.303,112.845z M114.273,114.274
										c0-0.584-0.33-1.058-0.739-1.058c-0.407,0-0.737,0.474-0.737,1.058c0,0.587,0.33,1.061,0.737,1.061
										C113.943,115.335,114.273,114.861,114.273,114.274z"/>
									<path fill="#231F20" d="M113.534,113.217c0.409,0,0.739,0.474,0.739,1.058c0,0.587-0.33,1.061-0.739,1.061
										c-0.407,0-0.737-0.474-0.737-1.061C112.796,113.69,113.126,113.217,113.534,113.217z M113.708,113.846
										c0-0.221-0.125-0.396-0.28-0.396c-0.151,0-0.277,0.176-0.277,0.396c0,0.217,0.126,0.394,0.277,0.394
										C113.583,114.239,113.708,114.062,113.708,113.846z"/>
									<path fill="#FFFFFF" d="M113.428,113.449c0.155,0,0.28,0.176,0.28,0.396c0,0.217-0.125,0.394-0.28,0.394
										c-0.151,0-0.277-0.177-0.277-0.394C113.151,113.625,113.277,113.449,113.428,113.449z"/>
									<path fill="#FFE3E3" d="M113.165,110.526l0.029,0.033c-0.439,0.408-0.805,0.894-1.046,1.46
										c-0.019,0.044-0.036,0.086-0.051,0.13c-0.026-0.138-0.127-0.235-0.19-0.358c-0.516-1.002-0.17-2.318-0.152-3.395
										c0-0.048,0-0.096,0-0.146h0.007c0.024-0.159,0.015-0.553,0.287-0.432c0.187,0.082,0.218,0.41,0.282,0.579
										c0.188,0.503,0.349,1.014,0.567,1.508C112.991,110.114,113.115,110.3,113.165,110.526z"/>
									<path fill="none" stroke="#231F20" stroke-width="0.2065" stroke-linecap="round" stroke-miterlimit="10" d="
										M114.795,114.758c-0.531,0.545-1.077,0.988-1.842,1.062c-0.306,0.033-0.608,0.018-0.914-0.019
										c-0.54-0.063-1.086-0.185-1.631-0.2c-0.635-0.017-1.314,0.524-1.484,1.131c-0.235,0.848,0.215,2.081,0.659,2.765
										c0.647,0.994,1.505,1.623,2.484,1.953c0.729,0.246,1.524,0.332,2.35,0.284c1.092-0.063,2.272-0.355,3.274-0.831
										c0.781-0.37,1.506-0.933,2.076-1.617c0.541-0.652,0.834-1.438,1.007-2.278c0.039-0.195,0.074-0.393,0.108-0.589
										c0.002-0.008,0.002-0.015,0.004-0.021"/>
									
										<path fill="none" stroke="#231F20" stroke-width="0.2116" stroke-linecap="round" stroke-linejoin="round" stroke-miterlimit="10" d="
										M127.103,116.611c0-0.002,0-0.004,0.002-0.006c0.112-0.672,0.189-1.426,0.304-2.105c-0.232,0.101-2.198-0.328-2.932-0.299
										c-0.055,0-0.104,0.004-0.141,0.012"/>
									
										<path fill="none" stroke="#231F20" stroke-width="0.2116" stroke-linecap="round" stroke-linejoin="round" stroke-miterlimit="10" d="
										M122.845,122.283c0.993-0.529,1.888-1.197,2.604-2.034"/>
									
										<path fill="none" stroke="#231F20" stroke-width="0.2116" stroke-linecap="round" stroke-linejoin="round" stroke-miterlimit="10" d="
										M112.059,121.474c0.515,0.464,1.124,0.855,1.79,1.168c0.661,0.31,1.375,0.543,2.106,0.697
										c0.043,0.009,0.084,0.019,0.128,0.026c0.343,0.067,0.69,0.119,1.036,0.151c1.153,0.113,2.295,0.031,3.275-0.255
										c0.184-0.054,0.366-0.111,0.546-0.171c0.161-0.054,0.321-0.111,0.48-0.171c0.488-0.184,0.964-0.394,1.422-0.637"/>
									
										<path fill="none" stroke="#231F20" stroke-width="0.2116" stroke-linecap="round" stroke-linejoin="round" stroke-miterlimit="10" d="
										M112.097,112.149c0.015-0.044,0.032-0.086,0.051-0.13c0.241-0.566,0.606-1.052,1.046-1.46
										c0.464-0.429,1.016-0.768,1.606-1.012c0.233-0.098,0.476-0.179,0.718-0.247c0.771-0.21,1.413-0.246,2.199-0.156"/>
									
										<path fill="none" stroke="#231F20" stroke-width="0.2116" stroke-linecap="round" stroke-linejoin="round" stroke-miterlimit="10" d="
										M112.052,115.694c-0.302-1.19-0.412-2.378,0.042-3.539"/>
									
										<path fill="none" stroke="#231F20" stroke-width="0.2116" stroke-linecap="round" stroke-linejoin="round" stroke-miterlimit="10" d="
										M117.731,109.132c0.008-0.702-0.066-1.253-0.069-1.952c-0.006-0.615-0.036-1.08,0.034-1.878
										c0.918,0.903,2.569,1.683,3.703,2.699c0.609,0.543,1.207,1.159,1.691,1.815c0.446,0.599,0.752,1.299,0.975,2.009
										c0.228,0.728,0.443,1.564,0.521,2.328c0.002,0.012,0.002,0.024,0.006,0.036c0,0.014-0.006-0.004-0.01-0.034
										c-0.004-0.029-0.008-0.067-0.008-0.085"/>
									
										<path fill="none" stroke="#231F20" stroke-width="0.2116" stroke-linecap="round" stroke-linejoin="round" stroke-miterlimit="10" d="
										M117.979,109.546c-0.016-0.533-0.044-1.068-0.028-1.603c0.011-0.335-0.062-1.096,0.112-1.383
										c0.19,0.038,0.301,0.261,0.425,0.39c0.62,0.643,1.336,1.268,1.786,2.093c0.084,0.155,0.284,0.511,0.244,0.689
										L117.979,109.546z"/>
									
										<path fill="none" stroke="#231F20" stroke-width="0.2116" stroke-linecap="round" stroke-linejoin="round" stroke-miterlimit="10" d="
										M112.097,112.149c-0.026-0.138-0.127-0.235-0.19-0.358c-0.516-1.002-0.17-2.318-0.152-3.395c0-0.048,0-0.096,0-0.146
										c-0.002-0.407-0.042-0.856,0.094-1.238c0.102,0.039,0.184,0.188,0.258,0.266c0.6,0.645,1.361,1.228,2.097,1.709
										c0.229,0.148,0.411,0.294,0.576,0.509"/>
									
										<path fill="none" stroke="#231F20" stroke-width="0.2116" stroke-linecap="round" stroke-linejoin="round" stroke-miterlimit="10" d="
										M112.106,112.19c-0.001-0.014-0.005-0.027-0.009-0.039"/>
									
										<path fill="none" stroke="#231F20" stroke-width="0.2116" stroke-linecap="round" stroke-linejoin="round" stroke-miterlimit="10" d="
										M111.761,108.251c0.024-0.159,0.015-0.553,0.287-0.432c0.187,0.082,0.218,0.41,0.282,0.579
										c0.188,0.503,0.349,1.014,0.567,1.508c0.093,0.208,0.217,0.394,0.267,0.62"/>
									
										<path fill="none" stroke="#231F20" stroke-width="0.2116" stroke-linecap="round" stroke-linejoin="round" stroke-miterlimit="10" d="
										M112,112.352c0.027-0.063,0.059-0.131,0.094-0.196c0-0.002,0-0.002,0.003-0.004v-0.002
										c0.456-0.846,1.553-1.665,2.233-0.687c0.15,0.217,0.244,0.468,0.342,0.71c0.038,0.094,0.117,0.397,0.244,0.422
										c0.129,0.023,0.212-0.237,0.249-0.32c0.278-0.641,0.572-1.283,1.257-1.569c1.744-0.733,3.362-0.073,4.225,1.56
										c0.43,0.813,0.507,1.7,0.544,2.608c0.005,0.111,0.011,0.226,0.015,0.337"/>
									
										<path fill="none" stroke="#231F20" stroke-width="0.2116" stroke-linecap="round" stroke-linejoin="round" stroke-miterlimit="10" d="
										M121.206,115.235c0.004-0.006,0.009-0.008,0.012-0.012c0.661-0.583,1.504-0.961,2.383-1.034
										c0.188-0.02,0.633,0.071,0.877,0.012c0.043-0.008,0.079-0.023,0.105-0.046c0.002,0,0.002,0,0.004-0.002
										c0.002,0,0.002-0.002,0.006-0.002"/>
									<g>
										<path fill="#231F20" d="M121.312,116.53c0.018,0,0.021-0.016,0.013-0.02l0.011,0.011c-0.128,0.016-0.239,0.001-0.348,0
											c-0.062-0.001-0.108-0.011-0.167-0.011l-0.161-0.007c-0.115-0.005-0.223,0.006-0.334,0.006
											c-0.106,0.013-0.221-0.005-0.312,0.074c0.029-0.13,0.173-0.195,0.283-0.231c0.116-0.039,0.239-0.045,0.354-0.059
											c0.081,0.002,0.121,0.016,0.183,0.022c0.056,0.008,0.125,0.02,0.176,0.035c0.118,0.037,0.229,0.089,0.328,0.146
											l0.008,0.005l0.003,0.007C121.341,116.539,121.327,116.536,121.312,116.53z"/>
									</g>
									
										<ellipse fill="none" stroke="#231F20" stroke-width="0.2282" stroke-linecap="round" stroke-linejoin="round" stroke-miterlimit="10" cx="118.309" cy="114.354" rx="1.441" ry="1.752"/>
									
										<ellipse fill="none" stroke="#231F20" stroke-width="0.1714" stroke-linecap="round" stroke-linejoin="round" stroke-miterlimit="10" cx="118.627" cy="114.493" rx="1.019" ry="1.4"/>
									
										<ellipse fill="none" stroke="#231F20" stroke-width="0.0643" stroke-linecap="round" stroke-linejoin="round" stroke-miterlimit="10" cx="118.48" cy="113.923" rx="0.384" ry="0.523"/>
									
										<ellipse fill="none" stroke="#231F20" stroke-width="0.169" stroke-linecap="round" stroke-linejoin="round" stroke-miterlimit="10" cx="113.304" cy="114.17" rx="1.044" ry="1.328"/>
									
										<ellipse fill="none" stroke="#231F20" stroke-width="0.1269" stroke-linecap="round" stroke-linejoin="round" stroke-miterlimit="10" cx="113.535" cy="114.274" rx="0.738" ry="1.061"/>
									
										<path fill="none" stroke="#231F20" stroke-width="0.0476" stroke-linecap="round" stroke-linejoin="round" stroke-miterlimit="10" d="
										M113.708,113.846c0,0.217-0.125,0.394-0.28,0.394c-0.151,0-0.277-0.177-0.277-0.394c0-0.221,0.126-0.396,0.277-0.396
										C113.583,113.449,113.708,113.625,113.708,113.846z"/>
									<g>
										<path fill="#231F20" d="M117.555,111.507c0,0,0.069-0.099,0.189-0.227c0.084-0.037,0.176-0.11,0.31-0.137
											c0.108-0.006,0.216-0.029,0.353,0.01c0.052,0.015,0.151,0.036,0.19,0.068c0.049,0.03,0.097,0.052,0.144,0.088
											c0.097,0.083,0.166,0.175,0.205,0.256c0.084,0.164,0.081,0.29,0.09,0.285c0,0-0.067-0.103-0.187-0.215
											c-0.051-0.068-0.132-0.109-0.199-0.166c-0.039-0.027-0.096-0.048-0.145-0.073c-0.055-0.033-0.076-0.017-0.133-0.035
											c-0.083-0.042-0.208-0.032-0.313-0.034c-0.075,0.014-0.167,0.035-0.245,0.049
											C117.659,111.455,117.555,111.507,117.555,111.507z"/>
									</g>
									<g>
										<path fill="#231F20" d="M113.958,112.008c0,0-0.015-0.024-0.041-0.066c-0.03-0.036-0.054-0.117-0.121-0.157
											c-0.056-0.05-0.112-0.1-0.2-0.142c-0.041-0.02-0.076-0.06-0.123-0.061c-0.033-0.01-0.111-0.019-0.105-0.032
											c-0.101,0.019-0.244,0.006-0.284,0.065c-0.066,0.026-0.132,0.088-0.183,0.146c-0.102,0.115-0.163,0.218-0.163,0.218
											s0.004-0.027,0.011-0.076c0.015-0.046,0.002-0.129,0.051-0.205c0.044-0.076,0.082-0.183,0.207-0.25
											c0.116-0.094,0.216-0.075,0.326-0.107c0.112,0.016,0.14,0.037,0.21,0.058c0.065,0.014,0.104,0.062,0.153,0.092
											c0.099,0.057,0.157,0.165,0.205,0.242c0.061,0.075,0.033,0.151,0.048,0.198
											C113.955,111.979,113.958,112.008,113.958,112.008z"/>
									</g>
									
										<path fill="none" stroke="#231F20" stroke-width="0.2116" stroke-linecap="round" stroke-linejoin="round" stroke-miterlimit="10" d="
										M109.832,129.308c0.716-0.219,1.476-0.282,2.184-0.514c0.831-0.271,0.974-0.914,0.931-1.716
										c-0.038-0.683-0.072-1.549,0.743-1.774c0.545-0.15,1.034,0.105,1.354,0.52c0.09,0.113,0.165,0.238,0.225,0.372
										c0.256,0.564,0.263,1.221,0.17,1.841c-0.025,0.184-0.062,0.36-0.103,0.535c0,0.002-0.002,0.006-0.002,0.006"/>
									
										<path fill="none" stroke="#231F20" stroke-width="0.2116" stroke-linecap="round" stroke-linejoin="round" stroke-miterlimit="10" d="
										M114.911,128.922c0.123-0.147,0.268-0.269,0.424-0.351c0.32-0.179,0.693-0.198,1.055,0.04
										c0.269,0.177,0.442,0.483,0.517,0.815c0.058,0.257,0.054,0.531-0.016,0.766c-0.042,0.139-0.111,0.255-0.203,0.355
										c-0.102,0.12-0.229,0.215-0.366,0.312"/>
									
										<path fill="none" stroke="#231F20" stroke-width="0.2116" stroke-linecap="round" stroke-linejoin="round" stroke-miterlimit="10" d="
										M116.683,130.536c0.002,0.004,0.004,0.008,0.004,0.012c0.413,1.094,0.015,1.971-0.735,2.584
										c-0.269,0.217-0.579,0.401-0.915,0.551c-0.628,0.278-1.573,0.537-2.202,0.288c-0.076-0.029-0.146-0.063-0.212-0.113
										c-0.003,0-0.003-0.002-0.004-0.002"/>
									
										<path fill="none" stroke="#231F20" stroke-width="0.2116" stroke-linecap="round" stroke-linejoin="round" stroke-miterlimit="10" d="
										M113.87,123.068h-0.004c-0.52,0.038-1.088,0.08-1.593,0.229c-2.38,0.695-4.989,2.778-5.908,5.129
										c-0.299,0.773-0.504,1.606-0.504,2.424c0,0.791,0.188,1.567,0.654,2.269c0.776,1.166,2.115,1.573,3.451,1.351
										c0.894-0.151,1.778-0.399,2.656-0.612c0.015-0.004,0.027-0.006,0.042-0.01"/>
									
										<path fill="none" stroke="#231F20" stroke-width="0.2116" stroke-linecap="round" stroke-linejoin="round" stroke-miterlimit="10" d="
										M113.848,122.647c-0.223,0.01-0.134,0.215,0.018,0.421c0.133,0.188,0.313,0.376,0.362,0.434
										c0.595,0.696,0.405,1.585,0.823,2.315"/>
									
										<path fill="none" stroke="#231F20" stroke-width="0.2116" stroke-linecap="round" stroke-linejoin="round" stroke-miterlimit="10" d="
										M115.439,128.036c0.19,0.042,0.377,0.209,0.554,0.287c0.091,0.037,0.171,0.095,0.259,0.119
										c0.066,0.018,0.185,0,0.245,0.033c0.187-0.045,0.294-0.219,0.424-0.348c0.149-0.151,0.325-0.274,0.468-0.434
										c0.179-0.207,0.034-0.43-0.1-0.645c-0.047-0.075-0.093-0.148-0.121-0.221c-0.311-0.791-0.411-1.646-0.686-2.45
										c-0.093-0.278-0.256-0.877-0.526-1.04"/>
									
										<path fill="none" stroke="#231F20" stroke-width="0.2116" stroke-linecap="round" stroke-linejoin="round" stroke-miterlimit="10" d="
										M122.843,122.281v0.002h0.002c0.007,0.008,0.013,0.014,0.024,0.014"/>
									
										<path fill="none" stroke="#231F20" stroke-width="0.2116" stroke-linecap="round" stroke-linejoin="round" stroke-miterlimit="10" d="
										M123.318,125.823c-0.007-0.018-0.013-0.04-0.017-0.058c-0.159-0.831-0.028-1.681-0.207-2.521
										c-0.071-0.324-0.202-0.639-0.251-0.961"/>
									
										<path fill="none" stroke="#231F20" stroke-width="0.2116" stroke-linecap="round" stroke-linejoin="round" stroke-miterlimit="10" d="
										M121.418,122.905c0.002,0.005,0.003,0.011,0.003,0.015c0.003,0.002,0.004,0.008,0.004,0.008
										c0.386,0.99,0.133,2.136-0.049,3.156c-0.017,0.104-0.036,0.2-0.051,0.3c-0.048,0.305,0.338,0.384,0.546,0.509
										c0.244,0.149,0.457,0.353,0.729,0.456c0.2-0.299,0.577-0.485,0.834-0.734c0.14-0.135,0.104-0.221,0.045-0.401
										c-0.045-0.133-0.124-0.253-0.161-0.388"/>
									
										<path fill="none" stroke="#231F20" stroke-width="0.2116" stroke-linecap="round" stroke-linejoin="round" stroke-miterlimit="10" d="
										M120.637,123.908c0.314,0.248,0.515,0.632,0.515,1.062c0,0.744-0.604,1.349-1.35,1.349c-0.744,0-1.347-0.604-1.347-1.349
										c0-0.115,0.014-0.227,0.043-0.334c0.02-0.087,0.048-0.171,0.09-0.248c0.213-0.452,0.677-0.768,1.214-0.768
										c0.246,0,0.476,0.065,0.676,0.181C120.535,123.83,120.587,123.868,120.637,123.908z"/>
									
										<path fill="none" stroke="#231F20" stroke-width="0.2116" stroke-linecap="round" stroke-linejoin="round" stroke-miterlimit="10" d="
										M116.083,123.365c-0.071,0.088,0.852,0.766,0.955,0.827c0.396,0.232,0.987,0.501,1.46,0.443h0.002"/>
									
										<path fill="none" stroke="#231F20" stroke-width="0.2116" stroke-linecap="round" stroke-linejoin="round" stroke-miterlimit="10" d="
										M118.588,124.388c-0.271,0-0.572-0.184-0.793-0.332c-0.196-0.136-0.525-0.428-0.676-0.539
										c-0.003-0.002-0.003-0.002-0.005-0.002"/>
									
										<path fill="none" stroke="#231F20" stroke-width="0.2116" stroke-linecap="round" stroke-linejoin="round" stroke-miterlimit="10" d="
										M120.478,123.799c-0.023-0.063,0.173-0.362,0.227-0.43c0.07-0.096,0.153-0.191,0.236-0.278"/>
									
										<path fill="none" stroke="#231F20" stroke-width="0.2116" stroke-linecap="round" stroke-linejoin="round" stroke-miterlimit="10" d="
										M121.418,122.934c0.044,0.201-0.209,0.503-0.344,0.614c-0.14,0.115-0.35,0.267-0.438,0.36v0.004"/>
									<g>
										<path fill="#231F20" d="M120.171,124.133c0,0-0.062-0.007-0.168-0.018c-0.055-0.01-0.112,0.002-0.177,0.002
											c-0.047-0.002-0.044,0.003-0.089,0.018c-0.033,0.014-0.094,0.015-0.11,0.04c-0.088,0.059-0.178,0.225-0.078,0.401
											c0.053,0.079,0.152,0.143,0.261,0.155c0.12,0.014,0.23-0.022,0.37,0.028c0.114,0.038,0.247,0.16,0.301,0.254
											c0.036,0.044,0.042,0.156,0.047,0.233c-0.025,0.067-0.049,0.146-0.089,0.202c-0.087,0.101-0.198,0.184-0.306,0.212
											c-0.133,0.042-0.243,0.033-0.341,0.006c-0.417-0.099-0.476-0.422-0.474-0.401c0,0.005,0.005,0.008,0.009,0.007
											c0.004,0,0.007-0.003,0.007-0.007l0.002-0.01c0.002-0.011,0.152,0.221,0.481,0.235c0.077,0.008,0.167-0.015,0.23-0.029
											c0.096-0.024,0.147-0.09,0.218-0.148c0.027-0.031,0.035-0.067,0.06-0.101c-0.016-0.034,0.019-0.05-0.007-0.106
											c-0.046-0.12-0.094-0.169-0.187-0.241c-0.184-0.079-0.477-0.031-0.671-0.216c-0.083-0.092-0.159-0.225-0.122-0.355
											c0.013-0.135,0.117-0.233,0.229-0.283c0.055-0.031,0.089-0.021,0.132-0.033c0.035-0.013,0.113-0.012,0.14,0.002
											c0.078,0.021,0.152,0.024,0.195,0.054c0.092,0.051,0.145,0.08,0.145,0.08c0.005,0.003,0.007,0.009,0.004,0.015
											C120.181,124.132,120.176,124.134,120.171,124.133z"/>
									</g>
									
										<path fill="none" stroke="#231F20" stroke-width="0.2116" stroke-linecap="round" stroke-linejoin="round" stroke-miterlimit="10" d="
										M117.274,127.05c0.004,0,0.011,0,0.015,0c0.723,0.107,1.458-0.089,2.154-0.274c0.579-0.152,1.492-0.248,1.934-0.691
										c0.002,0,0.004-0.002,0.007-0.004"/>
									
										<path fill="none" stroke="#231F20" stroke-width="0.2116" stroke-linecap="round" stroke-linejoin="round" stroke-miterlimit="10" d="
										M123.305,125.817c0.004,0.002,0.008,0.004,0.013,0.006v0.002c0.624,0.372,1.21,0.581,1.924,0.714
										c0.132,0.025,0.288,0.048,0.436,0.086c0.147,0.041,0.286,0.101,0.382,0.208c0.203,0.221,0.172,0.589,0.181,0.867
										c0.051,1.563,0.354,3.168,0.125,4.728c-0.119,0.817-0.181,1.931-0.301,2.748"/>
									
										<path fill="none" stroke="#231F20" stroke-width="0.2116" stroke-linecap="round" stroke-linejoin="round" stroke-miterlimit="10" d="
										M116.907,129.427c0.562,0.038,1.201,0.083,1.76,0.012c0.664-0.081,1.309-0.276,1.94-0.493
										c0.64-0.217,1.271-0.472,1.925-0.626c0.371-0.086,0.889-0.197,1.208,0.085c0.296,0.257,0.306,0.742,0.328,1.102
										c0.039,0.553,0.065,1.104,0.149,1.657c0.128,0.873,0.533,1.988-0.086,2.766c-0.505,0.635-1.438,1.017-2.12,1.422"/>
									
										<path fill="none" stroke="#231F20" stroke-width="0.2116" stroke-linecap="round" stroke-linejoin="round" stroke-miterlimit="10" d="
										M115.948,133.124c0.002,0.002,0.004,0.006,0.004,0.008c0.364,0.576-0.214,1.301,0.269,1.7
										c0.126,0.107,0.248,0.137,0.396,0.201c0.14,0.058,0.92,0.517,1.188,0.517"/>
									
										<path fill="none" stroke="#231F20" stroke-width="0.2116" stroke-linecap="round" stroke-linejoin="round" stroke-miterlimit="10" d="
										M127.346,122.642c0,0-0.005,0-0.017,0c-0.003,0-0.003,0-0.004,0"/>
									
										<path fill="none" stroke="#231F20" stroke-width="0.2116" stroke-linecap="round" stroke-linejoin="round" stroke-miterlimit="10" d="
										M125.739,126.612c0,0,0-0.004,0-0.016c0-0.002,0-0.002,0-0.004"/>
									
										<path fill="none" stroke="#231F20" stroke-width="0.2116" stroke-linecap="round" stroke-linejoin="round" stroke-miterlimit="10" d="
										M127.924,124.689c-1.095,0.28-2.298-0.185-2.351,0.397c-0.046,0.493,0.163,1.009,0.165,1.506"/>
									
										<path fill="none" stroke="#231F20" stroke-width="0.2116" stroke-linecap="round" stroke-linejoin="round" stroke-miterlimit="10" d="
										M112.715,135.771c-0.125-0.113-0.005-1.714,0.115-1.792"/>
									
										<path fill="#414042" stroke="#231F20" stroke-width="0.2065" stroke-linecap="round" stroke-linejoin="round" stroke-miterlimit="10" d="
										M110.42,118.363c-0.739-0.38-1.842-1.002-1.435-2.068c0.317-0.825,1.58-1.069,2.236-0.559
										c0.432,0.336,0.224,0.808-0.014,1.197L110.42,118.363z"/>
									<path fill="#F1F2F2" d="M137.16,119.362c0.001,0.308,0.005,0.528-0.064,1.021"/>
									<g>
										
											<path fill="#BCBEC0" stroke="#231F20" stroke-width="0.1784" stroke-linecap="round" stroke-linejoin="round" stroke-miterlimit="10" d="
											M137.069,124.676c0,0.639-0.532,1.155-1.191,1.155h-7.56c-0.658,0-1.192-0.517-1.192-1.155v-15.343
											c0-0.639,0.534-1.157,1.192-1.157h7.56c0.659,0,1.191,0.519,1.191,1.157V124.676z"/>
										
											<path fill="#E6E7E8" stroke="#231F20" stroke-width="0.1784" stroke-linecap="round" stroke-linejoin="round" stroke-miterlimit="10" d="
											M137.031,124.079c0,0.614-0.501,1.115-1.117,1.115h-7.073c-0.616,0-1.116-0.501-1.116-1.115v-14.786
											c0-0.616,0.5-1.117,1.116-1.117h7.073c0.616,0,1.117,0.501,1.117,1.117V124.079z"/>
										<rect x="128.334" y="109.906" fill="#414042" width="8.084" height="12.562"/>
										
											<circle fill="none" stroke="#231F20" stroke-width="0.1666" stroke-linecap="round" stroke-linejoin="round" stroke-miterlimit="10" cx="132.377" cy="123.799" r="0.844"/>
										<path fill="#231F20" d="M134.397,109.148c0,0.131-0.105,0.236-0.239,0.236h-3.562c-0.134,0-0.241-0.105-0.241-0.236l0,0
											c0-0.134,0.107-0.241,0.241-0.241h3.562C134.292,108.907,134.397,109.015,134.397,109.148L134.397,109.148z"/>
									</g>
									<path fill="#F1F2F2" d="M138.314,118.693c-0.253,0.267-0.608,0.414-1.003,0.291c-0.32-0.1-0.514-0.343-0.613-0.631
										c0.008-0.453,0.018-0.869,0.057-1.205c0.004-0.044,0.369-0.787,0.375-0.829c0.091-0.812-0.053-1.585-0.053-1.585
										c0.611,0.229,1.156,0.491,1.414,1.13c0.172,0.419,0.271,0.925,0.271,1.413c0,0.279-0.031,0.554-0.103,0.804
										C138.596,118.308,138.475,118.526,138.314,118.693z"/>
									<path fill="#F1F2F2" d="M138.369,118.773c-0.255,0.269-0.609,0.413-1.005,0.29c-0.08-0.023-0.148-0.062-0.213-0.102
										c0.003,0.134,0.008,0.267,0.009,0.4c0.001,0.308,0.083,0.691-0.083,0.935c-0.059,0.133-0.282-0.07-0.402,0.258
										c-0.023,0.251-0.053,0.502-0.095,0.744c0.044,0.334,0.224,0.635,0.593,0.716c0.325,0.074,0.672-0.027,0.941-0.229
										c0.002-0.018,0.002-0.02,0.002-0.002c0.104-0.071,0.195-0.159,0.271-0.257
										C138.999,120.748,138.629,119.618,138.369,118.773z"/>
									<path fill="#F1F2F2" d="M138.116,121.794c-0.002-0.002-0.002-0.004-0.002-0.004v-0.004
										c-0.27,0.201-0.616,0.303-0.941,0.229c-0.029-0.006-0.057-0.018-0.084-0.027v2.096c0.215-0.081,0.413-0.199,0.578-0.36
										C138.23,123.176,138.278,122.528,138.116,121.794z"/>
									
										<path fill="none" stroke="#231F20" stroke-width="0.2116" stroke-linecap="round" stroke-linejoin="round" stroke-miterlimit="10" d="
										M137.129,114.812c0.61,0.231,1.156,0.495,1.414,1.13c0.172,0.424,0.27,0.925,0.27,1.416c0,0.276-0.029,0.553-0.1,0.804
										c-0.064,0.229-0.185,0.445-0.345,0.612c-0.255,0.269-0.609,0.413-1.005,0.29c-0.319-0.1-0.515-0.342-0.611-0.63
										c-0.077-0.221-0.099-0.466-0.079-0.696c0.019-0.225,0.071-0.434,0.148-0.637c0.136-0.354,0.351-0.674,0.59-0.984"/>
									
										<path fill="none" stroke="#231F20" stroke-width="0.2116" stroke-linecap="round" stroke-linejoin="round" stroke-miterlimit="10" d="
										M138.364,118.762c0.259,0.813,0.627,1.898,0.089,2.683c-0.695,1.006-2.122,0.603-1.85-0.687"/>
									
										<path fill="none" stroke="#231F20" stroke-width="0.2116" stroke-linecap="round" stroke-linejoin="round" stroke-miterlimit="10" d="
										M138.116,121.794c0.208,0.883-0.038,1.897-0.99,2.281"/>
									<path fill="#F1F2F2" d="M126.957,121.092c-0.048-0.25,0.001-0.501,0.139-0.693c0.001-0.011,0-0.022,0.001-0.03
										c0.052-0.635,0.123-0.036,0.5-1.026h-0.008c0.197-0.495,0.334-1.01,0.272-1.553c-0.03-0.261-0.124-0.557-0.28-0.792
										c-0.125-0.185-0.284-0.33-0.476-0.392c-0.159-0.052-0.338-0.046-0.54,0.042c-0.753,0.334-1.035,1.354-1.11,2.098
										c-0.05,0.489-0.043,1.001,0.04,1.496c0.051,0.324,0.134,0.64,0.252,0.935c0.26,0.66,0.693,1.071,1.293,1.346
										C127.045,122.043,127.045,121.562,126.957,121.092z"/>
									
										<path fill="none" stroke="#231F20" stroke-width="0.2116" stroke-linecap="round" stroke-linejoin="round" stroke-miterlimit="10" d="
										M127.253,120.066c0.437-0.878,0.938-2.019,0.389-2.966c-0.572-0.984-1.524-0.344-1.887,0.441
										c-0.704,1.533-0.469,4.117,1.187,4.937"/>
								</g>
							</g>
							<g>
								<g>
									<g>
										<path fill="#FFFFFF" d="M118.682,133.501c-7.943,0-14.405-6.463-14.405-14.403c0-7.945,6.462-14.404,14.405-14.404
											c7.941,0,14.403,6.459,14.403,14.404C133.085,127.038,126.624,133.501,118.682,133.501z M118.682,105.739
											c-7.365,0-13.358,5.992-13.358,13.358c0,7.364,5.993,13.357,13.358,13.357s13.357-5.993,13.357-13.357
											C132.04,111.731,126.047,105.739,118.682,105.739z"/>
									</g>
								</g>
							</g>
						</g>
					</g>
					<path fill="#61D1FF" d="M127.287,114.708c0.042,0.744,0.078,1.474,0.098,2.204c-0.123-0.186-0.282-0.332-0.475-0.394
						c0.112-0.671,0.191-1.425,0.305-2.106l0.056-0.002C127.276,114.512,127.28,114.611,127.287,114.708z"/>
					
						<path fill="none" stroke="#231F20" stroke-width="0.2116" stroke-linecap="round" stroke-linejoin="round" stroke-miterlimit="10" d="
						M126.907,116.524c0-0.002,0-0.004,0.003-0.006c0.112-0.671,0.191-1.425,0.305-2.106c-0.232,0.104-2.198-0.326-2.934-0.298
						c-0.054,0-0.104,0.004-0.141,0.012"/>
					
						<path fill="none" stroke="#231F20" stroke-width="0.2116" stroke-linecap="round" stroke-linejoin="round" stroke-miterlimit="10" d="
						M127.151,122.556c0,0-0.004,0-0.018,0c-0.002,0-0.002,0-0.003,0"/>
					
						<path fill="none" stroke="#231F20" stroke-width="0.2116" stroke-linecap="round" stroke-linejoin="round" stroke-miterlimit="10" d="
						M127.728,124.603c-1.094,0.28-2.298-0.184-2.351,0.399c-0.045,0.491,0.163,1.008,0.166,1.503"/>
					<path fill="#F1F2F2" d="M136.961,119.274c0.003,0.309,0.008,0.529-0.062,1.024"/>
					<g>
						
							<path fill="#BCBEC0" stroke="#231F20" stroke-width="0.1784" stroke-linecap="round" stroke-linejoin="round" stroke-miterlimit="10" d="
							M136.875,124.586c0,0.641-0.533,1.159-1.193,1.159h-7.558c-0.658,0-1.194-0.519-1.194-1.159v-15.339
							c0-0.638,0.536-1.159,1.194-1.159h7.558c0.66,0,1.193,0.521,1.193,1.159V124.586z"/>
						
							<path fill="#E6E7E8" stroke="#231F20" stroke-width="0.1784" stroke-linecap="round" stroke-linejoin="round" stroke-miterlimit="10" d="
							M136.835,123.991c0,0.617-0.501,1.116-1.117,1.116h-7.073c-0.617,0-1.116-0.499-1.116-1.116v-14.783
							c0-0.617,0.499-1.12,1.116-1.12h7.073c0.616,0,1.117,0.503,1.117,1.12V123.991z"/>
						<rect x="128.14" y="109.818" fill="#414042" width="8.084" height="12.564"/>
						
							<circle fill="none" stroke="#231F20" stroke-width="0.1666" stroke-linecap="round" stroke-linejoin="round" stroke-miterlimit="10" cx="132.181" cy="123.711" r="0.845"/>
						<path fill="#231F20" d="M134.203,109.061c0,0.133-0.107,0.238-0.239,0.238h-3.564c-0.131,0-0.238-0.105-0.238-0.238l0,0
							c0-0.133,0.107-0.238,0.238-0.238h3.564C134.095,108.822,134.203,108.928,134.203,109.061L134.203,109.061z"/>
					</g>
					<path fill="#F1F2F2" d="M138.12,118.606c-0.255,0.269-0.609,0.415-1.006,0.29c-0.319-0.098-0.511-0.34-0.611-0.628
						c0.007-0.454,0.018-0.869,0.056-1.208c0.005-0.043,0.369-0.787,0.376-0.827c0.092-0.813-0.053-1.587-0.053-1.587
						c0.609,0.231,1.155,0.491,1.414,1.13c0.171,0.42,0.271,0.925,0.271,1.414c0,0.278-0.032,0.555-0.103,0.806
						C138.402,118.223,138.282,118.441,138.12,118.606z"/>
					<path fill="#F1F2F2" d="M138.172,118.688c-0.254,0.267-0.61,0.412-1.005,0.291c-0.079-0.026-0.147-0.062-0.212-0.102
						c0.002,0.133,0.006,0.265,0.006,0.397c0.003,0.309,0.085,0.694-0.081,0.935c-0.057,0.134-0.281-0.069-0.401,0.261
						c-0.023,0.25-0.053,0.501-0.095,0.741c0.045,0.337,0.224,0.635,0.594,0.717c0.325,0.075,0.67-0.028,0.94-0.229
						c0.003-0.016,0.003-0.02,0.003,0c0.104-0.073,0.194-0.161,0.27-0.258C138.803,120.658,138.432,119.531,138.172,118.688z"/>
					<path fill="#F1F2F2" d="M137.921,121.709c-0.003-0.002-0.003-0.004-0.003-0.007v-0.004c-0.271,0.201-0.615,0.305-0.94,0.229
						c-0.031-0.007-0.057-0.017-0.086-0.026v2.094c0.215-0.079,0.414-0.196,0.58-0.357
						C138.035,123.089,138.083,122.44,137.921,121.709z"/>
					
						<path fill="none" stroke="#231F20" stroke-width="0.2116" stroke-linecap="round" stroke-linejoin="round" stroke-miterlimit="10" d="
						M136.935,114.727c0.609,0.23,1.154,0.491,1.413,1.129c0.172,0.422,0.271,0.925,0.271,1.414c0,0.278-0.032,0.553-0.101,0.806
						c-0.063,0.227-0.186,0.443-0.346,0.612c-0.254,0.267-0.61,0.412-1.005,0.291c-0.319-0.1-0.513-0.345-0.611-0.633
						c-0.075-0.219-0.098-0.463-0.077-0.694c0.018-0.225,0.07-0.436,0.146-0.636c0.139-0.356,0.354-0.677,0.592-0.986"/>
					
						<path fill="none" stroke="#231F20" stroke-width="0.2116" stroke-linecap="round" stroke-linejoin="round" stroke-miterlimit="10" d="
						M138.168,118.674c0.259,0.815,0.627,1.901,0.088,2.683c-0.694,1.007-2.122,0.603-1.849-0.686"/>
					
						<path fill="none" stroke="#231F20" stroke-width="0.2116" stroke-linecap="round" stroke-linejoin="round" stroke-miterlimit="10" d="
						M137.921,121.709c0.207,0.881-0.039,1.893-0.991,2.278"/>
					<path fill="#F1F2F2" d="M126.761,121.005c-0.047-0.251,0.003-0.504,0.138-0.692c0.001-0.01,0-0.021,0.002-0.034
						c0.053-0.632,0.122-0.033,0.499-1.021l-0.008-0.002c0.199-0.493,0.335-1.013,0.273-1.554c-0.03-0.259-0.125-0.555-0.281-0.789
						c-0.123-0.186-0.282-0.332-0.475-0.394c-0.159-0.052-0.338-0.046-0.54,0.043c-0.752,0.332-1.033,1.354-1.11,2.099
						c-0.051,0.485-0.043,1,0.04,1.495c0.052,0.324,0.134,0.639,0.252,0.935c0.26,0.66,0.692,1.07,1.291,1.345
						C126.849,121.957,126.848,121.474,126.761,121.005z"/>
					
						<path fill="none" stroke="#231F20" stroke-width="0.2116" stroke-linecap="round" stroke-linejoin="round" stroke-miterlimit="10" d="
						M127.058,119.979c0.436-0.875,0.938-2.019,0.389-2.963c-0.572-0.984-1.524-0.345-1.886,0.441
						c-0.704,1.533-0.47,4.116,1.185,4.934"/>
					
						<path fill="none" stroke="#231F20" stroke-width="0.2116" stroke-linecap="round" stroke-linejoin="round" stroke-miterlimit="10" d="
						M136.389,120.639c0.292,0.027,0.521-0.249,0.45-0.581"/>
				</g>
			</g>
			<g>
				<g>
					<g>
						<path fill="#60281B" d="M64.631,112.883h-1.459c-0.151,0-0.272,0.135-0.272,0.301v0.445c0-0.165,0.122-0.303,0.272-0.303
							h1.459c0.15,0,0.273,0.138,0.273,0.303v-0.445C64.905,113.018,64.781,112.883,64.631,112.883z"/>
					</g>
				</g>
				<g>
					<g>
						<g>
							<path fill="#471C16" d="M59.404,117.229c0,0.152-0.114,0.28-0.255,0.28h-1.356c-0.14,0-0.254-0.128-0.254-0.28v-1.285
								c0-0.155,0.114-0.28,0.254-0.28h1.356c0.141,0,0.255,0.125,0.255,0.28V117.229z"/>
						</g>
					</g>
					<g opacity="0.5">
						<g>
							<path fill="#60281B" d="M59.149,115.663h-1.356c-0.14,0-0.254,0.125-0.254,0.28v0.412c0-0.155,0.114-0.279,0.254-0.279h1.356
								c0.141,0,0.255,0.124,0.255,0.279v-0.412C59.404,115.788,59.29,115.663,59.149,115.663z"/>
						</g>
					</g>
					<g>
						<g>
							<path fill="#471C16" d="M70.058,117.93c-0.045,0.147-0.19,0.233-0.325,0.193l-1.297-0.397
								c-0.134-0.042-0.205-0.195-0.16-0.343l0.378-1.229c0.044-0.146,0.191-0.232,0.326-0.193l1.296,0.398
								c0.134,0.043,0.206,0.194,0.16,0.344L70.058,117.93z"/>
						</g>
					</g>
					<g>
						<g>
							<path fill="#471C16" d="M70.276,116.359l-1.296-0.398c-0.135-0.039-0.281,0.048-0.326,0.193l-0.122,0.396
								c0.046-0.147,0.191-0.234,0.324-0.192l1.298,0.399c0.134,0.04,0.208,0.192,0.161,0.342l0.121-0.396
								C70.482,116.554,70.41,116.402,70.276,116.359z"/>
						</g>
					</g>
					<g>
						<g>
							<path fill="#471C16" d="M66.593,115.647c0.018,0.163-0.089,0.31-0.241,0.326l-1.445,0.152
								c-0.15,0.019-0.286-0.104-0.303-0.269l-0.144-1.37c-0.019-0.167,0.089-0.31,0.239-0.328l1.447-0.152
								c0.149-0.017,0.285,0.107,0.302,0.271L66.593,115.647z"/>
						</g>
					</g>
					<g>
						<g>
							<path fill="#471C16" d="M66.146,114.007l-1.447,0.152c-0.15,0.019-0.258,0.161-0.239,0.328l0.045,0.439
								c-0.017-0.165,0.091-0.312,0.241-0.326l1.446-0.152c0.15-0.017,0.285,0.105,0.303,0.271l-0.046-0.441
								C66.431,114.114,66.295,113.99,66.146,114.007z"/>
						</g>
					</g>
					<g>
						<g>
							<path fill="#471C16" d="M58.828,118.004c0.033,0.151-0.052,0.298-0.19,0.328l-1.326,0.284
								c-0.138,0.032-0.276-0.069-0.307-0.219l-0.271-1.257c-0.033-0.149,0.053-0.296,0.19-0.328l1.326-0.282
								c0.136-0.032,0.275,0.067,0.308,0.219L58.828,118.004z"/>
						</g>
					</g>
					<g>
						<g>
							<path fill="#471C16" d="M58.25,116.53l-1.326,0.282c-0.137,0.032-0.223,0.179-0.19,0.328l0.087,0.403
								c-0.033-0.15,0.052-0.296,0.191-0.326l1.325-0.284c0.137-0.029,0.273,0.067,0.307,0.219l-0.087-0.403
								C58.524,116.598,58.385,116.498,58.25,116.53z"/>
						</g>
					</g>
					<g>
						<g>
							<path fill="#471C16" d="M62.204,115.22c0,0.155-0.114,0.28-0.254,0.28h-1.357c-0.142,0-0.254-0.125-0.254-0.28v-1.285
								c0-0.155,0.112-0.278,0.254-0.278h1.357c0.14,0,0.254,0.123,0.254,0.278V115.22z"/>
						</g>
					</g>
					<g>
						<g>
							<path fill="#471C16" d="M61.949,113.656h-1.357c-0.142,0-0.254,0.123-0.254,0.278v0.416c0-0.155,0.112-0.282,0.254-0.282
								h1.357c0.14,0,0.254,0.127,0.254,0.282v-0.416C62.204,113.779,62.089,113.656,61.949,113.656z"/>
						</g>
					</g>
					<g>
						<g>
							<path fill="#471C16" d="M68.098,118.449c0,0.183-0.135,0.33-0.3,0.33h-1.596c-0.165,0-0.3-0.147-0.3-0.33v-1.512
								c0-0.183,0.136-0.33,0.3-0.33h1.596c0.166,0,0.3,0.147,0.3,0.33V118.449z"/>
						</g>
					</g>
					<g>
						<g>
							<path fill="#872A18" d="M67.798,116.607h-1.596c-0.165,0-0.3,0.147-0.3,0.33v0.485c0-0.183,0.136-0.33,0.3-0.33h1.596
								c0.166,0,0.3,0.147,0.3,0.33v-0.485C68.098,116.755,67.963,116.607,67.798,116.607z"/>
						</g>
					</g>
					<g>
						<g>
							<path fill="#60281B" d="M65.651,116.49c0,0.183-0.134,0.33-0.298,0.33h-1.597c-0.166,0-0.299-0.147-0.299-0.33v-1.512
								c0-0.181,0.134-0.328,0.299-0.328h1.597c0.164,0,0.298,0.147,0.298,0.328V116.49z"/>
						</g>
					</g>
					<g>
						<g>
							<path fill="#60281B" d="M65.353,114.65h-1.597c-0.166,0-0.299,0.147-0.299,0.328v0.487c0-0.183,0.134-0.33,0.299-0.33h1.597
								c0.164,0,0.298,0.147,0.298,0.33v-0.487C65.651,114.798,65.517,114.65,65.353,114.65z"/>
						</g>
					</g>
					<g>
						<g>
							<path fill="#60281B" d="M64.767,114.567c0,0.165-0.122,0.3-0.274,0.3h-1.458c-0.151,0-0.274-0.135-0.274-0.3v-1.384
								c0-0.166,0.123-0.301,0.274-0.301h1.458c0.152,0,0.274,0.135,0.274,0.301V114.567z"/>
						</g>
					</g>
					<g>
						<g>
							<path fill="#60281B" d="M61.154,116.669c0,0.182-0.134,0.33-0.298,0.33H59.26c-0.166,0-0.299-0.148-0.299-0.33v-1.511
								c0-0.184,0.134-0.33,0.299-0.33h1.596c0.165,0,0.298,0.146,0.298,0.33V116.669z"/>
						</g>
					</g>
					<g>
						<g>
							<path fill="#60281B" d="M60.855,114.828H59.26c-0.166,0-0.299,0.146-0.299,0.33v0.487c0-0.184,0.134-0.33,0.299-0.33h1.596
								c0.165,0,0.298,0.146,0.298,0.33v-0.487C61.154,114.975,61.02,114.828,60.855,114.828z"/>
						</g>
					</g>
					<g>
						<g>
							<path fill="#471C16" d="M63.635,116.686c0,0.181-0.135,0.33-0.299,0.33h-1.597c-0.165,0-0.298-0.149-0.298-0.33v-1.51
								c0-0.183,0.133-0.332,0.298-0.332h1.597c0.165,0,0.299,0.149,0.299,0.332V116.686z"/>
						</g>
					</g>
					<g>
						<g>
							<path fill="#471C16" d="M63.335,114.844h-1.597c-0.165,0-0.298,0.149-0.298,0.332v0.483c0-0.181,0.133-0.328,0.298-0.328
								h1.597c0.165,0,0.299,0.147,0.299,0.328v-0.483C63.635,114.993,63.5,114.844,63.335,114.844z"/>
						</g>
					</g>
					<g>
						<g>
							<path fill="#60281B" d="M69.207,116.313c0.03,0.181-0.081,0.346-0.244,0.372l-1.578,0.244c-0.162,0.024-0.318-0.1-0.345-0.28
								l-0.232-1.491c-0.027-0.184,0.083-0.349,0.246-0.372l1.577-0.247c0.165-0.023,0.318,0.104,0.347,0.28L69.207,116.313z"/>
						</g>
					</g>
					<g>
						<g>
							<path fill="#60281B" d="M68.63,114.539l-1.577,0.247c-0.164,0.023-0.273,0.188-0.246,0.372l0.076,0.479
								c-0.028-0.179,0.083-0.346,0.244-0.371l1.577-0.243c0.164-0.027,0.319,0.098,0.347,0.278l-0.074-0.481
								C68.949,114.643,68.795,114.516,68.63,114.539z"/>
						</g>
					</g>
					<g>
						<g>
							<path fill="#60281B" d="M67.874,117.61c-0.037,0.177-0.197,0.286-0.358,0.242l-1.559-0.412
								c-0.161-0.043-0.263-0.223-0.227-0.397l0.3-1.47c0.036-0.175,0.196-0.284,0.356-0.24l1.559,0.411
								c0.163,0.044,0.263,0.221,0.229,0.398L67.874,117.61z"/>
						</g>
					</g>
					<g>
						<g>
							<path fill="#60281B" d="M67.944,115.744l-1.559-0.411c-0.161-0.044-0.32,0.065-0.356,0.24l-0.098,0.474
								c0.037-0.177,0.197-0.284,0.358-0.243l1.56,0.414c0.161,0.042,0.263,0.219,0.227,0.397l0.097-0.473
								C68.208,115.965,68.107,115.788,67.944,115.744z"/>
						</g>
					</g>
					<g>
						<g>
							<g>
								<circle fill="#60281B" cx="62.538" cy="114.969" r="0.762"/>
							</g>
						</g>
						<g>
							<g>
								<path fill="#F2B172" d="M62.538,114.472c0.274,0,0.498,0.223,0.498,0.497s-0.224,0.497-0.498,0.497
									c-0.274,0-0.497-0.223-0.497-0.497S62.263,114.472,62.538,114.472L62.538,114.472z M62.538,113.942
									c-0.567,0-1.025,0.462-1.025,1.026c0,0.567,0.458,1.026,1.025,1.026c0.565,0,1.026-0.459,1.026-1.026
									C63.564,114.404,63.103,113.942,62.538,113.942L62.538,113.942z"/>
							</g>
						</g>
					</g>
					<g>
						<g>
							<path fill="#471C16" d="M66.459,118.423c0.026,0.18-0.086,0.349-0.25,0.378l-1.576,0.267
								c-0.164,0.03-0.317-0.093-0.342-0.272L64.08,117.3c-0.024-0.177,0.087-0.349,0.252-0.376l1.577-0.269
								c0.162-0.027,0.316,0.096,0.341,0.274L66.459,118.423z"/>
						</g>
					</g>
					<g>
						<g>
							<path fill="#471C16" d="M65.909,116.655l-1.577,0.269c-0.165,0.027-0.276,0.199-0.252,0.376l0.07,0.481
								c-0.027-0.18,0.085-0.349,0.249-0.376l1.577-0.269c0.163-0.03,0.314,0.094,0.341,0.274l-0.066-0.481
								C66.225,116.751,66.07,116.628,65.909,116.655z"/>
						</g>
					</g>
					<g>
						<g>
							<path fill="#60281B" d="M61.972,118.004c0,0.183-0.134,0.33-0.298,0.33h-1.596c-0.166,0-0.299-0.147-0.299-0.33v-1.512
								c0-0.179,0.133-0.328,0.299-0.328h1.596c0.164,0,0.298,0.149,0.298,0.328V118.004z"/>
						</g>
					</g>
					<g>
						<g>
							<path fill="#60281B" d="M61.674,116.164h-1.596c-0.166,0-0.299,0.149-0.299,0.328v0.487c0-0.183,0.133-0.33,0.299-0.33h1.596
								c0.164,0,0.298,0.147,0.298,0.33v-0.487C61.972,116.313,61.838,116.164,61.674,116.164z"/>
						</g>
					</g>
					<g>
						<g>
							<path fill="#471C16" d="M64.3,117.898c0,0.181-0.134,0.328-0.298,0.328h-1.597c-0.165,0-0.299-0.147-0.299-0.328v-1.512
								c0-0.183,0.135-0.33,0.299-0.33h1.597c0.165,0,0.298,0.147,0.298,0.33V117.898z"/>
						</g>
					</g>
					<g>
						<g>
							<path fill="#471C16" d="M64.002,116.057h-1.597c-0.165,0-0.299,0.147-0.299,0.33v0.483c0-0.181,0.135-0.326,0.299-0.326
								h1.597c0.165,0,0.298,0.146,0.298,0.326v-0.483C64.3,116.204,64.167,116.057,64.002,116.057z"/>
						</g>
					</g>
					<g>
						<g>
							<g>
								<path fill="#60281B" d="M61.459,118.146c-0.419,0-0.761-0.34-0.761-0.762c0-0.417,0.341-0.759,0.761-0.759
									c0.42,0,0.763,0.342,0.763,0.759C62.222,117.807,61.879,118.146,61.459,118.146z"/>
							</g>
						</g>
						<g>
							<g>
								<path fill="#F2B172" d="M61.459,116.888c0.275,0,0.499,0.225,0.499,0.497c0,0.276-0.224,0.5-0.499,0.5
									c-0.273,0-0.496-0.224-0.496-0.5C60.963,117.112,61.186,116.888,61.459,116.888L61.459,116.888z M61.459,116.361
									c-0.566,0-1.025,0.459-1.025,1.023c0,0.567,0.459,1.026,1.025,1.026s1.027-0.459,1.027-1.026
									C62.486,116.82,62.025,116.361,61.459,116.361L61.459,116.361z"/>
							</g>
						</g>
					</g>
					<g>
						<g>
							<g>
								<circle fill="#60281B" cx="58.466" cy="117.217" r="0.761"/>
							</g>
						</g>
						<g>
							<g>
								<path fill="#F2B172" d="M58.466,116.719c0.274,0,0.497,0.223,0.497,0.497s-0.223,0.497-0.497,0.497
									s-0.497-0.223-0.497-0.497S58.192,116.719,58.466,116.719L58.466,116.719z M58.466,116.19c-0.565,0-1.025,0.459-1.025,1.025
									c0,0.565,0.46,1.024,1.025,1.024c0.566,0,1.026-0.459,1.026-1.024C59.492,116.649,59.033,116.19,58.466,116.19
									L58.466,116.19z"/>
							</g>
						</g>
					</g>
					<g>
						<g>
							<g>
								<circle fill="#60281B" cx="64.654" cy="116.524" r="0.762"/>
							</g>
						</g>
						<g>
							<g>
								<path fill="#F2B172" d="M64.654,116.027c0.273,0,0.497,0.223,0.497,0.497c0,0.272-0.224,0.497-0.497,0.497
									c-0.275,0-0.499-0.225-0.499-0.497C64.155,116.25,64.379,116.027,64.654,116.027L64.654,116.027z M64.654,115.498
									c-0.566,0-1.026,0.459-1.026,1.026c0,0.564,0.46,1.023,1.026,1.023c0.566,0,1.024-0.459,1.024-1.023
									C65.678,115.957,65.22,115.498,64.654,115.498L64.654,115.498z"/>
							</g>
						</g>
					</g>
					<g>
						<g>
							<g>
								<circle fill="#60281B" cx="68.355" cy="117.423" r="0.762"/>
							</g>
						</g>
						<g>
							<g>
								<path fill="#F2B172" d="M68.355,116.926c0.273,0,0.496,0.223,0.496,0.497s-0.223,0.499-0.496,0.499
									c-0.275,0-0.498-0.225-0.498-0.499S68.08,116.926,68.355,116.926L68.355,116.926z M68.355,116.396
									c-0.567,0-1.026,0.462-1.026,1.026c0,0.567,0.459,1.026,1.026,1.026c0.565,0,1.025-0.459,1.025-1.026
									C69.38,116.858,68.92,116.396,68.355,116.396L68.355,116.396z"/>
							</g>
						</g>
					</g>
				</g>
				<g>
					<g>
						<path fill="#E63F3F" d="M76.178,125.056c-0.004-0.046-0.009-0.094-0.017-0.14l-0.74-4.256
							c-0.207-1.744-1.466-3.275-3.274-3.275h-8.279h-0.428h-8.278c-1.809,0-3.068,1.531-3.275,3.275l-0.74,4.256
							c-0.097,0.762,0.018,1.147,0.311,1.341h5.069h0.297h13.664h0.46h4.905C76.125,126.076,76.245,125.726,76.178,125.056z"/>
					</g>
				</g>
				<g>
					<g>
						<path fill="#FFFFFF" d="M57.033,121.782c0.573,0.121,0.89,0.394,0.89,0.938c0,0.7-0.545,1.036-1.2,1.036
							c-0.392,0-0.715-0.052-1.112-0.181l-0.29-0.094l0.127-0.626l0.29,0.099c0.316,0.107,0.661,0.203,0.977,0.203
							c0.264,0,0.5-0.121,0.5-0.403c0-0.211-0.114-0.324-0.385-0.386l-0.6-0.128c-0.573-0.121-0.891-0.403-0.891-0.944
							c0-0.698,0.533-1.024,1.201-1.024c0.39,0,0.707,0.062,1.099,0.184l0.289,0.093l-0.127,0.635l-0.29-0.107
							c-0.325-0.115-0.641-0.205-0.964-0.205c-0.277,0-0.492,0.124-0.492,0.408c0,0.207,0.107,0.322,0.384,0.384L57.033,121.782z"/>
						<path fill="#FFFFFF" d="M58.4,123.711v-3.422h0.755v3.422H58.4z"/>
						<path fill="#FFFFFF" d="M60.146,123.711c-0.268,0-0.431-0.155-0.431-0.396v-2.623c0-0.251,0.155-0.397,0.426-0.397h1.178
							c0.635,0,1.005,0.282,1.005,0.875c0,0.234-0.081,0.445-0.215,0.612l-0.141,0.19l0.175,0.174
							c0.195,0.196,0.303,0.413,0.303,0.668c0,0.566-0.384,0.904-1.113,0.904L60.146,123.711L60.146,123.711z M61.206,120.827H60.45
							v0.903h0.93l0.135-0.191c0.068-0.093,0.107-0.208,0.107-0.342C61.623,120.98,61.509,120.827,61.206,120.827z M60.45,122.262
							v0.919h0.809c0.303,0,0.458-0.157,0.458-0.387c0-0.127-0.054-0.234-0.148-0.344l-0.181-0.188H60.45z"/>
						<path fill="#FFFFFF" d="M63.349,123.711c-0.27,0-0.431-0.155-0.431-0.396v-2.617c0-0.248,0.162-0.403,0.431-0.403h1.976v0.559
							h-1.659v0.841h1.449v0.547h-1.449v0.911h1.666v0.559H63.349z"/>
						<path fill="#FFFFFF" d="M66.639,123.152h1.752v0.559H66.08c-0.243,0-0.358-0.155-0.358-0.363c0-0.122,0.047-0.223,0.122-0.316
							l1.638-2.178h-1.685v-0.564h2.238c0.25,0,0.357,0.152,0.357,0.367c0,0.115-0.041,0.215-0.122,0.318L66.639,123.152z"/>
						<path fill="#FFFFFF" d="M71.095,123.711l-0.209-0.626h-1.273l-0.209,0.626h-0.754l1.092-3.106
							c0.081-0.229,0.25-0.352,0.532-0.352c0.271,0,0.453,0.123,0.527,0.346l1.058,3.112H71.095z M70.266,121.015l-0.506,1.523
							h0.983L70.266,121.015z"/>
					</g>
				</g>
			</g>
			<g>
				<g>
					<g>
						<path fill="#FFF4E3" d="M142.171,141.529c0,0.341-0.276,0.619-0.619,0.619h-23.247c-0.342,0-0.619-0.278-0.619-0.619l0,0
							c0-0.342,0.277-0.618,0.619-0.618h23.247C141.895,140.911,142.171,141.188,142.171,141.529L142.171,141.529z"/>
					</g>
					<g>
						<path fill="#FFF4E3" d="M142.171,144.31c0,0.341-0.276,0.619-0.619,0.619h-23.247c-0.342,0-0.619-0.278-0.619-0.619l0,0
							c0-0.342,0.277-0.618,0.619-0.618h23.247C141.895,143.691,142.171,143.968,142.171,144.31L142.171,144.31z"/>
					</g>
					<g>
						<path fill="#FFF4E3" d="M142.171,147.09c0,0.342-0.276,0.619-0.619,0.619h-23.247c-0.342,0-0.619-0.277-0.619-0.619l0,0
							c0-0.342,0.277-0.618,0.619-0.618h23.247C141.895,146.472,142.171,146.748,142.171,147.09L142.171,147.09z"/>
					</g>
				</g>
				<g>
					<path fill="#FFFFFF" d="M53.542,146.343c-1.145,0-1.834-0.639-1.834-1.709v-10.101c0-1.071,0.672-1.706,1.834-1.706h4.723
						c2.616,0,4.123,1.144,4.123,3.522c0,0.929-0.345,1.781-0.891,2.472l-0.472,0.616l0.544,0.564
						c0.818,0.78,1.273,1.671,1.273,2.707c0,2.289-1.544,3.634-4.505,3.634H53.542z M57.683,135.243h-2.561v3.123h3.143l0.454-0.654
						c0.236-0.326,0.382-0.727,0.382-1.18C59.1,135.788,58.7,135.243,57.683,135.243z M55.122,140.748v3.158h2.743
						c1.035,0,1.581-0.527,1.581-1.324c0-0.454-0.182-0.836-0.51-1.182l-0.599-0.652H55.122z"/>
					<path fill="#FFFFFF" d="M65.93,135.279c-1.017,0-1.618-0.562-1.618-1.472c0-0.889,0.601-1.454,1.618-1.454
						s1.616,0.565,1.616,1.454C67.546,134.717,66.947,135.279,65.93,135.279z M64.513,146.343v-9.993h2.833v9.993H64.513z"/>
					<path fill="#FFFFFF" d="M78.301,132.263v12.081c0,0.889-0.365,1.36-1.273,1.635c-1.235,0.364-2.197,0.453-3.196,0.453
						c-3.053,0-4.85-1.833-4.85-5.031c0-3.216,1.507-5.103,4.486-5.103c0.727,0,1.453,0.198,1.962,0.342v-3.868
						C76.375,132.608,77.355,132.447,78.301,132.263z M71.833,141.381c0,1.762,0.635,2.815,2.144,2.815
						c0.453,0,0.744-0.054,1.453-0.198v-5.121c-0.818-0.219-1.199-0.274-1.562-0.292C72.414,138.585,71.833,139.547,71.833,141.381z
						"/>
					<path fill="#FFFFFF" d="M57.483,157.833h-2.361v4.686h-3.415v-11.787c0-1.072,0.672-1.727,1.834-1.727h4.124
						c2.743,0,4.522,1.688,4.522,4.413C62.188,156.16,60.354,157.833,57.483,157.833z M56.92,151.529h-1.798v3.778h2.052
						c1.145,0,1.853-0.69,1.853-1.89C59.026,152.02,58.155,151.529,56.92,151.529z"/>
					<path fill="#FFFFFF" d="M72.105,162.755l-0.907-0.472c-0.49-0.254-0.963-0.236-1.563-0.109l-0.418,0.092
						c-0.798,0.181-1.78,0.362-2.525,0.362c-2.234,0-3.578-1.09-3.578-2.943c0-2.56,2.143-3.16,4.668-3.16h1.562v-0.525
						c0-0.962-0.618-1.29-1.562-1.29c-0.763,0-1.908,0.181-2.924,0.507l-1.053,0.346l-0.346-2.217l0.962-0.289
						c1.308-0.401,2.436-0.636,3.669-0.636c2.361,0,3.997,0.925,3.997,3.45v4.413l1.071,0.656L72.105,162.755z M69.381,158.416
						h-1.852c-0.981,0-1.599,0.326-1.599,1.161c0,0.706,0.509,1.054,1.325,1.054c0.382,0,0.891-0.092,1.454-0.236l0.671-0.163
						V158.416z"/>
					<path fill="#FFFFFF" d="M79.245,160.267c0.636,0,1.453-0.198,2.234-0.455l0.799-0.234l0.346,2.324l-0.836,0.255
						c-0.998,0.309-1.962,0.491-2.869,0.491c-2.834,0-4.778-1.692-4.778-5.123c0-3.362,1.944-5.123,4.778-5.123
						c0.907,0,1.871,0.182,2.869,0.489l0.836,0.255l-0.346,2.327l-0.799-0.237c-0.781-0.238-1.598-0.436-2.234-0.436
						c-1.417,0-2.163,0.871-2.163,2.725C77.082,159.376,77.828,160.267,79.245,160.267z"/>
					<path fill="#FFFFFF" d="M90.307,162.519l-1.854-4.232l-0.672,0.782c-0.509,0.58-0.854,0.979-0.854,1.998v1.452h-2.852v-13.569
						l2.852-0.507v7.957l3.16-3.87h3.434l-2.815,3.358l2.888,6.631H90.307z"/>
				</g>
				<g>
					<circle fill="#FFCA28" cx="107.878" cy="144.31" r="4.439"/>
					<path fill="#FFFFFF" d="M107.878,141.51c-1.546,0-2.799,1.253-2.799,2.8c0,1.546,1.253,2.801,2.799,2.801
						c1.546,0,2.799-1.255,2.799-2.801C110.677,142.763,109.424,141.51,107.878,141.51z"/>
					<g>
						<path fill="#E3AB00" d="M106.74,142.97h1.356c0.502,0,0.836,0.252,0.836,0.739c0,0.227-0.107,0.428-0.295,0.545
							c0.258,0.104,0.379,0.285,0.379,0.595c0,0.505-0.386,0.802-0.855,0.802h-1.421V142.97z M107.947,144.031
							c0.181,0,0.299-0.075,0.299-0.28c0-0.223-0.114-0.276-0.311-0.276h-0.517v0.557H107.947z M107.99,145.144
							c0.218,0,0.341-0.064,0.341-0.295c0-0.227-0.123-0.314-0.357-0.314h-0.555v0.609H107.99z"/>
					</g>
				</g>
				<g>
					<g>
						<g>
							<path fill="#FFF4E3" d="M142.151,155.534c0,0.342-0.275,0.618-0.617,0.618h-23.251c-0.342,0-0.617-0.276-0.617-0.618l0,0
								c0-0.34,0.275-0.616,0.617-0.616h23.251C141.875,154.918,142.151,155.194,142.151,155.534L142.151,155.534z"/>
						</g>
						<g>
							<path fill="#FFF4E3" d="M142.151,158.316c0,0.342-0.275,0.618-0.617,0.618h-23.251c-0.342,0-0.617-0.276-0.617-0.618l0,0
								c0-0.34,0.275-0.619,0.617-0.619h23.251C141.875,157.697,142.151,157.977,142.151,158.316L142.151,158.316z"/>
						</g>
						<g>
							<path fill="#FFF4E3" d="M142.151,161.095c0,0.344-0.275,0.618-0.617,0.618h-23.251c-0.342,0-0.617-0.274-0.617-0.618l0,0
								c0-0.339,0.275-0.617,0.617-0.617h23.251C141.875,160.478,142.151,160.756,142.151,161.095L142.151,161.095z"/>
						</g>
					</g>
					<g>
						<circle fill="#DF413D" cx="107.878" cy="158.316" r="4.439"/>
						<path fill="#FFFFFF" d="M107.878,155.516c-1.546,0-2.799,1.255-2.799,2.801c0,1.545,1.253,2.798,2.799,2.798
							c1.546,0,2.799-1.253,2.799-2.798C110.677,156.771,109.424,155.516,107.878,155.516z"/>
						<g>
							<path fill="#AA2233" d="M106.378,158.318c0-1.062,0.578-1.698,1.5-1.698c0.921,0,1.498,0.636,1.498,1.698
								c0,1.06-0.591,1.696-1.498,1.696C106.969,160.015,106.378,159.378,106.378,158.318z M108.535,158.33
								c0-0.564-0.225-0.933-0.656-0.933c-0.434,0-0.657,0.368-0.657,0.933s0.237,0.911,0.657,0.911
								C108.297,159.241,108.535,158.895,108.535,158.33z"/>
						</g>
					</g>
				</g>
				<g>
					<path fill="#E63F3F" d="M86.775,138.543c1.244-0.493,0.377-3.051-0.183-4.018c-0.562-0.966-1.54-0.539-1.54-0.539
						c-0.725,0.291-1.848,1.922-1.354,3.181C84.191,138.426,85.531,139.038,86.775,138.543z"/>
					<path fill="#E63F3F" d="M88.979,136.19c1.51,0.526,2.029-2.148,2.192-2.814c0.166-0.668,0.402-1.935-0.971-1.963
						c0,0-1.943-0.171-2.267,1.345C87.612,134.271,87.47,135.661,88.979,136.19z"/>
					<path fill="#E63F3F" d="M96.302,137.92c0,0-0.5-0.942-1.539-0.536c-1.04,0.405-3.314,1.865-2.647,3.026
						c0.665,1.159,2.093,1.52,3.261,0.841C96.548,140.575,96.686,138.599,96.302,137.92z"/>
					<path fill="#E63F3F" d="M94.814,135.164c0.693-1.386-0.934-2.464-0.934-2.464c-1.092-0.831-1.695,0.306-1.982,0.929
						c-0.288,0.624-1.547,3.04-0.04,3.567C93.366,137.726,94.123,136.55,94.814,135.164z"/>
					<path fill="#E63F3F" d="M90.832,140.201c0.137-0.837-0.433-1.466-1.138-1.708c-0.704-0.251-1.541-0.111-1.953,0.626
						c-0.383,0.683-1.015,1.074-1.743,1.305c-1.484,0.468-2.311,2.16-1.125,3.359c0.415,0.413,0.907,0.741,1.33,1.142
						c0.296,0.278,0.652,0.469,1.029,0.604c0.383,0.133,0.778,0.2,1.183,0.167c0.583-0.046,1.169,0.006,1.75-0.062
						c1.674-0.197,2.084-2.039,1.215-3.327C90.953,141.675,90.706,140.973,90.832,140.201z"/>
				</g>
			</g>
		</g>
		<g>
			<g>
				<g>
					<rect x="52.229" y="66.088" fill="#213763" width="47.921" height="28.444"/>
				</g>
				<g>
					<rect x="52.229" y="47.182" fill="#213763" width="47.921" height="18.906"/>
				</g>
			</g>
			<g>
				<g>
					<path fill="#E63F3F" d="M59.896,91.379c-1.505,0-2.413-0.836-2.413-2.245V75.855c0-1.409,0.885-2.246,2.413-2.246h6.208
						c3.438,0,5.422,1.505,5.422,4.633c0,1.218-0.454,2.341-1.171,3.25l-0.62,0.811l0.717,0.739c1.074,1.028,1.671,2.199,1.671,3.56
						c0,3.008-2.031,4.776-5.923,4.776H59.896z M65.34,76.787h-3.368v4.107h4.132l0.597-0.858c0.311-0.431,0.501-0.956,0.501-1.554
						C67.203,77.504,66.677,76.787,65.34,76.787z M61.972,84.022v4.155h3.607c1.36,0,2.077-0.692,2.077-1.743
						c0-0.598-0.238-1.099-0.669-1.552l-0.787-0.86H61.972z"/>
					<path fill="#E63F3F" d="M76.184,76.835c-1.338,0-2.126-0.742-2.126-1.935c0-1.17,0.789-1.911,2.126-1.911
						c1.336,0,2.125,0.741,2.125,1.911C78.309,76.094,77.52,76.835,76.184,76.835z M74.321,91.379V78.243h3.726v13.136H74.321z"/>
					<path fill="#E63F3F" d="M92.447,72.871v15.88c0,1.169-0.479,1.792-1.672,2.15c-1.623,0.478-2.89,0.597-4.202,0.597
						c-4.012,0-6.377-2.412-6.377-6.615c0-4.227,1.982-6.711,5.898-6.711c0.956,0,1.911,0.264,2.581,0.454V73.54
						C89.916,73.324,91.205,73.11,92.447,72.871z M83.945,84.858c0,2.317,0.836,3.703,2.819,3.703c0.597,0,0.978-0.072,1.911-0.263
						v-6.734c-1.076-0.287-1.577-0.358-2.055-0.383C84.709,81.181,83.945,82.447,83.945,84.858z"/>
				</g>
				<g>
					<path fill="#E63F3F" d="M55.788,70.123v-2.928h4.402V56.323h-0.521c-0.591,0-1.884,0.16-2.588,0.614l-0.568-2.951
						c1.158-0.568,2.997-0.75,3.995-0.75h1.248c1.475,0,2.293,0.817,2.293,2.156v11.803h3.587v2.928H55.788z"/>
					<path fill="#E63F3F" d="M80.663,64.699c0,3.585-1.929,5.652-5.629,5.652c-3.746,0-5.766-2.021-5.766-5.584v-6.083
						c0-3.563,2.02-5.629,5.698-5.629c3.745,0,5.697,2.043,5.697,5.607V64.699z M76.985,58.57c0-1.566-0.613-2.451-1.998-2.451
						c-1.407,0-1.997,0.885-1.997,2.451v6.265c0,1.543,0.59,2.473,1.997,2.473c1.385,0,1.998-0.885,1.998-2.473V58.57z"/>
					<path fill="#E63F3F" d="M94.053,64.699c0,3.585-1.929,5.652-5.629,5.652c-3.746,0-5.766-2.021-5.766-5.584v-6.083
						c0-3.563,2.02-5.629,5.697-5.629c3.745,0,5.697,2.043,5.697,5.607V64.699z M90.376,58.57c0-1.566-0.613-2.451-1.998-2.451
						c-1.407,0-1.998,0.885-1.998,2.451v6.265c0,1.543,0.591,2.473,1.998,2.473c1.385,0,1.998-0.885,1.998-2.473V58.57z"/>
				</g>
			</g>
		</g>
	</g>
</g>
</svg>
