<?xml version="1.0" encoding="utf-8"?>
<!-- Generator: Adobe Illustrator 16.0.0, SVG Export Plug-In . SVG Version: 6.00 Build 0)  -->
<!DOCTYPE svg PUBLIC "-//W3C//DTD SVG 1.1//EN" "http://www.w3.org/Graphics/SVG/1.1/DTD/svg11.dtd">
<svg version="1.1" id="Layer_1" xmlns="http://www.w3.org/2000/svg" xmlns:xlink="http://www.w3.org/1999/xlink" x="0px" y="0px"
	 width="200px" height="200px" viewBox="0 0 200 200" enable-background="new 0 0 200 200" xml:space="preserve">
<g>
	<circle id="circle_1_" fill="#FFDB61" cx="98" cy="100.383" r="87.134"/>
	<g>
		<g>
			<path fill="#33B5B3" d="M144.976,36.887c-25.349,0-47.107,0-47.107,0s-21.758,0-47.108,0
				c-13.631,64.677-11.932,107.053-9.527,127.27h113.269C156.908,143.94,158.608,101.564,144.976,36.887z"/>
			<path fill="#69C3C1" d="M98,178.238h54.29c0,0,1.246-4.611,2.345-13.841H41.365c1.099,9.229,2.345,13.841,2.345,13.841H98z"/>
			<g>
				<g>
					<path fill="#3D657F" d="M141.813,22.528V33.58c0,0.342-0.277,0.619-0.619,0.619c-0.342,0-0.62-0.277-0.62-0.619V22.528h-1.547
						V33.58c0,0.342-0.277,0.619-0.618,0.619c-0.343,0-0.62-0.277-0.62-0.619V22.528h-1.548V33.58c0,0.342-0.277,0.619-0.619,0.619
						c-0.341,0-0.619-0.277-0.619-0.619V22.528h-1.687V33.58c0,0.342-0.277,0.619-0.618,0.619c-0.343,0-0.62-0.277-0.62-0.619
						V22.528h-1.548V33.58c0,0.342-0.277,0.619-0.619,0.619c-0.342,0-0.619-0.277-0.619-0.619V22.528h-1.547V33.58
						c0,0.342-0.277,0.619-0.619,0.619c-0.343,0-0.62-0.277-0.62-0.619V22.528h-1.547V33.58c0,0.342-0.277,0.619-0.618,0.619
						c-0.343,0-0.62-0.277-0.62-0.619V22.528h-1.687V33.58c0,0.342-0.277,0.619-0.619,0.619c-0.343,0-0.619-0.277-0.619-0.619
						V22.528h-1.548V33.58c0,0.342-0.277,0.619-0.619,0.619c-0.342,0-0.62-0.277-0.62-0.619V22.528h-1.768V33.58
						c0,0.342-0.277,0.619-0.619,0.619c-0.342,0-0.619-0.277-0.619-0.619V22.528h-1.548V33.58c0,0.342-0.277,0.619-0.619,0.619
						c-0.343,0-0.62-0.277-0.62-0.619V22.528h-1.687V33.58c0,0.342-0.277,0.619-0.619,0.619c-0.343,0-0.619-0.277-0.619-0.619
						V22.528h-1.548V33.58c0,0.342-0.276,0.619-0.618,0.619c-0.343,0-0.62-0.277-0.62-0.619V22.528h-1.547V33.58
						c0,0.342-0.278,0.619-0.62,0.619c-0.342,0-0.619-0.277-0.619-0.619V22.528h-1.547V33.58c0,0.342-0.277,0.619-0.619,0.619
						c-0.343,0-0.62-0.277-0.62-0.619V22.528h-1.686V33.58c0,0.342-0.278,0.619-0.619,0.619c-0.342,0-0.619-0.277-0.619-0.619
						V22.528h-1.549V33.58c0,0.342-0.275,0.619-0.618,0.619s-0.619-0.277-0.619-0.619V22.528H93.68V33.58
						c0,0.342-0.277,0.619-0.62,0.619c-0.341,0-0.619-0.277-0.619-0.619V22.528h-2.768v14.6h55.434v-14.6H141.813z"/>
				</g>
				<g>
					<path fill="#32B79E" d="M92.441,33.58c0,0.342,0.278,0.619,0.619,0.619c0.343,0,0.62-0.277,0.62-0.619V22.528h-1.239V33.58z"/>
					<path fill="#32B79E" d="M95.228,33.58c0,0.342,0.277,0.619,0.619,0.619s0.618-0.277,0.618-0.619V22.528h-1.237V33.58z"/>
					<path fill="#32B79E" d="M98.013,33.58c0,0.342,0.277,0.619,0.619,0.619c0.341,0,0.619-0.277,0.619-0.619V22.528h-1.238V33.58z"
						/>
					<path fill="#32B79E" d="M100.937,33.58c0,0.342,0.277,0.619,0.62,0.619c0.342,0,0.619-0.277,0.619-0.619V22.528h-1.239V33.58z"
						/>
					<path fill="#32B79E" d="M103.723,33.58c0,0.342,0.277,0.619,0.619,0.619c0.342,0,0.62-0.277,0.62-0.619V22.528h-1.239V33.58z"
						/>
					<path fill="#32B79E" d="M106.509,33.58c0,0.342,0.277,0.619,0.62,0.619c0.342,0,0.618-0.277,0.618-0.619V22.528h-1.238V33.58z"
						/>
					<path fill="#32B79E" d="M109.295,33.58c0,0.342,0.276,0.619,0.619,0.619c0.342,0,0.619-0.277,0.619-0.619V22.528h-1.238V33.58z
						"/>
					<path fill="#32B79E" d="M112.219,33.58c0,0.342,0.277,0.619,0.62,0.619c0.341,0,0.619-0.277,0.619-0.619V22.528h-1.238V33.58z"
						/>
					<path fill="#32B79E" d="M115.005,33.58c0,0.342,0.277,0.619,0.619,0.619c0.342,0,0.619-0.277,0.619-0.619V22.528h-1.238V33.58z
						"/>
					<path fill="#32B79E" d="M118.011,33.58c0,0.342,0.277,0.619,0.62,0.619c0.342,0,0.619-0.277,0.619-0.619V22.528h-1.238V33.58z"
						/>
					<path fill="#32B79E" d="M120.797,33.58c0,0.342,0.276,0.619,0.619,0.619c0.342,0,0.619-0.277,0.619-0.619V22.528h-1.238V33.58z
						"/>
					<path fill="#32B79E" d="M123.722,33.58c0,0.342,0.277,0.619,0.62,0.619c0.341,0,0.618-0.277,0.618-0.619V22.528h-1.238V33.58z"
						/>
					<path fill="#32B79E" d="M126.507,33.58c0,0.342,0.276,0.619,0.62,0.619c0.342,0,0.619-0.277,0.619-0.619V22.528h-1.239V33.58z"
						/>
					<path fill="#32B79E" d="M129.293,33.58c0,0.342,0.277,0.619,0.619,0.619c0.342,0,0.619-0.277,0.619-0.619V22.528h-1.238V33.58z
						"/>
					<path fill="#32B79E" d="M132.079,33.58c0,0.342,0.277,0.619,0.62,0.619c0.341,0,0.618-0.277,0.618-0.619V22.528h-1.238V33.58z"
						/>
					<path fill="#32B79E" d="M135.003,33.58c0,0.342,0.278,0.619,0.619,0.619c0.342,0,0.619-0.277,0.619-0.619V22.528h-1.238V33.58z
						"/>
					<path fill="#32B79E" d="M137.79,33.58c0,0.342,0.276,0.619,0.62,0.619c0.341,0,0.618-0.277,0.618-0.619V22.528h-1.238V33.58z"
						/>
					<path fill="#32B79E" d="M140.575,22.528V33.58c0,0.342,0.277,0.619,0.62,0.619c0.342,0,0.619-0.277,0.619-0.619V22.528H140.575
						z"/>
				</g>
				<g>
					<g>
						<path fill="#3D657F" d="M60.703,22.528V33.58c0,0.342-0.276,0.619-0.619,0.619c-0.341,0-0.619-0.277-0.619-0.619V22.528
							h-1.547V33.58c0,0.342-0.277,0.619-0.619,0.619c-0.342,0-0.62-0.277-0.62-0.619V22.528h-1.547V33.58
							c0,0.342-0.277,0.619-0.618,0.619c-0.343,0-0.621-0.277-0.621-0.619V22.528h-3.001v14.6h12.587v-14.6H60.703z"/>
					</g>
					<g>
						<path fill="#32B79E" d="M54.513,34.199c0.341,0,0.618-0.277,0.618-0.619V22.528h-1.239V33.58
							C53.893,33.922,54.17,34.199,54.513,34.199z"/>
					</g>
					<g>
						<path fill="#32B79E" d="M57.298,34.199c0.342,0,0.619-0.277,0.619-0.619V22.528h-1.239V33.58
							C56.679,33.922,56.957,34.199,57.298,34.199z"/>
					</g>
					<g>
						<path fill="#32B79E" d="M60.083,34.199c0.343,0,0.619-0.277,0.619-0.619V22.528h-1.238V33.58
							C59.465,33.922,59.743,34.199,60.083,34.199z"/>
					</g>
				</g>
			</g>
			<g>
				<g>
					<rect x="63.479" y="37.846" fill="#3D657F" width="26.195" height="23.048"/>
				</g>
				<g>
					<rect x="63.479" y="22.528" fill="#3D657F" width="26.195" height="15.318"/>
				</g>
			</g>
		</g>
		<g>
			<g>
				<path fill="#3D657F" d="M101.557,167.83c-0.759,0-1.374,0.357-1.374,0.804v4.312c0,0.443,0.614,0.801,1.374,0.801
					c0.757,0,1.372-0.357,1.372-0.801v-4.312C102.929,168.188,102.314,167.83,101.557,167.83z"/>
			</g>
			<g>
				<path fill="#3D657F" d="M68.42,167.83c-0.757,0-1.372,0.357-1.372,0.804v4.312c0,0.443,0.615,0.801,1.372,0.801
					c0.758,0,1.374-0.357,1.374-0.801v-4.312C69.793,168.188,69.178,167.83,68.42,167.83z"/>
			</g>
			<g>
				<path fill="#3D657F" d="M85.095,167.83c-0.759,0-1.373,0.357-1.373,0.804v4.312c0,0.443,0.614,0.801,1.373,0.801
					c0.758,0,1.373-0.357,1.373-0.801v-4.312C86.468,168.188,85.853,167.83,85.095,167.83z"/>
			</g>
			<g>
				<path fill="#3D657F" d="M134.602,167.83c-0.758,0-1.373,0.357-1.373,0.804v4.312c0,0.443,0.615,0.801,1.373,0.801
					c0.759,0,1.373-0.357,1.373-0.801v-4.312C135.974,168.188,135.36,167.83,134.602,167.83z"/>
			</g>
			<g>
				<path fill="#3D657F" d="M118.139,167.83c-0.757,0-1.373,0.357-1.373,0.804v4.312c0,0.443,0.615,0.801,1.373,0.801
					s1.374-0.357,1.374-0.801v-4.312C119.513,168.188,118.896,167.83,118.139,167.83z"/>
			</g>
		</g>
		<g>
			<circle fill="#FFFFFF" cx="123.191" cy="107.366" r="16.44"/>
			<g>
				<g>
					<defs>
						<circle id="SVGID_1_" cx="123.109" cy="107.189" r="15.893"/>
					</defs>
					<clipPath id="SVGID_2_">
						<use xlink:href="#SVGID_1_"  overflow="visible"/>
					</clipPath>
					<g clip-path="url(#SVGID_2_)">
						<g>
							<g>
								<g>
									<circle fill="#3D657F" cx="123.204" cy="107.213" r="15.893"/>
								</g>
							</g>
							<g>
								<path fill="#D1D3D4" d="M120.553,115.936c0.318,0,0.574,0.326,0.574,0.726c0,0.404-0.256,0.728-0.574,0.728
									c-0.32,0-0.576-0.323-0.576-0.728C119.977,116.262,120.233,115.936,120.553,115.936z"/>
								<ellipse fill="#D1D3D4" cx="127.655" cy="115.164" rx="0.56" ry="0.712"/>
								<path fill="#FFF200" d="M125.444,112.724c0.359,0.282,0.589,0.722,0.589,1.213c0,0.854-0.691,1.548-1.545,1.548
									c-0.853,0-1.542-0.694-1.542-1.548c0-0.129,0.016-0.258,0.05-0.382c0.021-0.1,0.055-0.192,0.101-0.282
									c0.245-0.519,0.775-0.879,1.391-0.879c0.28,0,0.545,0.073,0.772,0.207C125.327,112.636,125.387,112.678,125.444,112.724z"/>
								<path fill="#F1F2F2" d="M133.105,111.272c0.015,0,0.019,0,0.019,0h0.022c-0.017,0.785,0.078,1.572,0.515,2.094
									c0.055,0.065,0.116,0.123,0.182,0.173l-0.056,0.075c-1.252,0.322-2.632-0.208-2.692,0.458
									c-0.051,0.566,0.188,1.155,0.19,1.724c0,0.002,0,0.002,0,0.006c0,0.013,0,0.017,0,0.017l-0.071,0.018
									c-0.167-0.048-0.346-0.071-0.498-0.102c-0.817-0.153-1.488-0.392-2.203-0.819v-0.002c-0.008-0.02-0.013-0.042-0.018-0.065
									c-0.185-0.95-0.034-1.923-0.24-2.888c-0.08-0.368-0.23-0.728-0.286-1.096h0.002c1.136-0.606,2.161-1.374,2.982-2.331
									l0.052-0.008c0.057,0.372,0.151,0.73,0.287,1.07C131.637,110.467,132.246,110.962,133.105,111.272z"/>
								<path fill="#61D1FF" d="M133.281,102.289c0.048,0.854,0.089,1.688,0.111,2.522c-0.141-0.21-0.323-0.38-0.543-0.452
									c0.129-0.768,0.218-1.629,0.349-2.408l0.063-0.002C133.269,102.064,133.273,102.178,133.281,102.289z"/>
								<path fill="#F1F2F2" d="M115.667,99.26v-0.002c0.521-0.963,1.776-1.905,2.557-0.785c0.171,0.25,0.28,0.537,0.392,0.814
									c0.043,0.107,0.133,0.455,0.279,0.482c0.148,0.026,0.243-0.268,0.286-0.367c0.32-0.732,0.654-1.468,1.438-1.797
									c1.997-0.842,3.851-0.084,4.837,1.785c0.495,0.934,0.581,1.946,0.622,2.988c0.005,0.127,0.013,0.258,0.018,0.384
									l0.014,0.019c0.757-0.668,1.721-1.104,2.729-1.188c0.215-0.019,0.725,0.083,1.002,0.017
									c0.841-0.033,3.092,0.459,3.358,0.342c-0.131,0.779-0.219,1.641-0.349,2.408c-0.181-0.057-0.387-0.05-0.617,0.052
									c-0.863,0.38-1.185,1.551-1.271,2.4c-0.059,0.557-0.049,1.146,0.046,1.714l-0.052,0.008
									c-0.822,0.957-1.847,1.725-2.982,2.331h-0.002c-0.524,0.274-1.068,0.52-1.628,0.728c-0.182,0.068-0.366,0.134-0.549,0.195
									c-0.207,0.069-0.415,0.135-0.625,0.192c-1.122,0.331-2.43,0.424-3.751,0.295c-0.395-0.038-0.792-0.096-1.185-0.173
									c-0.051-0.01-0.099-0.021-0.147-0.028c-0.836-0.181-1.655-0.445-2.411-0.801c-0.762-0.358-1.461-0.806-2.049-1.339
									l0.009-0.025c-1.121-0.378-2.103-1.097-2.843-2.235c-0.509-0.784-1.025-2.196-0.754-3.164
									c0.193-0.696,0.971-1.314,1.698-1.296c0.625,0.016,1.249,0.156,1.869,0.229l0.014-0.123
									c-0.347-1.363-0.473-2.723,0.048-4.053C115.664,99.262,115.664,99.262,115.667,99.26z M124.429,101.785
									c0-1.109-0.739-2.008-1.651-2.008c-0.911,0-1.65,0.898-1.65,2.008c0,1.107,0.739,2.005,1.65,2.005
									C123.69,103.79,124.429,102.893,124.429,101.785z M118.245,101.574c0-0.842-0.536-1.52-1.197-1.52
									c-0.659,0-1.195,0.678-1.195,1.52c0,0.838,0.536,1.52,1.195,1.52C117.708,103.094,118.245,102.412,118.245,101.574z"/>
								<path fill="#1B6FB3" d="M131.858,117.063c0.057,1.793,0.404,3.627,0.143,5.415c-0.136,0.935-0.207,2.209-0.343,3.144
									l-4.64,0.227v-0.025c0.78-0.464,1.849-0.901,2.428-1.629c0.708-0.891,0.246-2.164,0.096-3.168
									c-0.094-0.63-0.125-1.261-0.17-1.896c-0.026-0.409-0.038-0.966-0.375-1.263c-0.365-0.32-0.959-0.194-1.383-0.095
									c-0.751,0.179-1.473,0.469-2.205,0.718c-0.722,0.246-1.462,0.469-2.222,0.562c-0.64,0.083-1.371,0.032-2.014-0.014h-0.001
									c-0.085-0.378-0.284-0.73-0.592-0.931c-0.414-0.274-0.84-0.253-1.206-0.048c0.046-0.199,0.087-0.402,0.117-0.61h0.001
									c0.218,0.047,0.432,0.236,0.634,0.326c0.105,0.045,0.196,0.111,0.297,0.137c0.078,0.018,0.21,0,0.281,0.04
									c0.212-0.052,0.336-0.253,0.485-0.399c0.171-0.172,0.372-0.314,0.535-0.498c0.207-0.234,0.039-0.491-0.114-0.735
									c0.829,0.121,1.67-0.104,2.466-0.314c0.664-0.179,1.708-0.286,2.215-0.793c-0.02,0.117-0.041,0.23-0.059,0.346
									c-0.055,0.346,0.389,0.438,0.625,0.581c0.279,0.173,0.523,0.401,0.834,0.521c0.229-0.34,0.661-0.555,0.954-0.839
									c0.16-0.157,0.118-0.251,0.05-0.46c-0.05-0.152-0.141-0.292-0.183-0.447c0.715,0.428,1.385,0.666,2.203,0.819
									c0.152,0.03,0.331,0.054,0.498,0.102c0.17,0.044,0.328,0.113,0.439,0.236C131.885,116.325,131.848,116.747,131.858,117.063z
									"/>
								<path fill="#414042" d="M129.961,101.558c-0.031,0.022-0.072,0.041-0.122,0.052c-0.278,0.066-0.788-0.035-1.002-0.017
									c-1.007,0.085-1.972,0.521-2.729,1.188l-0.014-0.019c-0.005-0.126-0.012-0.257-0.018-0.384
									c-0.041-1.042-0.127-2.055-0.622-2.988c-0.986-1.869-2.84-2.627-4.837-1.785c-0.784,0.329-1.119,1.064-1.438,1.797
									c-0.043,0.1-0.138,0.394-0.286,0.367c-0.146-0.027-0.235-0.375-0.279-0.482c-0.111-0.277-0.22-0.564-0.392-0.814
									c-0.781-1.12-2.036-0.178-2.557,0.785c0.017-0.049,0.037-0.096,0.058-0.145c0.278-0.65,0.694-1.207,1.198-1.675
									c0.531-0.49,1.163-0.876,1.838-1.157c0.268-0.109,0.545-0.205,0.824-0.283c0.881-0.241,1.616-0.282,2.518-0.178l0.014-0.016
									c0.01-0.801-0.074-1.432-0.079-2.234c-0.008-0.706-0.042-1.236,0.039-2.149c1.05,1.035,2.941,1.926,4.241,3.089
									c0.696,0.623,1.381,1.328,1.936,2.08c0.509,0.685,0.861,1.487,1.116,2.3c0.261,0.836,0.507,1.791,0.598,2.665
									C129.964,101.558,129.964,101.558,129.961,101.558z M125.308,96.492c0.045-0.203-0.183-0.613-0.279-0.79
									c-0.516-0.944-1.335-1.659-2.045-2.395c-0.143-0.148-0.269-0.402-0.488-0.445c-0.198,0.329-0.115,1.197-0.127,1.581
									c-0.018,0.613,0.015,1.226,0.032,1.835L125.308,96.492z"/>
								<path fill="#085B9E" d="M129.542,121.026c0.149,1.004,0.611,2.277-0.096,3.168c-0.579,0.728-1.647,1.165-2.428,1.629v0.025
									l-4.817,0.233l-0.002-0.03c-0.305,0-1.2-0.525-1.356-0.593c-0.17-0.073-0.311-0.107-0.456-0.229
									c-0.552-0.457,0.111-1.287-0.307-1.949c0.859-0.701,1.315-1.704,0.842-2.955c0.104-0.117,0.185-0.248,0.233-0.409
									c0.079-0.269,0.084-0.581,0.018-0.877h0.001c0.643,0.046,1.374,0.097,2.014,0.014c0.76-0.094,1.5-0.316,2.222-0.562
									c0.732-0.249,1.453-0.539,2.205-0.718c0.424-0.1,1.018-0.226,1.383,0.095c0.337,0.297,0.349,0.854,0.375,1.263
									C129.417,119.766,129.448,120.396,129.542,121.026z"/>
								<path fill="#1B6FB3" d="M128.513,114.913v0.002c0.042,0.155,0.133,0.295,0.183,0.447c0.068,0.209,0.11,0.303-0.05,0.46
									c-0.293,0.284-0.725,0.499-0.954,0.839c-0.311-0.119-0.555-0.348-0.834-0.521c-0.237-0.144-0.681-0.235-0.625-0.581
									c0.018-0.115,0.039-0.229,0.059-0.346c0.208-1.168,0.497-2.48,0.056-3.611c0-0.002-0.002-0.009-0.005-0.011
									c0.56-0.208,1.104-0.453,1.628-0.728c0.056,0.368,0.206,0.728,0.286,1.096c0.206,0.965,0.055,1.938,0.24,2.888
									C128.5,114.871,128.505,114.894,128.513,114.913z M128.214,115.164c0-0.394-0.252-0.712-0.56-0.712
									c-0.311,0-0.56,0.318-0.56,0.712c0,0.392,0.249,0.712,0.56,0.712C127.962,115.876,128.214,115.556,128.214,115.164z"/>
								<path fill="#F1F2F2" d="M126.346,111.603c0.441,1.131,0.153,2.443-0.056,3.611c-0.506,0.507-1.551,0.614-2.215,0.793
									c-0.796,0.211-1.638,0.436-2.466,0.314c-0.053-0.086-0.106-0.171-0.137-0.253c-0.357-0.906-0.474-1.885-0.786-2.808
									c-0.107-0.316-0.292-1.002-0.603-1.188c0.048,0.008,0.096,0.019,0.147,0.028c-0.082,0.102,0.975,0.877,1.092,0.948
									c0.454,0.265,1.13,0.571,1.673,0.505c-0.034,0.124-0.05,0.253-0.05,0.382c0,0.854,0.689,1.548,1.542,1.548
									c0.854,0,1.545-0.694,1.545-1.548c0-0.491-0.23-0.931-0.589-1.213c0.101-0.105,0.34-0.28,0.502-0.413
									c0.152-0.128,0.441-0.472,0.391-0.704L126.346,111.603z"/>
								<path fill="#ED1C24" d="M126.341,111.592c0.003,0.002,0.005,0.009,0.005,0.011l-0.009,0.004
									c0.05,0.232-0.238,0.576-0.391,0.704c-0.163,0.133-0.402,0.308-0.502,0.413c-0.058-0.046-0.118-0.088-0.184-0.123v-0.002
									c-0.026-0.072,0.199-0.416,0.259-0.491c0.083-0.109,0.177-0.221,0.272-0.32C125.975,111.726,126.159,111.66,126.341,111.592
									z"/>
								<path fill="#F1F2F2" d="M125.792,111.787c-0.095,0.1-0.189,0.211-0.272,0.32c-0.061,0.075-0.286,0.419-0.259,0.491v0.002
									c-0.228-0.134-0.492-0.207-0.772-0.207c-0.616,0-1.146,0.36-1.391,0.879c-0.31,0-0.654-0.209-0.906-0.384
									c-0.225-0.153-0.602-0.487-0.775-0.614c1.321,0.129,2.629,0.036,3.751-0.295
									C125.377,111.922,125.585,111.856,125.792,111.787z"/>
								<path fill="#FFE3E3" d="M125.028,95.702c0.097,0.177,0.325,0.587,0.279,0.79l-2.907-0.213
									c-0.018-0.61-0.05-1.223-0.032-1.835c0.012-0.384-0.07-1.252,0.127-1.581c0.219,0.043,0.345,0.297,0.488,0.445
									C123.693,94.043,124.512,94.758,125.028,95.702z"/>
								<path fill="#FFFFFF" d="M122.778,99.777c0.913,0,1.651,0.898,1.651,2.008c0,1.107-0.739,2.005-1.651,2.005
									c-0.911,0-1.65-0.897-1.65-2.005C121.127,100.676,121.867,99.777,122.778,99.777z M124.309,101.941
									c0-0.884-0.523-1.603-1.167-1.603c-0.646,0-1.166,0.719-1.166,1.603c0,0.889,0.521,1.606,1.166,1.606
									C123.785,103.548,124.309,102.83,124.309,101.941z"/>
								<path fill="#231F20" d="M123.141,100.339c0.644,0,1.167,0.719,1.167,1.603c0,0.889-0.523,1.606-1.167,1.606
									c-0.646,0-1.166-0.718-1.166-1.606C121.975,101.058,122.496,100.339,123.141,100.339z M123.415,101.291
									c0-0.332-0.197-0.6-0.439-0.6c-0.245,0-0.44,0.268-0.44,0.6s0.196,0.598,0.44,0.598
									C123.218,101.889,123.415,101.623,123.415,101.291z"/>
								<ellipse fill="#FFFFFF" cx="122.976" cy="101.29" rx="0.439" ry="0.599"/>
								<path fill="#ED1C24" d="M123.097,113.272c-0.046,0.09-0.08,0.183-0.101,0.282c-0.543,0.066-1.219-0.24-1.673-0.505
									c-0.118-0.071-1.174-0.847-1.092-0.948c0.393,0.077,0.79,0.135,1.185,0.173c0.173,0.127,0.55,0.461,0.775,0.614
									C122.443,113.063,122.788,113.272,123.097,113.272z"/>
								<path fill="#1B6FB3" d="M122.198,126.052l0.002,0.03l-5.824,0.282l-0.003-0.062c-0.143-0.126-0.005-1.961,0.132-2.049
									l0.003-0.01c0.72,0.284,1.803-0.012,2.523-0.33c0.386-0.171,0.741-0.386,1.046-0.633c0.418,0.662-0.245,1.492,0.307,1.949
									c0.146,0.121,0.286,0.155,0.456,0.229C120.999,125.526,121.894,126.052,122.198,126.052z"/>
								<path fill="#1B6FB3" d="M117.692,111.764c-0.174-0.241-0.275-0.474-0.022-0.487l0.002-0.004
									c0.756,0.355,1.575,0.62,2.411,0.801c0.311,0.186,0.496,0.871,0.603,1.188c0.312,0.923,0.429,1.901,0.786,2.808
									c0.03,0.082,0.084,0.167,0.137,0.253c0.153,0.244,0.321,0.501,0.114,0.735c-0.163,0.184-0.363,0.326-0.535,0.498
									c-0.149,0.146-0.273,0.348-0.485,0.399c-0.071-0.04-0.204-0.022-0.281-0.04c-0.101-0.025-0.192-0.092-0.297-0.137
									c-0.203-0.09-0.417-0.279-0.634-0.326h-0.001c0.106-0.714,0.099-1.462-0.194-2.11c-0.067-0.153-0.155-0.296-0.257-0.428
									l0.01-0.008c-0.479-0.833-0.262-1.85-0.942-2.646C118.05,112.192,117.843,111.974,117.692,111.764z M121.127,116.661
									c0-0.399-0.256-0.726-0.574-0.726c-0.32,0-0.576,0.326-0.576,0.726c0,0.404,0.256,0.728,0.576,0.728
									C120.871,117.389,121.127,117.065,121.127,116.661z"/>
								<path fill="#F1F2F2" d="M120.079,123.281c-0.306,0.247-0.661,0.462-1.046,0.633c-0.72,0.318-1.803,0.614-2.523,0.33
									c-0.086-0.036-0.166-0.073-0.242-0.129c-1.005,0.242-2.019,0.528-3.04,0.699c-1.532,0.255-3.062-0.212-3.952-1.547
									c-0.533-0.802-0.748-1.69-0.748-2.593c0-0.941,0.231-1.894,0.576-2.778c1.052-2.693,4.039-5.075,6.765-5.873
									c0.577-0.169,1.228-0.219,1.824-0.26c0.151,0.21,0.358,0.429,0.415,0.495c0.68,0.797,0.462,1.813,0.942,2.646l-0.01,0.008
									c0.102,0.132,0.189,0.274,0.257,0.428c0.293,0.648,0.301,1.396,0.194,2.11c-0.03,0.208-0.071,0.411-0.117,0.61
									c0.366-0.205,0.792-0.227,1.206,0.048c0.309,0.2,0.507,0.553,0.592,0.931c0.067,0.296,0.062,0.608-0.018,0.877
									c-0.048,0.161-0.129,0.292-0.233,0.409C121.394,121.577,120.938,122.58,120.079,123.281z"/>
								<path fill="#414042" d="M118.737,96.223l0.024,0.059c-0.676,0.281-1.308,0.667-1.838,1.157l-0.035-0.037
									c-0.056-0.259-0.198-0.472-0.305-0.711c-0.25-0.563-0.434-1.149-0.65-1.726c-0.073-0.194-0.109-0.566-0.322-0.662
									c-0.312-0.141-0.301,0.31-0.33,0.494h-0.007c-0.002-0.468-0.048-0.982,0.107-1.42c0.116,0.047,0.211,0.217,0.296,0.307
									c0.686,0.735,1.558,1.408,2.4,1.955C118.339,95.811,118.548,95.976,118.737,96.223z"/>
								<path fill="#FFFFFF" d="M117.048,100.055c0.661,0,1.197,0.678,1.197,1.52c0,0.838-0.536,1.52-1.197,1.52
									c-0.659,0-1.195-0.682-1.195-1.52C115.853,100.732,116.389,100.055,117.048,100.055z M118.157,101.693
									c0-0.668-0.377-1.211-0.846-1.211c-0.468,0-0.845,0.543-0.845,1.211c0,0.67,0.377,1.213,0.845,1.213
									C117.78,102.906,118.157,102.363,118.157,101.693z"/>
								<path fill="#231F20" d="M117.311,100.482c0.469,0,0.846,0.543,0.846,1.211c0,0.67-0.377,1.213-0.846,1.213
									c-0.468,0-0.845-0.543-0.845-1.213C116.466,101.025,116.843,100.482,117.311,100.482z M117.511,101.201
									c0-0.252-0.144-0.453-0.32-0.453c-0.174,0-0.317,0.201-0.317,0.453c0,0.248,0.143,0.453,0.317,0.453
									C117.367,101.654,117.511,101.449,117.511,101.201z"/>
								<ellipse fill="#FFFFFF" cx="117.191" cy="101.201" rx="0.32" ry="0.453"/>
								<path fill="#FFE3E3" d="M116.888,97.401l0.035,0.037c-0.504,0.468-0.92,1.024-1.198,1.675
									c-0.021,0.049-0.041,0.096-0.058,0.145c-0.032-0.155-0.146-0.27-0.219-0.408c-0.59-1.15-0.195-2.655-0.174-3.887
									c0-0.053,0-0.108,0-0.166h0.007c0.029-0.184,0.018-0.635,0.33-0.494c0.213,0.096,0.25,0.468,0.322,0.662
									c0.216,0.576,0.399,1.162,0.65,1.726C116.689,96.93,116.832,97.143,116.888,97.401z"/>
								<path fill="none" stroke="#231F20" stroke-width="0.2364" stroke-linecap="round" stroke-miterlimit="10" d="
									M118.755,102.248c-0.607,0.621-1.232,1.132-2.107,1.216c-0.352,0.037-0.698,0.018-1.046-0.022
									c-0.62-0.072-1.243-0.213-1.869-0.229c-0.727-0.019-1.504,0.6-1.698,1.296c-0.271,0.968,0.245,2.38,0.754,3.164
									c0.741,1.139,1.722,1.857,2.843,2.235c0.833,0.284,1.745,0.382,2.689,0.326c1.25-0.074,2.603-0.408,3.749-0.953
									c0.896-0.424,1.725-1.065,2.376-1.85c0.623-0.747,0.958-1.646,1.156-2.607c0.043-0.223,0.084-0.451,0.123-0.676
									c0.003-0.009,0.003-0.016,0.006-0.023"/>
								
									<path fill="none" stroke="#231F20" stroke-width="0.2423" stroke-linecap="round" stroke-linejoin="round" stroke-miterlimit="10" d="
									M132.847,104.369c0-0.002,0-0.006,0.001-0.01c0.129-0.768,0.218-1.629,0.349-2.408c-0.266,0.117-2.517-0.375-3.358-0.342
									c-0.062,0-0.118,0.004-0.161,0.014"/>
								
									<path fill="none" stroke="#231F20" stroke-width="0.2423" stroke-linecap="round" stroke-linejoin="round" stroke-miterlimit="10" d="
									M127.972,110.864c1.136-0.606,2.161-1.374,2.982-2.331"/>
								
									<path fill="none" stroke="#231F20" stroke-width="0.2423" stroke-linecap="round" stroke-linejoin="round" stroke-miterlimit="10" d="
									M115.624,109.934c0.588,0.533,1.287,0.98,2.049,1.339c0.756,0.355,1.575,0.62,2.411,0.801
									c0.048,0.008,0.096,0.019,0.147,0.028c0.393,0.077,0.79,0.135,1.185,0.173c1.321,0.129,2.629,0.036,3.751-0.295
									c0.211-0.058,0.418-0.123,0.625-0.192c0.183-0.062,0.367-0.127,0.549-0.195c0.56-0.208,1.104-0.453,1.628-0.728"/>
								
									<path fill="none" stroke="#231F20" stroke-width="0.2423" stroke-linecap="round" stroke-linejoin="round" stroke-miterlimit="10" d="
									M115.667,99.258c0.017-0.049,0.037-0.096,0.058-0.145c0.278-0.65,0.694-1.207,1.198-1.675
									c0.531-0.49,1.163-0.876,1.838-1.157c0.268-0.109,0.545-0.205,0.824-0.283c0.881-0.241,1.616-0.282,2.518-0.178"/>
								
									<path fill="none" stroke="#231F20" stroke-width="0.2423" stroke-linecap="round" stroke-linejoin="round" stroke-miterlimit="10" d="
									M115.616,103.318c-0.347-1.363-0.473-2.723,0.048-4.053"/>
								
									<path fill="none" stroke="#231F20" stroke-width="0.2423" stroke-linecap="round" stroke-linejoin="round" stroke-miterlimit="10" d="
									M122.116,95.804c0.01-0.801-0.074-1.432-0.079-2.234c-0.008-0.706-0.042-1.236,0.039-2.149
									c1.05,1.035,2.941,1.926,4.241,3.089c0.696,0.623,1.381,1.328,1.936,2.08c0.509,0.685,0.861,1.487,1.116,2.3
									c0.261,0.836,0.507,1.791,0.598,2.665c0.001,0.017,0.001,0.026,0.004,0.043c0,0.015-0.004-0.009-0.009-0.039
									c-0.006-0.034-0.01-0.077-0.01-0.097"/>
								
									<path fill="none" stroke="#231F20" stroke-width="0.2423" stroke-linecap="round" stroke-linejoin="round" stroke-miterlimit="10" d="
									M122.4,96.279c-0.018-0.61-0.05-1.223-0.032-1.835c0.012-0.384-0.07-1.252,0.127-1.581c0.219,0.043,0.345,0.297,0.488,0.445
									c0.709,0.736,1.529,1.451,2.045,2.395c0.097,0.177,0.325,0.587,0.279,0.79L122.4,96.279z"/>
								
									<path fill="none" stroke="#231F20" stroke-width="0.2423" stroke-linecap="round" stroke-linejoin="round" stroke-miterlimit="10" d="
									M115.667,99.258c-0.032-0.155-0.146-0.27-0.219-0.408c-0.59-1.15-0.195-2.655-0.174-3.887c0-0.053,0-0.108,0-0.166
									c-0.002-0.468-0.048-0.982,0.107-1.42c0.116,0.047,0.211,0.217,0.296,0.307c0.686,0.735,1.558,1.408,2.4,1.955
									c0.262,0.171,0.471,0.336,0.66,0.583"/>
								
									<path fill="none" stroke="#231F20" stroke-width="0.2423" stroke-linecap="round" stroke-linejoin="round" stroke-miterlimit="10" d="
									M115.677,99.31c-0.002-0.019-0.006-0.034-0.01-0.05"/>
								
									<path fill="none" stroke="#231F20" stroke-width="0.2423" stroke-linecap="round" stroke-linejoin="round" stroke-miterlimit="10" d="
									M115.281,94.797c0.029-0.184,0.018-0.635,0.33-0.494c0.213,0.096,0.25,0.468,0.322,0.662
									c0.216,0.576,0.399,1.162,0.65,1.726c0.106,0.239,0.249,0.452,0.305,0.711"/>
								
									<path fill="none" stroke="#231F20" stroke-width="0.2423" stroke-linecap="round" stroke-linejoin="round" stroke-miterlimit="10" d="
									M115.555,99.492c0.032-0.075,0.069-0.152,0.109-0.227c0-0.004,0-0.004,0.002-0.006v-0.002
									c0.521-0.963,1.776-1.905,2.557-0.785c0.171,0.25,0.28,0.537,0.392,0.814c0.043,0.107,0.133,0.455,0.279,0.482
									c0.148,0.026,0.243-0.268,0.286-0.367c0.32-0.732,0.654-1.468,1.438-1.797c1.997-0.842,3.851-0.084,4.837,1.785
									c0.495,0.934,0.581,1.946,0.622,2.988c0.005,0.127,0.013,0.258,0.018,0.384"/>
								
									<path fill="none" stroke="#231F20" stroke-width="0.2423" stroke-linecap="round" stroke-linejoin="round" stroke-miterlimit="10" d="
									M126.094,102.792c0.005-0.005,0.01-0.007,0.014-0.011c0.757-0.668,1.721-1.104,2.729-1.188
									c0.215-0.019,0.725,0.083,1.002,0.017c0.05-0.011,0.091-0.029,0.122-0.052c0.002,0,0.002,0,0.005-0.004
									c0.001,0,0.001-0.002,0.004-0.002"/>
								<g>
									<path fill="#231F20" d="M126.215,104.276c0.018-0.001,0.027-0.018,0.017-0.021l0.012,0.012
										c-0.147,0.016-0.272-0.001-0.399-0.002l-0.375-0.021c-0.133-0.004-0.257,0.008-0.384,0.008
										c-0.122,0.014-0.254-0.006-0.357,0.085c0.032-0.149,0.199-0.225,0.324-0.265c0.133-0.046,0.274-0.052,0.405-0.067
										c0.06-0.003,0.073,0.008,0.112,0.011l0.099,0.015c0.064,0.009,0.145,0.022,0.202,0.04c0.134,0.042,0.262,0.102,0.375,0.171
										l0.009,0.006l0.002,0.006C126.249,104.29,126.231,104.279,126.215,104.276z"/>
								</g>
								
									<ellipse fill="none" stroke="#231F20" stroke-width="0.2613" stroke-linecap="round" stroke-linejoin="round" stroke-miterlimit="10" cx="122.778" cy="101.785" rx="1.651" ry="2.005"/>
								
									<path fill="none" stroke="#231F20" stroke-width="0.1962" stroke-linecap="round" stroke-linejoin="round" stroke-miterlimit="10" d="
									M124.309,101.941c0,0.889-0.523,1.606-1.167,1.606c-0.646,0-1.166-0.718-1.166-1.606c0-0.884,0.521-1.603,1.166-1.603
									C123.785,100.339,124.309,101.058,124.309,101.941z"/>
								
									<ellipse fill="none" stroke="#231F20" stroke-width="0.0736" stroke-linecap="round" stroke-linejoin="round" stroke-miterlimit="10" cx="122.975" cy="101.291" rx="0.44" ry="0.598"/>
								
									<ellipse fill="none" stroke="#231F20" stroke-width="0.1935" stroke-linecap="round" stroke-linejoin="round" stroke-miterlimit="10" cx="117.049" cy="101.574" rx="1.196" ry="1.52"/>
								
									<ellipse fill="none" stroke="#231F20" stroke-width="0.1453" stroke-linecap="round" stroke-linejoin="round" stroke-miterlimit="10" cx="117.312" cy="101.693" rx="0.846" ry="1.213"/>
								
									<ellipse fill="none" stroke="#231F20" stroke-width="0.0545" stroke-linecap="round" stroke-linejoin="round" stroke-miterlimit="10" cx="117.192" cy="101.201" rx="0.319" ry="0.453"/>
								<g>
									<path fill="#231F20" d="M121.915,98.525c0.006,0.002,0.065-0.115,0.219-0.264c0.089-0.064,0.195-0.133,0.35-0.152
										c0.125-0.007,0.246-0.035,0.404,0.01c0.059,0.017,0.173,0.041,0.219,0.078c0.056,0.035,0.11,0.061,0.164,0.102
										c0.111,0.096,0.19,0.2,0.235,0.293c0.06,0.086,0.067,0.18,0.084,0.235c0.014,0.058,0.021,0.09,0.021,0.09
										s-0.078-0.116-0.215-0.245c-0.06-0.078-0.152-0.125-0.229-0.189c-0.045-0.031-0.11-0.057-0.167-0.085
										c-0.063-0.038-0.086-0.019-0.152-0.04c-0.094-0.049-0.238-0.036-0.359-0.039c-0.091,0.006-0.203,0.02-0.283,0.058
										C122.038,98.454,121.915,98.525,121.915,98.525z"/>
								</g>
								<g>
									<path fill="#231F20" d="M117.796,99.099c0,0-0.017-0.028-0.047-0.076c-0.034-0.041-0.062-0.134-0.138-0.18
										c-0.064-0.058-0.128-0.115-0.228-0.163c-0.046-0.021-0.087-0.067-0.14-0.068c-0.038-0.01-0.125-0.021-0.121-0.036
										l-0.187,0.021c-0.072-0.002-0.105,0.029-0.138,0.054c-0.031,0.03-0.082,0.026-0.113,0.067
										c-0.034,0.035-0.066,0.068-0.097,0.099c-0.115,0.133-0.185,0.251-0.185,0.251s0.004-0.032,0.012-0.088
										c0.017-0.053,0.001-0.148,0.057-0.234c0.051-0.088,0.094-0.209,0.237-0.285c0.134-0.108,0.248-0.086,0.374-0.123
										c0.126,0.018,0.16,0.042,0.241,0.064c0.074,0.016,0.119,0.07,0.175,0.105c0.113,0.065,0.179,0.189,0.234,0.277
										c0.07,0.086,0.038,0.174,0.055,0.228C117.793,99.066,117.796,99.099,117.796,99.099z"/>
								</g>
								
									<path fill="none" stroke="#231F20" stroke-width="0.2423" stroke-linecap="round" stroke-linejoin="round" stroke-miterlimit="10" d="
									M113.072,118.904c0.821-0.248,1.688-0.322,2.5-0.586c0.953-0.311,1.115-1.049,1.066-1.965
									c-0.044-0.78-0.082-1.776,0.851-2.033c0.625-0.173,1.184,0.122,1.55,0.593c0.102,0.132,0.189,0.274,0.257,0.428
									c0.293,0.648,0.301,1.396,0.194,2.11c-0.03,0.208-0.071,0.411-0.117,0.61c0,0.002-0.002,0.008-0.002,0.01"/>
								
									<path fill="none" stroke="#231F20" stroke-width="0.2423" stroke-linecap="round" stroke-linejoin="round" stroke-miterlimit="10" d="
									M118.887,118.461c0.142-0.167,0.307-0.306,0.486-0.399c0.366-0.205,0.792-0.227,1.206,0.048
									c0.309,0.2,0.507,0.553,0.592,0.931c0.067,0.296,0.062,0.608-0.018,0.877c-0.048,0.161-0.129,0.292-0.233,0.409
									c-0.116,0.136-0.263,0.247-0.418,0.354"/>
								
									<path fill="none" stroke="#231F20" stroke-width="0.2423" stroke-linecap="round" stroke-linejoin="round" stroke-miterlimit="10" d="
									M120.916,120.312c0.003,0.004,0.005,0.01,0.005,0.014c0.473,1.251,0.017,2.254-0.842,2.955
									c-0.306,0.247-0.661,0.462-1.046,0.633c-0.72,0.318-1.803,0.614-2.523,0.33c-0.086-0.036-0.166-0.073-0.242-0.129
									c-0.002,0-0.002-0.002-0.004-0.002"/>
								
									<path fill="none" stroke="#231F20" stroke-width="0.2423" stroke-linecap="round" stroke-linejoin="round" stroke-miterlimit="10" d="
									M117.695,111.764h-0.003c-0.596,0.041-1.247,0.091-1.824,0.26c-2.726,0.798-5.713,3.18-6.765,5.873
									c-0.344,0.885-0.576,1.837-0.576,2.778c0,0.902,0.215,1.791,0.748,2.593c0.89,1.335,2.42,1.802,3.952,1.547
									c1.021-0.171,2.035-0.457,3.04-0.699c0.017-0.004,0.032-0.006,0.048-0.013"/>
								
									<path fill="none" stroke="#231F20" stroke-width="0.2423" stroke-linecap="round" stroke-linejoin="round" stroke-miterlimit="10" d="
									M117.67,111.276c-0.253,0.014-0.152,0.246,0.022,0.487c0.151,0.21,0.358,0.429,0.415,0.495
									c0.68,0.797,0.462,1.813,0.942,2.646"/>
								
									<path fill="none" stroke="#231F20" stroke-width="0.2423" stroke-linecap="round" stroke-linejoin="round" stroke-miterlimit="10" d="
									M119.492,117.451c0.218,0.047,0.432,0.236,0.634,0.326c0.105,0.045,0.196,0.111,0.297,0.137c0.078,0.018,0.21,0,0.281,0.04
									c0.212-0.052,0.336-0.253,0.485-0.399c0.171-0.172,0.372-0.314,0.535-0.498c0.207-0.234,0.039-0.491-0.114-0.735
									c-0.053-0.086-0.106-0.171-0.137-0.253c-0.357-0.906-0.474-1.885-0.786-2.808c-0.107-0.316-0.292-1.002-0.603-1.188"/>
								
									<path fill="none" stroke="#231F20" stroke-width="0.2423" stroke-linecap="round" stroke-linejoin="round" stroke-miterlimit="10" d="
									M127.97,110.862v0.002h0.002c0.008,0.01,0.014,0.014,0.029,0.016"/>
								
									<path fill="none" stroke="#231F20" stroke-width="0.2423" stroke-linecap="round" stroke-linejoin="round" stroke-miterlimit="10" d="
									M128.513,114.913c-0.008-0.02-0.013-0.042-0.018-0.065c-0.185-0.95-0.034-1.923-0.24-2.888
									c-0.08-0.368-0.23-0.728-0.286-1.096"/>
								
									<path fill="none" stroke="#231F20" stroke-width="0.2423" stroke-linecap="round" stroke-linejoin="round" stroke-miterlimit="10" d="
									M126.337,111.576c0.002,0.004,0.004,0.012,0.004,0.016c0.003,0.002,0.005,0.009,0.005,0.011
									c0.441,1.131,0.153,2.443-0.056,3.611c-0.02,0.117-0.041,0.23-0.059,0.346c-0.055,0.346,0.389,0.438,0.625,0.581
									c0.279,0.173,0.523,0.401,0.834,0.521c0.229-0.34,0.661-0.555,0.954-0.839c0.16-0.157,0.118-0.251,0.05-0.46
									c-0.05-0.152-0.141-0.292-0.183-0.447"/>
								
									<path fill="none" stroke="#231F20" stroke-width="0.2423" stroke-linecap="round" stroke-linejoin="round" stroke-miterlimit="10" d="
									M125.444,112.724c0.359,0.282,0.589,0.722,0.589,1.213c0,0.854-0.691,1.548-1.545,1.548c-0.853,0-1.542-0.694-1.542-1.548
									c0-0.129,0.016-0.258,0.05-0.382c0.021-0.1,0.055-0.192,0.101-0.282c0.245-0.519,0.775-0.879,1.391-0.879
									c0.28,0,0.545,0.073,0.772,0.207C125.327,112.636,125.387,112.678,125.444,112.724z"/>
								
									<path fill="none" stroke="#231F20" stroke-width="0.2423" stroke-linecap="round" stroke-linejoin="round" stroke-miterlimit="10" d="
									M120.231,112.102c-0.082,0.102,0.975,0.877,1.092,0.948c0.454,0.265,1.13,0.571,1.673,0.505h0.002"/>
								
									<path fill="none" stroke="#231F20" stroke-width="0.2423" stroke-linecap="round" stroke-linejoin="round" stroke-miterlimit="10" d="
									M123.097,113.272c-0.31,0-0.654-0.209-0.906-0.384c-0.225-0.153-0.602-0.487-0.775-0.614
									c-0.001-0.002-0.001-0.004-0.004-0.004"/>
								
									<path fill="none" stroke="#231F20" stroke-width="0.2423" stroke-linecap="round" stroke-linejoin="round" stroke-miterlimit="10" d="
									M125.261,112.599c-0.026-0.072,0.199-0.416,0.259-0.491c0.083-0.109,0.177-0.221,0.272-0.32"/>
								
									<path fill="none" stroke="#231F20" stroke-width="0.2423" stroke-linecap="round" stroke-linejoin="round" stroke-miterlimit="10" d="
									M126.337,111.606c0.05,0.232-0.238,0.576-0.391,0.704c-0.163,0.133-0.402,0.308-0.502,0.413l-0.002,0.002"/>
								<g>
									<path fill="#231F20" d="M124.91,112.981c0,0-0.07-0.008-0.193-0.022c-0.063-0.011-0.127,0.003-0.202,0.003
										c-0.053-0.002-0.05,0.004-0.102,0.02c-0.039,0.016-0.108,0.018-0.127,0.046c-0.101,0.067-0.203,0.258-0.089,0.459
										c0.061,0.092,0.174,0.163,0.298,0.18c0.137,0.024,0.262-0.018,0.423,0.031c0.131,0.044,0.283,0.184,0.346,0.291
										c0.042,0.049,0.049,0.178,0.055,0.266c-0.027,0.079-0.056,0.169-0.102,0.232c-0.104,0.116-0.228,0.207-0.35,0.24
										c-0.152,0.049-0.278,0.042-0.391,0.014c-0.227-0.049-0.383-0.177-0.455-0.284c-0.069-0.11-0.084-0.181-0.087-0.179
										c-0.002-0.006,0.002-0.013,0.008-0.015c0.005-0.002,0.01,0.001,0.013,0.005c0,0,0.18,0.245,0.551,0.264
										c0.087,0.011,0.19-0.014,0.262-0.03c0.108-0.03,0.173-0.108,0.252-0.171c0.03-0.035,0.04-0.076,0.068-0.114
										c-0.019-0.039,0.022-0.057-0.009-0.122c-0.053-0.137-0.108-0.192-0.214-0.274c-0.094-0.065-0.252-0.054-0.379-0.079
										c-0.143-0.016-0.273-0.077-0.389-0.17c-0.094-0.104-0.181-0.257-0.139-0.407c0.014-0.153,0.133-0.267,0.262-0.323
										c0.062-0.036,0.103-0.024,0.151-0.038c0.039-0.014,0.129-0.013,0.159,0.003c0.09,0.023,0.175,0.027,0.224,0.062
										c0.104,0.06,0.164,0.094,0.164,0.094c0.006,0.003,0.008,0.011,0.005,0.016C124.921,112.98,124.915,112.982,124.91,112.981z
										"/>
								</g>
								
									<path fill="none" stroke="#231F20" stroke-width="0.2423" stroke-linecap="round" stroke-linejoin="round" stroke-miterlimit="10" d="
									M121.593,116.319c0.005,0,0.013,0.002,0.017,0.002c0.829,0.121,1.67-0.104,2.466-0.314c0.664-0.179,1.708-0.286,2.215-0.793
									c0.002,0,0.005-0.002,0.006-0.004"/>
								
									<path fill="none" stroke="#231F20" stroke-width="0.2423" stroke-linecap="round" stroke-linejoin="round" stroke-miterlimit="10" d="
									M128.498,114.905c0.005,0.004,0.01,0.006,0.015,0.008v0.002c0.715,0.428,1.385,0.666,2.203,0.819
									c0.152,0.03,0.331,0.054,0.498,0.102c0.17,0.044,0.328,0.113,0.439,0.236c0.232,0.253,0.196,0.675,0.206,0.991
									c0.057,1.793,0.404,3.627,0.143,5.415c-0.136,0.935-0.207,2.209-0.343,3.144"/>
								
									<path fill="none" stroke="#231F20" stroke-width="0.2423" stroke-linecap="round" stroke-linejoin="round" stroke-miterlimit="10" d="
									M121.173,119.04c0.643,0.046,1.374,0.097,2.014,0.014c0.76-0.094,1.5-0.316,2.222-0.562
									c0.732-0.249,1.453-0.539,2.205-0.718c0.424-0.1,1.018-0.226,1.383,0.095c0.337,0.297,0.349,0.854,0.375,1.263
									c0.045,0.635,0.076,1.266,0.17,1.896c0.149,1.004,0.611,2.277-0.096,3.168c-0.579,0.728-1.647,1.165-2.428,1.629"/>
								
									<path fill="none" stroke="#231F20" stroke-width="0.2423" stroke-linecap="round" stroke-linejoin="round" stroke-miterlimit="10" d="
									M120.074,123.273c0.002,0,0.005,0.006,0.005,0.008c0.418,0.662-0.245,1.492,0.307,1.949
									c0.146,0.121,0.286,0.155,0.456,0.229c0.157,0.067,1.052,0.593,1.356,0.593"/>
								
									<path fill="none" stroke="#231F20" stroke-width="0.2423" stroke-linecap="round" stroke-linejoin="round" stroke-miterlimit="10" d="
									M133.124,111.272c0,0-0.004,0-0.019,0c-0.002,0-0.002,0-0.004,0"/>
								
									<path fill="none" stroke="#231F20" stroke-width="0.2423" stroke-linecap="round" stroke-linejoin="round" stroke-miterlimit="10" d="
									M131.285,115.818c0,0,0-0.004,0-0.017c0-0.004,0-0.004,0-0.006"/>
								
									<path fill="none" stroke="#231F20" stroke-width="0.2423" stroke-linecap="round" stroke-linejoin="round" stroke-miterlimit="10" d="
									M133.787,113.614c-1.252,0.322-2.632-0.208-2.692,0.458c-0.051,0.566,0.188,1.155,0.19,1.724"/>
								
									<path fill="none" stroke="#231F20" stroke-width="0.2423" stroke-linecap="round" stroke-linejoin="round" stroke-miterlimit="10" d="
									M116.374,126.303c-0.143-0.126-0.005-1.961,0.132-2.049"/>
								
									<path fill="#414042" stroke="#231F20" stroke-width="0.2364" stroke-linecap="round" stroke-linejoin="round" stroke-miterlimit="10" d="
									M113.746,106.374c-0.846-0.434-2.107-1.147-1.641-2.367c0.363-0.948,1.808-1.224,2.56-0.64
									c0.494,0.384,0.256,0.926-0.017,1.37L113.746,106.374z"/>
								<path fill="#F1F2F2" d="M144.36,107.518c0.001,0.354,0.006,0.604-0.074,1.171"/>
								<g>
									
										<path fill="#BCBEC0" stroke="#231F20" stroke-width="0.2042" stroke-linecap="round" stroke-linejoin="round" stroke-miterlimit="10" d="
										M144.258,113.601c0,0.732-0.611,1.324-1.366,1.324h-8.654c-0.754,0-1.366-0.592-1.366-1.324V96.037
										c0-0.731,0.612-1.325,1.366-1.325h8.654c0.755,0,1.366,0.594,1.366,1.325V113.601z"/>
									
										<path fill="#E6E7E8" stroke="#231F20" stroke-width="0.2042" stroke-linecap="round" stroke-linejoin="round" stroke-miterlimit="10" d="
										M144.212,112.917c0,0.706-0.573,1.278-1.279,1.278h-8.098c-0.706,0-1.278-0.572-1.278-1.278V95.99
										c0-0.707,0.572-1.278,1.278-1.278h8.098c0.706,0,1.279,0.572,1.279,1.278V112.917z"/>
									<rect x="134.257" y="96.69" fill="#414042" width="9.255" height="14.383"/>
									
										<path fill="none" stroke="#231F20" stroke-width="0.1907" stroke-linecap="round" stroke-linejoin="round" stroke-miterlimit="10" d="
										M139.852,112.599c0,0.533-0.433,0.964-0.968,0.964c-0.533,0-0.966-0.431-0.966-0.964c0-0.535,0.433-0.967,0.966-0.967
										C139.419,111.632,139.852,112.063,139.852,112.599z"/>
									<path fill="#231F20" d="M141.198,95.822c0,0.151-0.122,0.273-0.274,0.273h-4.079c-0.152,0-0.274-0.122-0.274-0.273l0,0
										c0-0.153,0.122-0.273,0.274-0.273h4.079C141.077,95.549,141.198,95.669,141.198,95.822L141.198,95.822z"/>
								</g>
								<path fill="#F1F2F2" d="M145.683,106.754c-0.291,0.304-0.697,0.471-1.15,0.332c-0.367-0.113-0.586-0.394-0.7-0.722
									c0.006-0.52,0.019-0.995,0.062-1.381c0.004-0.049,0.424-0.901,0.431-0.95c0.104-0.93-0.06-1.814-0.06-1.814
									c0.698,0.265,1.323,0.564,1.619,1.294c0.196,0.482,0.309,1.058,0.309,1.618c0,0.32-0.036,0.635-0.115,0.923
									C146.005,106.312,145.868,106.562,145.683,106.754z"/>
								<path fill="#F1F2F2" d="M145.744,106.843c-0.291,0.307-0.697,0.476-1.151,0.333c-0.091-0.028-0.169-0.068-0.242-0.116
									c0.003,0.153,0.007,0.305,0.008,0.458c0.001,0.354,0.094,0.793-0.094,1.067c-0.066,0.157-0.323-0.079-0.461,0.299
									c-0.026,0.288-0.06,0.574-0.107,0.853c0.05,0.384,0.256,0.727,0.677,0.821c0.374,0.084,0.769-0.035,1.08-0.264
									c0.002-0.021,0.002-0.024,0.002-0.002c0.118-0.082,0.223-0.184,0.31-0.297C146.466,109.103,146.042,107.81,145.744,106.843z
									"/>
								<path fill="#F1F2F2" d="M145.456,110.304c-0.002-0.002-0.002-0.004-0.002-0.006v-0.004c-0.311,0.229-0.706,0.348-1.08,0.264
									c-0.033-0.01-0.064-0.023-0.096-0.033v2.398c0.246-0.092,0.473-0.227,0.663-0.412
									C145.586,111.885,145.642,111.141,145.456,110.304z"/>
								
									<path fill="none" stroke="#231F20" stroke-width="0.2423" stroke-linecap="round" stroke-linejoin="round" stroke-miterlimit="10" d="
									M144.327,102.31c0.697,0.264,1.323,0.563,1.619,1.293c0.195,0.481,0.31,1.058,0.31,1.62c0,0.318-0.036,0.632-0.116,0.923
									c-0.073,0.26-0.211,0.509-0.395,0.697c-0.291,0.307-0.697,0.476-1.151,0.333c-0.366-0.114-0.586-0.391-0.7-0.723
									c-0.087-0.25-0.112-0.532-0.091-0.795c0.022-0.259,0.083-0.497,0.171-0.728c0.156-0.407,0.401-0.772,0.675-1.13"/>
								
									<path fill="none" stroke="#231F20" stroke-width="0.2423" stroke-linecap="round" stroke-linejoin="round" stroke-miterlimit="10" d="
									M145.739,106.829c0.297,0.935,0.718,2.178,0.101,3.072c-0.795,1.152-2.43,0.688-2.118-0.787"/>
								
									<path fill="none" stroke="#231F20" stroke-width="0.2423" stroke-linecap="round" stroke-linejoin="round" stroke-miterlimit="10" d="
									M145.456,110.304c0.238,1.01-0.045,2.169-1.135,2.609"/>
								<path fill="#F1F2F2" d="M132.679,109.498c-0.054-0.286,0.003-0.574,0.158-0.793c0.001-0.013,0-0.026,0.001-0.036
									c0.061-0.724,0.142-0.04,0.573-1.174l-0.01-0.002c0.228-0.566,0.383-1.155,0.313-1.777
									c-0.035-0.299-0.143-0.635-0.323-0.904c-0.141-0.21-0.323-0.38-0.543-0.452c-0.181-0.057-0.387-0.05-0.617,0.052
									c-0.863,0.38-1.185,1.551-1.271,2.4c-0.059,0.557-0.049,1.146,0.046,1.714c0.057,0.372,0.151,0.73,0.287,1.07
									c0.297,0.756,0.793,1.227,1.479,1.541C132.78,110.588,132.779,110.037,132.679,109.498z"/>
								
									<path fill="none" stroke="#231F20" stroke-width="0.2423" stroke-linecap="round" stroke-linejoin="round" stroke-miterlimit="10" d="
									M133.019,108.325c0.499-1.003,1.074-2.313,0.445-3.395c-0.655-1.126-1.746-0.395-2.159,0.505
									c-0.807,1.756-0.539,4.711,1.357,5.649"/>
							</g>
						</g>
						<g>
							<g>
								<g>
									<path fill="#FFFFFF" d="M123.205,123.707c-9.094,0-16.492-7.399-16.492-16.494c0-9.093,7.398-16.491,16.492-16.491
										c9.093,0,16.492,7.398,16.492,16.491C139.697,116.308,132.298,123.707,123.205,123.707z M123.205,91.921
										c-8.433,0-15.294,6.86-15.294,15.292c0,8.435,6.861,15.295,15.294,15.295c8.432,0,15.293-6.86,15.293-15.295
										C138.498,98.781,131.637,91.921,123.205,91.921z"/>
								</g>
							</g>
						</g>
					</g>
				</g>
				<path fill="#61D1FF" d="M133.057,102.189c0.048,0.854,0.088,1.689,0.111,2.522c-0.14-0.211-0.323-0.378-0.542-0.451
					c0.128-0.769,0.218-1.63,0.349-2.411l0.063-0.002C133.044,101.965,133.049,102.078,133.057,102.189z"/>
				
					<path fill="none" stroke="#231F20" stroke-width="0.2423" stroke-linecap="round" stroke-linejoin="round" stroke-miterlimit="10" d="
					M132.623,104.269c0-0.002,0-0.006,0.002-0.008c0.128-0.769,0.218-1.63,0.349-2.411c-0.267,0.119-2.517-0.373-3.358-0.34
					c-0.062,0-0.119,0.004-0.162,0.014"/>
				
					<path fill="none" stroke="#231F20" stroke-width="0.2423" stroke-linecap="round" stroke-linejoin="round" stroke-miterlimit="10" d="
					M132.901,111.173c0,0-0.004,0-0.019,0c-0.002,0-0.002,0-0.004,0"/>
				
					<path fill="none" stroke="#231F20" stroke-width="0.2423" stroke-linecap="round" stroke-linejoin="round" stroke-miterlimit="10" d="
					M133.562,113.518c-1.251,0.319-2.631-0.209-2.691,0.457c-0.051,0.562,0.186,1.155,0.189,1.723"/>
				<path fill="#F1F2F2" d="M144.136,107.418c0.002,0.354,0.007,0.604-0.074,1.173"/>
				<g>
					
						<path fill="#BCBEC0" stroke="#231F20" stroke-width="0.2042" stroke-linecap="round" stroke-linejoin="round" stroke-miterlimit="10" d="
						M144.034,113.501c0,0.73-0.611,1.325-1.365,1.325h-8.654c-0.754,0-1.366-0.595-1.366-1.325V95.939
						c0-0.733,0.611-1.328,1.366-1.328h8.654c0.754,0,1.365,0.595,1.365,1.328V113.501z"/>
					
						<path fill="#E6E7E8" stroke="#231F20" stroke-width="0.2042" stroke-linecap="round" stroke-linejoin="round" stroke-miterlimit="10" d="
						M143.989,112.817c0,0.706-0.573,1.276-1.279,1.276h-8.098c-0.707,0-1.278-0.57-1.278-1.276V95.89
						c0-0.707,0.572-1.279,1.278-1.279h8.098c0.706,0,1.279,0.572,1.279,1.279V112.817z"/>
					<rect x="134.033" y="96.591" fill="#414042" width="9.256" height="14.385"/>
					
						<circle fill="none" stroke="#231F20" stroke-width="0.1907" stroke-linecap="round" stroke-linejoin="round" stroke-miterlimit="10" cx="138.661" cy="112.497" r="0.966"/>
					<path fill="#231F20" d="M140.975,95.723c0,0.151-0.123,0.274-0.274,0.274h-4.08c-0.152,0-0.274-0.123-0.274-0.274l0,0
						c0-0.151,0.123-0.273,0.274-0.273h4.08C140.852,95.449,140.975,95.571,140.975,95.723L140.975,95.723z"/>
				</g>
				<path fill="#F1F2F2" d="M145.459,106.654c-0.29,0.305-0.698,0.472-1.151,0.332c-0.365-0.113-0.586-0.394-0.701-0.722
					c0.008-0.52,0.02-0.992,0.064-1.382c0.004-0.049,0.423-0.9,0.429-0.947c0.105-0.932-0.059-1.816-0.059-1.816
					c0.697,0.264,1.323,0.564,1.618,1.293c0.196,0.482,0.31,1.061,0.31,1.619c0,0.32-0.037,0.635-0.116,0.925
					C145.782,106.215,145.644,106.461,145.459,106.654z"/>
				<path fill="#F1F2F2" d="M145.52,106.746c-0.29,0.304-0.697,0.471-1.151,0.33c-0.09-0.028-0.168-0.068-0.242-0.115
					c0.002,0.152,0.008,0.304,0.009,0.457c0.002,0.354,0.095,0.796-0.094,1.07c-0.066,0.152-0.323-0.082-0.461,0.296
					c-0.025,0.29-0.059,0.574-0.108,0.852c0.051,0.386,0.257,0.728,0.679,0.821c0.374,0.083,0.767-0.034,1.079-0.261
					c0.002-0.024,0.002-0.026,0.002-0.002c0.119-0.084,0.223-0.188,0.309-0.297C146.242,109.003,145.818,107.712,145.52,106.746z"/>
				<path fill="#F1F2F2" d="M145.232,110.206c-0.002-0.004-0.002-0.006-0.002-0.008v-0.002c-0.312,0.227-0.705,0.344-1.079,0.261
					c-0.035-0.009-0.064-0.021-0.096-0.032v2.398c0.245-0.094,0.473-0.225,0.663-0.412
					C145.362,111.785,145.419,111.043,145.232,110.206z"/>
				
					<path fill="none" stroke="#231F20" stroke-width="0.2423" stroke-linecap="round" stroke-linejoin="round" stroke-miterlimit="10" d="
					M144.103,102.209c0.698,0.264,1.322,0.566,1.618,1.296c0.197,0.482,0.31,1.058,0.31,1.618c0,0.318-0.036,0.635-0.116,0.923
					c-0.073,0.259-0.21,0.509-0.395,0.7c-0.29,0.304-0.697,0.471-1.151,0.33c-0.365-0.113-0.586-0.392-0.7-0.72
					c-0.087-0.253-0.111-0.533-0.09-0.8c0.021-0.255,0.083-0.495,0.169-0.725c0.159-0.408,0.403-0.774,0.677-1.13"/>
				
					<path fill="none" stroke="#231F20" stroke-width="0.2423" stroke-linecap="round" stroke-linejoin="round" stroke-miterlimit="10" d="
					M145.516,106.729c0.296,0.933,0.717,2.178,0.101,3.073c-0.794,1.153-2.43,0.689-2.118-0.788"/>
				
					<path fill="none" stroke="#231F20" stroke-width="0.2423" stroke-linecap="round" stroke-linejoin="round" stroke-miterlimit="10" d="
					M145.232,110.206c0.236,1.008-0.045,2.168-1.135,2.605"/>
				<path fill="#F1F2F2" d="M132.456,109.398c-0.055-0.288,0.001-0.574,0.158-0.793c0-0.01,0-0.026,0-0.038
					c0.061-0.722,0.142-0.038,0.574-1.171l-0.009-0.002c0.228-0.565,0.382-1.158,0.312-1.776c-0.034-0.3-0.143-0.637-0.322-0.906
					c-0.14-0.211-0.323-0.378-0.542-0.451c-0.182-0.058-0.388-0.052-0.618,0.051c-0.863,0.38-1.186,1.551-1.271,2.402
					c-0.059,0.557-0.049,1.146,0.045,1.71c0.059,0.372,0.153,0.734,0.288,1.074c0.298,0.754,0.794,1.225,1.479,1.539
					C132.556,110.488,132.555,109.936,132.456,109.398z"/>
				
					<path fill="none" stroke="#231F20" stroke-width="0.2423" stroke-linecap="round" stroke-linejoin="round" stroke-miterlimit="10" d="
					M132.795,108.226c0.499-1.005,1.075-2.313,0.445-3.396c-0.655-1.126-1.745-0.395-2.16,0.506
					c-0.807,1.756-0.538,4.711,1.357,5.649"/>
				
					<path fill="none" stroke="#231F20" stroke-width="0.2423" stroke-linecap="round" stroke-linejoin="round" stroke-miterlimit="10" d="
					M143.479,108.979c0.334,0.031,0.596-0.283,0.515-0.665"/>
			</g>
		</g>
		<g>
			<g>
				<g>
					<path fill="#60281B" d="M61.321,100.1h-1.67c-0.173,0-0.313,0.156-0.313,0.346v0.508c0-0.189,0.14-0.345,0.313-0.345h1.67
						c0.173,0,0.315,0.155,0.315,0.345v-0.508C61.636,100.256,61.494,100.1,61.321,100.1z"/>
				</g>
			</g>
			<g>
				<g>
					<g>
						<path fill="#471C16" d="M55.338,105.073c0,0.177-0.13,0.32-0.292,0.32h-1.553c-0.16,0-0.291-0.144-0.291-0.32v-1.471
							c0-0.176,0.131-0.318,0.291-0.318h1.553c0.162,0,0.292,0.143,0.292,0.318V105.073z"/>
					</g>
				</g>
				<g opacity="0.5">
					<g>
						<path fill="#60281B" d="M55.046,103.284h-1.553c-0.16,0-0.291,0.143-0.291,0.318v0.474c0-0.178,0.131-0.321,0.291-0.321h1.553
							c0.162,0,0.292,0.144,0.292,0.321v-0.474C55.338,103.427,55.208,103.284,55.046,103.284z"/>
					</g>
				</g>
				<g>
					<g>
						<path fill="#471C16" d="M67.536,105.879c-0.052,0.171-0.219,0.269-0.373,0.221l-1.484-0.458
							c-0.154-0.045-0.236-0.219-0.185-0.392l0.433-1.404c0.052-0.168,0.218-0.268,0.374-0.221l1.484,0.455
							c0.153,0.049,0.235,0.223,0.183,0.395L67.536,105.879z"/>
					</g>
				</g>
				<g>
					<g>
						<path fill="#471C16" d="M67.785,104.08l-1.484-0.455c-0.155-0.047-0.322,0.053-0.374,0.221l-0.139,0.453
							c0.052-0.17,0.218-0.27,0.372-0.221l1.484,0.456c0.154,0.047,0.238,0.223,0.185,0.392l0.139-0.451
							C68.021,104.303,67.938,104.129,67.785,104.08z"/>
					</g>
				</g>
				<g>
					<g>
						<path fill="#471C16" d="M63.568,103.264c0.021,0.189-0.102,0.357-0.274,0.375l-1.656,0.174
							c-0.171,0.019-0.327-0.118-0.347-0.308l-0.165-1.567c-0.021-0.189,0.103-0.357,0.274-0.376l1.656-0.175
							c0.172-0.02,0.326,0.12,0.347,0.311L63.568,103.264z"/>
					</g>
				</g>
				<g>
					<g>
						<path fill="#471C16" d="M63.056,101.387l-1.656,0.175c-0.171,0.019-0.295,0.187-0.274,0.376l0.052,0.504
							c-0.019-0.188,0.104-0.356,0.275-0.375l1.657-0.176c0.171-0.016,0.326,0.121,0.346,0.311l-0.053-0.504
							C63.382,101.507,63.228,101.367,63.056,101.387z"/>
					</g>
				</g>
				<g>
					<g>
						<path fill="#471C16" d="M54.678,105.964c0.037,0.174-0.06,0.341-0.218,0.374l-1.517,0.326
							c-0.158,0.034-0.316-0.077-0.353-0.25l-0.31-1.438c-0.037-0.172,0.061-0.342,0.217-0.374l1.519-0.327
							c0.156-0.035,0.314,0.077,0.353,0.252L54.678,105.964z"/>
					</g>
				</g>
				<g>
					<g>
						<path fill="#471C16" d="M54.016,104.274l-1.519,0.327c-0.156,0.032-0.254,0.202-0.217,0.374l0.1,0.464
							c-0.038-0.175,0.059-0.343,0.217-0.376l1.517-0.328c0.157-0.031,0.314,0.081,0.353,0.252l-0.099-0.461
							C54.33,104.352,54.172,104.239,54.016,104.274z"/>
					</g>
				</g>
				<g>
					<g>
						<path fill="#471C16" d="M58.543,102.775c0,0.18-0.13,0.322-0.291,0.322h-1.554c-0.162,0-0.292-0.143-0.292-0.322v-1.471
							c0-0.178,0.13-0.32,0.292-0.32h1.554c0.161,0,0.291,0.143,0.291,0.32V102.775z"/>
					</g>
				</g>
				<g>
					<g>
						<path fill="#471C16" d="M58.252,100.984h-1.554c-0.162,0-0.292,0.143-0.292,0.32v0.474c0-0.178,0.13-0.319,0.292-0.319h1.554
							c0.161,0,0.291,0.142,0.291,0.319v-0.474C58.543,101.127,58.413,100.984,58.252,100.984z"/>
					</g>
				</g>
				<g>
					<g>
						<path fill="#471C16" d="M65.291,106.472c0,0.208-0.153,0.376-0.343,0.376H63.12c-0.188,0-0.342-0.168-0.342-0.376v-1.729
							c0-0.21,0.154-0.377,0.342-0.377h1.828c0.19,0,0.343,0.167,0.343,0.377V106.472z"/>
					</g>
				</g>
				<g>
					<g>
						<path fill="#872A18" d="M64.947,104.365H63.12c-0.188,0-0.342,0.167-0.342,0.377v0.556c0-0.209,0.154-0.378,0.342-0.378h1.828
							c0.19,0,0.343,0.169,0.343,0.378v-0.556C65.291,104.532,65.138,104.365,64.947,104.365z"/>
					</g>
				</g>
				<g>
					<g>
						<path fill="#60281B" d="M62.49,104.229c0,0.211-0.153,0.378-0.342,0.378h-1.828c-0.19,0-0.342-0.167-0.342-0.378V102.5
							c0-0.209,0.152-0.379,0.342-0.379h1.828c0.188,0,0.342,0.17,0.342,0.379V104.229z"/>
					</g>
				</g>
				<g>
					<g>
						<path fill="#60281B" d="M62.148,102.121h-1.828c-0.19,0-0.342,0.17-0.342,0.379v0.557c0-0.208,0.152-0.377,0.342-0.377h1.828
							c0.188,0,0.342,0.169,0.342,0.377V102.5C62.49,102.291,62.337,102.121,62.148,102.121z"/>
					</g>
				</g>
				<g>
					<g>
						<path fill="#60281B" d="M61.478,102.028c0,0.19-0.14,0.345-0.312,0.345h-1.671c-0.173,0-0.312-0.154-0.312-0.345v-1.583
							c0-0.189,0.139-0.346,0.312-0.346h1.671c0.172,0,0.312,0.156,0.312,0.346V102.028z"/>
					</g>
				</g>
				<g>
					<g>
						<path fill="#60281B" d="M57.341,104.434c0,0.209-0.154,0.378-0.342,0.378h-1.828c-0.19,0-0.343-0.169-0.343-0.378v-1.729
							c0-0.208,0.153-0.376,0.343-0.376H57c0.188,0,0.342,0.168,0.342,0.376V104.434z"/>
					</g>
				</g>
				<g>
					<g>
						<path fill="#60281B" d="M57,102.328h-1.828c-0.19,0-0.343,0.168-0.343,0.376v0.558c0-0.209,0.153-0.379,0.343-0.379H57
							c0.188,0,0.342,0.17,0.342,0.379v-0.558C57.341,102.496,57.187,102.328,57,102.328z"/>
					</g>
				</g>
				<g>
					<g>
						<path fill="#471C16" d="M60.182,104.454c0,0.206-0.155,0.378-0.344,0.378h-1.826c-0.19,0-0.344-0.172-0.344-0.378v-1.729
							c0-0.209,0.153-0.379,0.344-0.379h1.826c0.189,0,0.344,0.17,0.344,0.379V104.454z"/>
					</g>
				</g>
				<g>
					<g>
						<path fill="#471C16" d="M59.838,102.346h-1.826c-0.19,0-0.344,0.17-0.344,0.379v0.555c0-0.208,0.153-0.375,0.344-0.375h1.826
							c0.189,0,0.344,0.167,0.344,0.375v-0.555C60.182,102.516,60.027,102.346,59.838,102.346z"/>
					</g>
				</g>
				<g>
					<g>
						<path fill="#60281B" d="M66.561,104.029c0.032,0.206-0.093,0.395-0.281,0.425l-1.805,0.279
							c-0.187,0.027-0.365-0.116-0.397-0.32l-0.264-1.711c-0.032-0.206,0.094-0.396,0.281-0.425l1.806-0.28
							c0.188-0.028,0.364,0.116,0.396,0.32L66.561,104.029z"/>
					</g>
				</g>
				<g>
					<g>
						<path fill="#60281B" d="M65.901,101.997l-1.806,0.28c-0.187,0.028-0.313,0.219-0.281,0.425l0.087,0.551
							c-0.032-0.206,0.093-0.396,0.279-0.427l1.806-0.277c0.188-0.028,0.365,0.113,0.397,0.32l-0.085-0.552
							C66.265,102.113,66.089,101.969,65.901,101.997z"/>
					</g>
				</g>
				<g>
					<g>
						<path fill="#60281B" d="M65.034,105.513c-0.042,0.201-0.225,0.324-0.41,0.276l-1.785-0.471
							c-0.184-0.052-0.302-0.255-0.26-0.455l0.344-1.682c0.041-0.204,0.224-0.326,0.409-0.277l1.784,0.471
							c0.185,0.052,0.301,0.254,0.261,0.456L65.034,105.513z"/>
					</g>
				</g>
				<g>
					<g>
						<path fill="#60281B" d="M65.116,103.375l-1.784-0.471c-0.185-0.049-0.368,0.073-0.409,0.277l-0.112,0.542
							c0.042-0.203,0.225-0.327,0.41-0.278l1.785,0.472c0.185,0.049,0.302,0.253,0.261,0.456l0.11-0.542
							C65.417,103.629,65.3,103.427,65.116,103.375z"/>
					</g>
				</g>
				<g>
					<g>
						<g>
							<circle fill="#60281B" cx="58.925" cy="102.488" r="0.871"/>
						</g>
					</g>
					<g>
						<g>
							<path fill="#F2B172" d="M58.925,101.92c0.314,0,0.57,0.256,0.57,0.569c0,0.312-0.256,0.567-0.57,0.567
								c-0.315,0-0.569-0.255-0.569-0.567C58.356,102.176,58.61,101.92,58.925,101.92L58.925,101.92z M58.925,101.314
								c-0.648,0-1.174,0.525-1.174,1.175c0,0.647,0.525,1.173,1.174,1.173c0.647,0,1.174-0.525,1.174-1.173
								C60.1,101.84,59.573,101.314,58.925,101.314L58.925,101.314z"/>
						</g>
					</g>
				</g>
				<g>
					<g>
						<path fill="#471C16" d="M63.415,106.443c0.029,0.207-0.1,0.397-0.286,0.432l-1.806,0.307
							c-0.188,0.031-0.362-0.107-0.392-0.312l-0.241-1.71c-0.028-0.207,0.099-0.4,0.288-0.434l1.806-0.306
							c0.186-0.033,0.362,0.108,0.391,0.313L63.415,106.443z"/>
					</g>
				</g>
				<g>
					<g>
						<path fill="#471C16" d="M62.785,104.42l-1.806,0.306c-0.188,0.033-0.316,0.227-0.288,0.434l0.079,0.549
							c-0.029-0.205,0.099-0.398,0.286-0.43l1.806-0.309c0.186-0.031,0.361,0.107,0.39,0.314l-0.077-0.551
							C63.146,104.528,62.97,104.387,62.785,104.42z"/>
					</g>
				</g>
				<g>
					<g>
						<path fill="#60281B" d="M58.278,105.964c0,0.207-0.153,0.378-0.344,0.378h-1.826c-0.189,0-0.342-0.171-0.342-0.378v-1.73
							c0-0.208,0.153-0.378,0.342-0.378h1.826c0.19,0,0.344,0.17,0.344,0.378V105.964z"/>
					</g>
				</g>
				<g>
					<g>
						<path fill="#60281B" d="M57.934,103.855h-1.826c-0.189,0-0.342,0.17-0.342,0.378v0.556c0-0.206,0.153-0.376,0.342-0.376h1.826
							c0.19,0,0.344,0.17,0.344,0.376v-0.556C58.278,104.025,58.125,103.855,57.934,103.855z"/>
					</g>
				</g>
				<g>
					<g>
						<path fill="#471C16" d="M60.944,105.841c0,0.209-0.154,0.378-0.343,0.378h-1.827c-0.189,0-0.342-0.169-0.342-0.378v-1.729
							c0-0.209,0.153-0.378,0.342-0.378h1.827c0.189,0,0.343,0.169,0.343,0.378V105.841z"/>
					</g>
				</g>
				<g>
					<g>
						<path fill="#471C16" d="M60.601,103.733h-1.827c-0.189,0-0.342,0.169-0.342,0.378v0.556c0-0.209,0.153-0.376,0.342-0.376
							h1.827c0.189,0,0.343,0.167,0.343,0.376v-0.556C60.944,103.902,60.79,103.733,60.601,103.733z"/>
					</g>
				</g>
				<g>
					<g>
						<g>
							<circle fill="#60281B" cx="57.691" cy="105.256" r="0.871"/>
						</g>
					</g>
					<g>
						<g>
							<path fill="#F2B172" d="M57.691,104.687c0.314,0,0.57,0.256,0.57,0.567c0,0.314-0.256,0.571-0.57,0.571
								s-0.569-0.257-0.569-0.571C57.122,104.942,57.377,104.687,57.691,104.687L57.691,104.687z M57.691,104.082
								c-0.648,0-1.174,0.525-1.174,1.172c0,0.648,0.526,1.176,1.174,1.176c0.648,0,1.175-0.527,1.175-1.176
								C58.866,104.607,58.339,104.082,57.691,104.082L57.691,104.082z"/>
						</g>
					</g>
				</g>
				<g>
					<g>
						<g>
							<circle fill="#60281B" cx="54.264" cy="105.061" r="0.872"/>
						</g>
					</g>
					<g>
						<g>
							<path fill="#F2B172" d="M54.264,104.491c0.314,0,0.569,0.258,0.569,0.57c0,0.314-0.255,0.568-0.569,0.568
								c-0.313,0-0.569-0.254-0.569-0.568C53.694,104.749,53.95,104.491,54.264,104.491L54.264,104.491z M54.264,103.887
								c-0.647,0-1.173,0.526-1.173,1.175c0,0.646,0.526,1.173,1.173,1.173c0.648,0,1.174-0.526,1.174-1.173
								C55.438,104.413,54.912,103.887,54.264,103.887L54.264,103.887z"/>
						</g>
					</g>
				</g>
				<g>
					<g>
						<g>
							<circle fill="#60281B" cx="61.347" cy="104.269" r="0.872"/>
						</g>
					</g>
					<g>
						<g>
							<path fill="#F2B172" d="M61.347,103.698c0.314,0,0.569,0.256,0.569,0.568c0,0.316-0.255,0.571-0.569,0.571
								c-0.313,0-0.571-0.255-0.571-0.571C60.776,103.954,61.034,103.698,61.347,103.698L61.347,103.698z M61.347,103.094
								c-0.648,0-1.174,0.525-1.174,1.173c0,0.649,0.526,1.177,1.174,1.177c0.649,0,1.174-0.527,1.174-1.177
								C62.521,103.619,61.997,103.094,61.347,103.094L61.347,103.094z"/>
						</g>
					</g>
				</g>
				<g>
					<g>
						<g>
							<circle fill="#60281B" cx="65.584" cy="105.297" r="0.872"/>
						</g>
					</g>
					<g>
						<g>
							<path fill="#F2B172" d="M65.584,104.728c0.315,0,0.569,0.256,0.569,0.57s-0.254,0.569-0.569,0.569
								c-0.313,0-0.568-0.255-0.568-0.569S65.271,104.728,65.584,104.728L65.584,104.728z M65.584,104.123
								c-0.647,0-1.173,0.527-1.173,1.175c0,0.646,0.525,1.174,1.173,1.174c0.648,0,1.174-0.527,1.174-1.174
								C66.758,104.65,66.233,104.123,65.584,104.123L65.584,104.123z"/>
						</g>
					</g>
				</g>
			</g>
			<g>
				<g>
					<path fill="#3D657F" d="M74.542,114.036c-0.005-0.052-0.01-0.105-0.018-0.159l-0.848-4.872c-0.238-1.997-1.68-3.751-3.75-3.751
						h-9.479h-0.491h-9.478c-2.07,0-3.512,1.754-3.75,3.751l-0.848,4.872c-0.111,0.871,0.021,1.314,0.357,1.533h5.803h0.339h15.643
						h0.529h5.615C74.482,115.203,74.618,114.804,74.542,114.036z"/>
				</g>
			</g>
			<g>
				<path fill="#FFCA28" d="M52.623,110.781c0.656,0.137,1.019,0.445,1.019,1.071c0,0.804-0.625,1.188-1.375,1.188
					c-0.447,0-0.818-0.06-1.272-0.207l-0.332-0.109l0.147-0.716l0.331,0.113c0.363,0.125,0.755,0.232,1.12,0.232
					c0.301,0,0.57-0.137,0.57-0.463c0-0.239-0.13-0.37-0.439-0.439l-0.687-0.147c-0.655-0.137-1.019-0.463-1.019-1.08
					c0-0.801,0.61-1.173,1.374-1.173c0.448,0,0.811,0.071,1.258,0.209l0.331,0.109l-0.146,0.724l-0.332-0.123
					c-0.371-0.132-0.733-0.231-1.104-0.231c-0.316,0-0.563,0.14-0.563,0.464c0,0.238,0.123,0.37,0.439,0.439L52.623,110.781z"/>
				<path fill="#FFCA28" d="M54.189,112.988v-3.922h0.864v3.922H54.189z"/>
				<path fill="#FFCA28" d="M56.188,112.988c-0.308,0-0.494-0.179-0.494-0.455v-3.003c0-0.287,0.178-0.456,0.486-0.456h1.351
					c0.726,0,1.151,0.324,1.151,1.003c0,0.271-0.093,0.509-0.247,0.704l-0.162,0.212l0.2,0.203c0.224,0.223,0.348,0.472,0.348,0.764
					c0,0.65-0.439,1.034-1.274,1.034L56.188,112.988L56.188,112.988z M57.399,109.685h-0.865v1.034h1.066l0.154-0.217
					c0.078-0.109,0.123-0.238,0.123-0.394C57.878,109.86,57.748,109.685,57.399,109.685z M56.535,111.328v1.05h0.926
					c0.348,0,0.525-0.18,0.525-0.439c0-0.147-0.061-0.271-0.169-0.394l-0.208-0.217H56.535z"/>
				<path fill="#FFCA28" d="M59.855,112.988c-0.309,0-0.494-0.179-0.494-0.455v-2.995c0-0.286,0.185-0.464,0.494-0.464h2.26v0.639
					h-1.899v0.967h1.66v0.624h-1.66v1.042h1.907v0.643H59.855z"/>
				<path fill="#FFCA28" d="M63.621,112.346h2.005v0.643H62.98c-0.279,0-0.409-0.179-0.409-0.42c0-0.137,0.053-0.252,0.139-0.361
					l1.875-2.494h-1.929v-0.646h2.562c0.286,0,0.408,0.177,0.408,0.424c0,0.131-0.046,0.248-0.138,0.362L63.621,112.346z"/>
				<path fill="#FFCA28" d="M68.722,112.988l-0.239-0.72h-1.459l-0.239,0.72H65.92l1.251-3.558c0.092-0.265,0.285-0.404,0.609-0.404
					c0.309,0,0.518,0.14,0.602,0.396l1.211,3.565H68.722z M67.773,109.899l-0.579,1.744h1.127L67.773,109.899z"/>
			</g>
		</g>
		<g>
			<path fill="#FFFFFF" d="M75.359,30.486c0,1.713-0.66,3.281-2.702,5.137l-3.322,3.033h6.066v2.6h-8.934
				c-1.074,0-1.506-0.681-1.506-1.692c0-0.393,0.145-1.011,0.537-1.382l4.458-4.127c1.339-1.259,2-2.125,2-3.446
				c0-1.361-0.908-2.001-2.29-2.001c-0.929,0-2.105,0.247-3.137,0.599l-1.052,0.372l-0.454-2.745l1.052-0.33
				c1.362-0.434,2.765-0.744,4.105-0.744C73.193,25.761,75.359,27.165,75.359,30.486z"/>
			<path fill="#FFFFFF" d="M84.519,36.222c0-1.567-0.887-2.434-2.455-2.434c-0.846,0-2.021,0.248-2.972,0.516l-1.216,0.352v-8.75
				h9.449v2.849h-6.643v2.743c0.412-0.124,1.3-0.33,2.29-0.33c3.239,0,4.931,1.671,4.931,5.015c0,3.424-2.083,5.219-5.571,5.219
				c-1.382,0.041-2.723-0.268-4.084-0.681l-1.093-0.33l0.474-2.703l1.093,0.33c1.095,0.331,2.292,0.64,3.343,0.64
				C83.757,38.657,84.519,37.728,84.519,36.222z"/>
			<path fill="#FFFFFF" d="M67.154,55.603c-0.927,0-1.487-0.515-1.487-1.383v-8.184c0-0.869,0.544-1.383,1.487-1.383h3.827
				c2.118,0,3.34,0.927,3.34,2.854c0,0.751-0.279,1.442-0.721,2.003l-0.382,0.5l0.441,0.456c0.662,0.632,1.03,1.354,1.03,2.192
				c0,1.855-1.251,2.944-3.65,2.944H67.154z M70.51,46.609h-2.075v2.532h2.546l0.368-0.53c0.19-0.265,0.308-0.589,0.308-0.957
				C71.657,47.051,71.333,46.609,70.51,46.609z M68.435,51.07v2.56h2.222c0.838,0,1.28-0.426,1.28-1.075
				c0-0.367-0.146-0.676-0.412-0.957l-0.485-0.528H68.435z"/>
			<path fill="#FFFFFF" d="M77.192,46.64c-0.825,0-1.31-0.457-1.31-1.192c0-0.722,0.485-1.178,1.31-1.178
				c0.825,0,1.31,0.456,1.31,1.178C78.501,46.183,78.017,46.64,77.192,46.64z M76.043,55.603v-8.095h2.297v8.095H76.043z"/>
			<path fill="#FFFFFF" d="M87.215,44.196v9.787c0,0.722-0.293,1.104-1.03,1.325c-1,0.294-1.781,0.368-2.59,0.368
				c-2.473,0-3.93-1.486-3.93-4.077c0-2.604,1.222-4.135,3.635-4.135c0.59,0,1.177,0.162,1.589,0.279v-3.135
				C85.655,44.476,86.45,44.343,87.215,44.196z M81.976,51.585c0,1.428,0.516,2.281,1.736,2.281c0.369,0,0.604-0.043,1.177-0.162
				v-4.151c-0.662-0.176-0.971-0.22-1.266-0.234C82.447,49.318,81.976,50.098,81.976,51.585z"/>
		</g>
		<g>
			<g>
				<g>
					<path fill="#FFF4E3" d="M150.099,132.898c0,0.393-0.316,0.706-0.708,0.706h-26.619c-0.391,0-0.709-0.313-0.709-0.706l0,0
						c0-0.392,0.318-0.71,0.709-0.71h26.619C149.783,132.188,150.099,132.507,150.099,132.898L150.099,132.898z"/>
				</g>
				<g>
					<path fill="#FFF4E3" d="M150.099,136.081c0,0.39-0.316,0.708-0.708,0.708h-26.619c-0.391,0-0.709-0.318-0.709-0.708l0,0
						c0-0.39,0.318-0.708,0.709-0.708h26.619C149.783,135.373,150.099,135.691,150.099,136.081L150.099,136.081z"/>
				</g>
				<g>
					<path fill="#FFF4E3" d="M150.099,139.265c0,0.39-0.316,0.706-0.708,0.706h-26.619c-0.391,0-0.709-0.316-0.709-0.706l0,0
						c0-0.392,0.318-0.708,0.709-0.708h26.619C149.783,138.557,150.099,138.873,150.099,139.265L150.099,139.265z"/>
				</g>
			</g>
			<g>
				<path fill="#FFFFFF" d="M48.625,138.407c-1.311,0-2.101-0.729-2.101-1.954v-11.566c0-1.226,0.77-1.953,2.101-1.953h5.407
					c2.995,0,4.721,1.311,4.721,4.035c0,1.06-0.395,2.038-1.019,2.826l-0.542,0.71l0.624,0.642c0.937,0.896,1.456,1.915,1.456,3.099
					c0,2.623-1.767,4.162-5.157,4.162H48.625z M53.367,125.7h-2.933v3.577h3.598l0.52-0.75c0.271-0.373,0.438-0.831,0.438-1.35
					C54.99,126.322,54.531,125.7,53.367,125.7z M50.434,132.002v3.617h3.141c1.185,0,1.81-0.603,1.81-1.518
					c0-0.519-0.208-0.956-0.583-1.352l-0.685-0.748H50.434z"/>
				<path fill="#FFFFFF" d="M62.809,125.741c-1.165,0-1.851-0.646-1.851-1.686c0-1.019,0.686-1.663,1.851-1.663
					c1.165,0,1.852,0.645,1.852,1.663C64.66,125.096,63.974,125.741,62.809,125.741z M61.187,138.407v-11.438h3.245v11.438H61.187z"
					/>
				<path fill="#FFFFFF" d="M76.971,122.289v13.829c0,1.021-0.416,1.56-1.456,1.872c-1.415,0.417-2.517,0.521-3.661,0.521
					c-3.494,0-5.552-2.102-5.552-5.761c0-3.682,1.727-5.845,5.137-5.845c0.832,0,1.663,0.229,2.246,0.396v-4.429
					C74.767,122.683,75.89,122.498,76.971,122.289z M69.568,132.728c0,2.019,0.728,3.224,2.454,3.224
					c0.52,0,0.853-0.062,1.664-0.229v-5.864c-0.935-0.249-1.373-0.312-1.788-0.332C70.233,129.526,69.568,130.63,69.568,132.728z"/>
				<path fill="#FFFFFF" d="M53.138,151.562h-2.704v5.365h-3.909v-13.497c0-1.227,0.77-1.975,2.101-1.975h4.721
					c3.141,0,5.179,1.936,5.179,5.054C58.525,149.649,56.424,151.562,53.138,151.562z M52.493,144.346h-2.059v4.327h2.351
					c1.31,0,2.12-0.791,2.12-2.163C54.905,144.908,53.908,144.346,52.493,144.346z"/>
				<path fill="#FFFFFF" d="M69.88,157.2l-1.041-0.543c-0.562-0.288-1.102-0.269-1.789-0.123l-0.478,0.102
					c-0.916,0.211-2.039,0.418-2.891,0.418c-2.558,0-4.097-1.247-4.097-3.369c0-2.934,2.454-3.619,5.344-3.619h1.79v-0.603
					c0-1.104-0.708-1.478-1.79-1.478c-0.873,0-2.183,0.208-3.348,0.582l-1.205,0.396l-0.396-2.538l1.102-0.334
					c1.499-0.457,2.788-0.726,4.201-0.726c2.703,0,4.576,1.06,4.576,3.951v5.054l1.227,0.747L69.88,157.2z M66.76,152.229h-2.12
					c-1.124,0-1.831,0.376-1.831,1.331c0,0.812,0.583,1.207,1.518,1.207c0.437,0,1.019-0.104,1.663-0.271l0.77-0.188V152.229z"/>
				<path fill="#FFFFFF" d="M78.053,154.351c0.727,0,1.664-0.229,2.558-0.521l0.915-0.271l0.396,2.662l-0.957,0.291
					c-1.145,0.354-2.247,0.561-3.286,0.561c-3.244,0-5.47-1.933-5.47-5.864c0-3.849,2.226-5.865,5.47-5.865
					c1.04,0,2.142,0.209,3.286,0.563l0.957,0.29l-0.396,2.663l-0.915-0.272c-0.894-0.269-1.831-0.497-2.558-0.497
					c-1.623,0-2.476,0.998-2.476,3.118C75.578,153.33,76.431,154.351,78.053,154.351z"/>
				<path fill="#FFFFFF" d="M90.719,156.928l-2.122-4.844l-0.769,0.895c-0.583,0.662-0.978,1.124-0.978,2.287v1.662h-3.265v-15.535
					l3.265-0.583v9.11l3.619-4.431h3.931l-3.224,3.848l3.306,7.591H90.719z"/>
			</g>
			<g>
				<circle fill="#FFCA28" cx="110.834" cy="136.08" r="5.082"/>
				<path fill="#FFFFFF" d="M110.834,132.875c-1.77,0-3.205,1.436-3.205,3.206c0,1.77,1.435,3.205,3.205,3.205
					c1.771,0,3.207-1.436,3.207-3.205C114.042,134.311,112.606,132.875,110.834,132.875z"/>
				<g>
					<path fill="#E3AB00" d="M109.531,134.546h1.555c0.575,0,0.957,0.29,0.957,0.849c0,0.259-0.123,0.489-0.339,0.623
						c0.295,0.117,0.436,0.323,0.436,0.68c0,0.581-0.442,0.919-0.979,0.919h-1.628V134.546z M110.914,135.763
						c0.207,0,0.343-0.09,0.343-0.322c0-0.253-0.131-0.316-0.356-0.316h-0.593v0.639H110.914z M110.963,137.035
						c0.25,0,0.39-0.075,0.39-0.338c0-0.261-0.14-0.36-0.409-0.36h-0.636v0.698H110.963z"/>
				</g>
			</g>
			<g>
				<g>
					<g>
						<path fill="#FFF4E3" d="M150.076,148.934c0,0.39-0.316,0.706-0.708,0.706h-26.62c-0.39,0-0.707-0.316-0.707-0.706l0,0
							c0-0.392,0.316-0.706,0.707-0.706h26.62C149.76,148.228,150.076,148.542,150.076,148.934L150.076,148.934z"/>
					</g>
					<g>
						<path fill="#FFF4E3" d="M150.076,152.117c0,0.39-0.316,0.708-0.708,0.708h-26.62c-0.39,0-0.707-0.318-0.707-0.708l0,0
							c0-0.392,0.316-0.708,0.707-0.708h26.62C149.76,151.409,150.076,151.726,150.076,152.117L150.076,152.117z"/>
					</g>
					<g>
						<path fill="#FFF4E3" d="M150.076,155.3c0,0.392-0.316,0.708-0.708,0.708h-26.62c-0.39,0-0.707-0.316-0.707-0.708l0,0
							c0-0.393,0.316-0.706,0.707-0.706h26.62C149.76,154.594,150.076,154.907,150.076,155.3L150.076,155.3z"/>
					</g>
				</g>
				<g>
					<circle fill="#DF413D" cx="110.834" cy="152.117" r="5.083"/>
					<path fill="#FFFFFF" d="M110.834,148.912c-1.77,0-3.205,1.436-3.205,3.203c0,1.772,1.435,3.208,3.205,3.208
						c1.771,0,3.207-1.436,3.207-3.208C114.042,150.348,112.606,148.912,110.834,148.912z"/>
					<g>
						<path fill="#AA2233" d="M109.118,152.119c0-1.215,0.662-1.946,1.716-1.946c1.056,0,1.718,0.731,1.718,1.946
							c0,1.216-0.678,1.941-1.718,1.941C109.795,154.061,109.118,153.335,109.118,152.119z M111.587,152.129
							c0-0.644-0.255-1.065-0.753-1.065c-0.495,0-0.75,0.422-0.75,1.065c0,0.65,0.271,1.047,0.75,1.047
							C111.315,153.176,111.587,152.781,111.587,152.129z"/>
					</g>
				</g>
			</g>
			<g>
				<path fill="#69C3C1" d="M86.675,129.479c1.422-0.565,0.431-3.492-0.21-4.6c-0.644-1.106-1.762-0.617-1.762-0.617
					c-0.829,0.332-2.115,2.2-1.55,3.64C83.716,129.343,85.25,130.045,86.675,129.479z"/>
				<path fill="#69C3C1" d="M89.197,126.786c1.729,0.603,2.324-2.461,2.511-3.222c0.191-0.766,0.459-2.214-1.111-2.25
					c0,0-2.225-0.194-2.596,1.542C87.634,124.586,87.471,126.181,89.197,126.786z"/>
				<path fill="#69C3C1" d="M97.582,128.767c0,0-0.572-1.08-1.762-0.616c-1.191,0.467-3.794,2.138-3.031,3.466
					c0.76,1.328,2.396,1.74,3.735,0.965C97.864,131.805,98.023,129.542,97.582,128.767z"/>
				<path fill="#69C3C1" d="M95.878,125.61c0.793-1.587-1.069-2.82-1.069-2.82c-1.25-0.954-1.942,0.349-2.271,1.062
					c-0.33,0.714-1.771,3.48-0.044,4.083C94.221,128.542,95.086,127.195,95.878,125.61z"/>
				<path fill="#69C3C1" d="M91.319,131.378c0.155-0.957-0.498-1.681-1.303-1.959c-0.805-0.282-1.764-0.124-2.236,0.72
					c-0.438,0.779-1.161,1.229-1.996,1.495c-1.698,0.533-2.644,2.473-1.288,3.845c0.474,0.475,1.038,0.847,1.523,1.307
					c0.338,0.315,0.745,0.536,1.178,0.691c0.438,0.151,0.891,0.229,1.354,0.193c0.667-0.056,1.339,0.006,2.004-0.072
					c1.916-0.227,2.385-2.334,1.39-3.81C91.458,133.063,91.174,132.261,91.319,131.378z"/>
			</g>
		</g>
	</g>
</g>
</svg>
